<?xml version="1.0" encoding="UTF-8" standalone="no"?>
<svg
   inkscape:version="1.3.2 (091e20ef0f, 2023-11-25)"
   id="svg8"
   version="1.1"
   viewBox="0 0 67.733332 33.866668"
   height="128"
   width="256"
   sodipodi:docname="crates.svg"
   xml:space="preserve"
   xmlns:inkscape="http://www.inkscape.org/namespaces/inkscape"
   xmlns:sodipodi="http://sodipodi.sourceforge.net/DTD/sodipodi-0.dtd"
   xmlns:xlink="http://www.w3.org/1999/xlink"
   xmlns="http://www.w3.org/2000/svg"
   xmlns:svg="http://www.w3.org/2000/svg"
   xmlns:rdf="http://www.w3.org/1999/02/22-rdf-syntax-ns#"
   xmlns:cc="http://creativecommons.org/ns#"
   xmlns:dc="http://purl.org/dc/elements/1.1/"><defs
     id="defs2" /><sodipodi:namedview
     units="px"
     showgrid="false"
     inkscape:document-rotation="0"
     inkscape:current-layer="layer1"
     inkscape:document-units="px"
     inkscape:cy="59.725269"
     inkscape:cx="144.83062"
     inkscape:zoom="3.959798"
     inkscape:pageshadow="2"
     inkscape:pageopacity="0"
     borderopacity="1.0"
     bordercolor="#666666"
     pagecolor="#ffffff"
     id="base"
     inkscape:window-width="2560"
     inkscape:window-height="1372"
     inkscape:window-x="0"
     inkscape:window-y="32"
     inkscape:window-maximized="1"
     inkscape:showpageshadow="2"
     inkscape:pagecheckerboard="0"
     inkscape:deskcolor="#d1d1d1" /><metadata
     id="metadata5"><rdf:RDF><cc:Work
         rdf:about=""><dc:format>image/svg+xml</dc:format><dc:type
           rdf:resource="http://purl.org/dc/dcmitype/StillImage" /></cc:Work></rdf:RDF></metadata><g
     id="layer1"
     inkscape:groupmode="layer"
     inkscape:label="Layer 1"><rect
       style="fill:#264323;stroke-width:3.47907;stroke-linecap:round;paint-order:markers stroke fill;fill-opacity:1"
       id="rect848"
       width="67.733337"
       height="33.866669"
       x="-1.7011719e-06"
       y="-8.5058593e-07" /><image
       width="25.4"
       height="25.4"
       preserveAspectRatio="none"
       xlink:href="data:image/png;base64,iVBORw0KGgoAAAANSUhEUgAAAOMAAADjCAYAAAB3jqNMAAAABmJLR0QA/wD/AP+gvaeTAAAACXBI&#10;WXMAAAsTAAALEwEAmpwYAAAAB3RJTUUH4QkOCikfONpgDQAAIABJREFUeNrsvXmsbVtW3vcbc87V&#10;7b1Pd5t373v3NdXRVSK7MBYJyAhsHHASgoMThBtcSWxFaUykWA6KYkUmkaJI+SeW/4oSKQpVRRMC&#10;woAJIgZMV5RDY+GCKqqooqpef9+7zel2u9aac478Medaa99XLzKuV0AV9yypdO87tc+5+6w9xxpj&#10;fN83viFcXV+014Nf/C+eir79Sxr774hqPm5s9b+7ovp1IFzdnS++Sx7+0t++ugtfTJctq+jbr4v9&#10;9r3E9luI3YkQUQQVF8VUv4qt3+fK5h8C965u2BdTMH7wu6/uwhfBFWN8p+833yGx/asSu3+F2EP0&#10;hBiIMYAIRizOOZCSKOUDKaofM7b+Xls0/+9VtvwiCMbTD/03V3fhC/QKwR8Q2m/WsHtv9O03auhm&#10;aE8MPTFGnBGMya+NikbFGIOKwRiHsQUqhYqtfl1c/QHj6h8BXru6s1eZ8er6/WRAjBC6P6mh/WsS&#10;d9+usXsu+g7ve4SIEUWAqOlPVdD8vcaAiBCjEmL6u3MOMQ4xBVGKM0z9466sv1ds9cGrbPmFFoy/&#10;8l9f3YUvjCx4Q2L7FyV279XQfk3wbRFDDxpAIwKIgKrmAExZ0AjEqPioiIAVQYxBUKICOViNsYix&#10;IA7jSlUpf1NN/QFx9f8FvHr1CXwBBOO9X/qvru7CH9XNF3HE7msJ7V/X0P7F6Hc3hwA0EhEUVcWH&#10;FGjGCEYkfS2mzAiCkZQFRVLgaQ5CMSAIUXX8NxXBGAtYjCuIUp6Lrf6RcfX7MMUvAf3VJ/NHdB7u&#10;//JVMP5hX/eKr3nusPvIv193L/y1vm+/MvoOKwEhEmIKQhRytKGasqIRiAoxgqAYO2XGENPrbQ5Y&#10;cimrmn5QCuT02qipxzTGYK1JWdPOcIunfvPjF+/4rd9+vvsnq134CeD86tP6QwzG//nv/4Oru/CH&#10;cP35r/nypgkv/vnZ7qPvNd3r36yhPxAB1KMxQs6CAhhjQEBz4GjObMakoEKhDxGYgm/IfiKCRkUB&#10;50zqL6Pm4BwysqIxIAjqFhQHT1McPINtrlO4gnWrPP/67pXf+uTpj7zvB3/y+4DfuPoE/xCC8Ru+&#10;4c9e3YU/wOvf+3Nvf/d7/823/5XN6af+snbLd6WkpYTgcxkaUQVrBSsGFQg5zUVVnBFEhBB1r7zN&#10;ZWguTaNqDjihcAbVFMTD61LGBI2RGANia0zzBMXB09jmBioODR3EHgSMLRBb02vNTuf+o58++6c/&#10;+TO/+v5f/tBv/Dhw/+pT/QMKxj/1VX/66i58nq8mvHb8bX/und/yl7/pS95byvbrY2hLQfHeJ05Q&#10;QTWmElEEHyNGJGUqUjkqRvA+pkyXy1Zn0/8fY0ZTRbCS+sZE+0/lqTMmBWpM5W/EYKuTFIDz2+Bm&#10;SPREv01BqJEQIp0HHw22rGiaBc38gHJ2AtUNXjsNDz74oV/7/vd94Af/HnB59Ul/noPx3/43vvbq&#10;Lnwern/ty2rzkU+8/NX/0be++zu/7j23vo3QPrXdbun7lhhCCjNh7OdCjCl75UxXWANDBsxJMJLQ&#10;UQRCyGVsBmtS2Tr1lAzlbf6CaiCqYtyM8uBJ3OJpTHWS+Ei/g9BiJBKDZ9d5uj4gxlJXBVVZYYsa&#10;7AwpF6haNquHbE6fp4hn+G73u7/60fvf97ann/hB4FNXn/7nKRh/7Qf+xtVdeAvX2+4cP+X77V9S&#10;337njUP71W27lfV6g/c+5znF7gXN1LflMhIhhJQBjZGxZFUdaIxcZwo4I2MJ6oNiBKw1uRzVVIZq&#10;xNgCN7tJcfA0Ut9ETEUMHRJ2oD2qgV3raTuPAqWzVFWBcwViK8TVICW73Zr16cusHj5PbB/SlELT&#10;1DRNQ1039Oo2fXD/D7b6XmPrnwU2VyfiLQTjww9e8Yz/slfvQxnD7hss/XsJu38r9O0JeAg9qjGj&#10;nlOPF2IqKV0OtqGUzCGagBhrETQHmYxIquTGz3vFWpm+loMyxpioEGMommPc/Elk9hSmPIAYiX6L&#10;FQ/R0/We7a4nxPSz6rKgLAvEODA14iq896wv7rF8+Dzd+nVK6ZjVBVVVYI1BSQ8CQTA2CwpsibHl&#10;J9XWP4ipvh/4xNUp+RyC8cEv/52ru/D7vGKMX6J+9x3R7/5KDO27RZM+NMaQMmCmDsjkfOrphKCM&#10;aGmMTEGVIJz8WoMxUxkboxI0IarD6wfUNKoSfMCKYssa29zCLp7G1Dcw1kJoIbaIerxPGbDrAyJC&#10;kbOgNQ5siXENKobd6pyLhy+yOXsZ/JJFY1nMKqw1aKZCYlSMkYz4ppJaVYgMSp8C66qtmupnMfX7&#10;sNVPA+urk/P7DcarzPgvCMBwGP3um01s3xv87huDb5vgewwBZ1KQRVXCPjFvZKQThsxoTApM1UQ7&#10;pJjVjIh+9vcMwUpW0kRVrGiCasRiqxNk9hTF4knEzRD1aNgh2hO8p/cpAENUSmcpS4e1DkyBKxrE&#10;lvTtjuXZK1w+eAG/eUhVBI4OGkpnRy5yRG/3rpCzd0QprKA6AUvGWowtMK5Epfq0uPr/xFTfB3zs&#10;6jT9CzPjFen/ZpdG/6fU7/5q8Ltv19A+q6FD4z4doWPPZw0jlqloBlsyXZFL05QBGXvAIbtEVUJU&#10;XM5AzkoKhCQuxYoSY5LDmXKGNLex86cpmuOEtIYd0bfE0BNCoO8DPkSMMZRFmuKwrsC6CnENIUQ2&#10;lw84v/887eVdCtmxmBXUVZHGsFRHykTyfyMp0PYDU/KDZaBOcuWc0V8Ag5j0b4updtGUvwDyfzTP&#10;/oWfAlZXJ+xNgnH1qR+/ugv5Ko7ecfPyI//bv+vb9V+Pof0aDZ0TPIaIxogPEc2ZqrCSD2SiIkax&#10;9oiWTlnOCCMKGrO8baAqJMOpwnTg0/fEFPRSQHWd8uBpisUtxFYp+PwOiQmMaTtP7yNRUxYsCkdR&#10;OIyrsLZBxbLdrrh88BKbs5egP2dWCU1TQQ4qySodkUeVOsIkQFcd1D6KmPQQMlmYnmR46eeMAFTC&#10;iokIxhZYV6K4F8pr7/6h8omv+j7gt69O3V4wbl/++assaJq3bV/8x3+3X770beo3N9BEgIfg0awB&#10;1Zz7JJeTQ88kCIVNgMtY2mXC3dl9WRpj4I4iUkk9pJJfq7kMVaA4xMyfojy4gy0PgATGqG/R6Akx&#10;0uUgTFnQUZYO5yrEVWAqfN+zPH+d5YPn6db3mBWeWV1QFG763QfxgGHsDY2kjD4I04f3aAyPcJkD&#10;0GtIvKiO/Ceoyli2p4fTUAkkblWs6cuDt/1CceNPfm9586t+kiveEunPfvcxvwO2vPtr/+B/6rbL&#10;/6Cw8aRwYNQT/A6NHis69YVR0XyoXGoYCTnLJVE2Iz3hQxxLNjPwi3t84SD6TuNQIaGjpqKc36I8&#10;fAaproPYXIbuUk+oKQDbPnGIhUu8oHPlSElEFTbLM5anL9FdvoyJa5oy9YyFMyNNIjl7D0FVOJMB&#10;okypxDf8TkwTIzGDSkaGXlFH2sZIkuHFmJBe1eGe5FIcSaICV2KLGuMapFh8pHryz/xZ4MFjfRQ3&#10;n/lHj3Us2sXTd1af+KGPbtvuaLc+p99eYE2kqSuctWjs0DxJMUxRBM30Q84SKatlWVou7XSvv9KM&#10;ppoxOIUYA6oBEYdrrlEcPIOZ38bYGo09oU/KGCMpAHddIISIMcKsLinLAkySrUUp6Nod6/NXWZ++&#10;iN8+pCkjs7pIPWPOcinD6TjVsS9EN3u0i2TBOYD3SZwwBN/QG8YY8+84fT2EFNzjdAlTeesjyYmg&#10;KJMcr5wRpVAxhURlqe3FL0S/e8q64sfUVI+lmEDu/fzfeqyD8fDd/+FTy4/8rx9VMceunNP1sNuu&#10;2a4eEv2WuqqZzRqEiPdZv0ki3NnjBQfgI5VlE4iTeqvUh6lGQkjzvFLMqQ6eysqY41TihS0SO0QT&#10;ErrreoJPQE5dOaqyQGyBsRXYCh8i64sHrE5fpF3exbFlVjnKsqAsbA7APNHBML0x4bS9j2Mva3O/&#10;OFQAQ+9ochAPZew0QSI5kCcd7BDMzplcHWT+1DgwJaZoVGyNYkWI9N0WDR2GHlGfmwFDoNhgqp8t&#10;q9n7TVH/Y2D5OJxF56rFY85dePz2Ib7fEVwJbsbB/BrzxXP03rO6eMjp+SXOQNPMsEWdDk7s8txh&#10;UtgM9EPquQyFG0q+SAyBSMS6iurgFmbxDKa+gZgSjR2xWyJ4JPikjMmURF065gcV1jmQAnENiKXd&#10;rbh87XnWD1/Et2fMKsP1RUlZzMdSM+TSEYYsN/GXMXOiziZkaRhONjLwmonzVE2BHKNicrlqc6/c&#10;hzhmxIEf9WO5mmw/nHXYokFNjZpSo0aR0BP9khh6JPagHgj0IXG1gkHFzqzdfauy/VbfV89jyh/G&#10;1D8A/PM/1sHou+7xBm80EsOW2F/ie1Ac9BeoqSiaa5xcuw7mSTbrSzbLU+JqRV1XNM0sZQPfEqMH&#10;CbhxlEkJIRKjR8RQ1CfYxR3M7DamPEjjS3EH/QbRQNf37HY+l3iGpi4oXAHGpZKuyMqY07tc3H8h&#10;KWNMz+GspFzMkjImB2AfIy5TKryhLxRyuZmpFh8GuZ5JfCEQSFRKyp6CsxBlIP1BJdM2mfwPOS0G&#10;QEyS1Nmi0iA1xtWoGAm+R7uVaGgRzUEYA33woDHTP6nCMKL42BPVo7FHTPs2xH03pvzbxlW/gqk+&#10;ILb6Cf4YTo84MfYKU1bQEBAJhLgjtj0hCvgVkZKyOaIpD5jdfg7vA+vlKWcXFxgCs9mMqloQoyf2&#10;LSG0OBOwxQyZvR0zfwZbX0sStriD/hINCantOp/mEkUoS0dZJHmZsSWmaFA1CYx5+DE2F68gYcW8&#10;slw7KbG2zKWg0vsUgBN3CXEQIWQuNAkNIj5Mg8rOTJkxhIGekTQdooPLQAZsjIxAjGZsWbMkzhgL&#10;piSaWnENpqwI3kvIgvQ0nuUR9cSYEOoQU4nsTEKoM4ZFzC1A0vNGNHQE7TCmdRq3Xy+2+HoN5X2x&#10;9Y+JqT6Arf8p4P+YBKN73ONw8pWRLLYOfS4tQwIe4oYoDzDFHFMccHR0BCdPsN2s2a1PWa7OqKuS&#10;2XxBcfgsxcGz2PmTYCrUb5CwIvYbQujo+56u64kBisIwa6psr1ikALYFfbvl/LXPcH7veWJ7yrxS&#10;bi4qCjcfy+GhVy1yfzYAS0NADj2dz84BqS80j/R5mj06JKvWRZLkreuVwuX+d4/Q70Ma+3LWpWyo&#10;Fkyjpp4jpsSKEd/v2KzOEO2weJJkMBBCyBk3vb+RDopAFr3LHkC0z9MmPjOkzyR0KLub1m7/Y+PK&#10;vym2+nCU6vvF1j8MvPhFHYwa/WOeFXXMAron7k7StHQAQh8JQTD9GmPPibuHmHJBUx2yeOJpuj6w&#10;WT4kXvsa3I0/gS0sTteE9hxVj/eRto30fUJkq7LAGot1Ba5M5VzvI8uL+5zfe57d8i6VaTmeFZSL&#10;CiOGEJXWRwprRlVP1CQgT7zghIiGqERRTC41jUlPnRSYKbvZbNkxlLGojq4BxjFSFgzZ0hnAZIDF&#10;4KpjLYpDot+hGqXfrZDYQugx6jEkP9cYkxjBCOODIwwigUEmuFdSa5yAMIMQ8oMyjDC1ZkVvIMTO&#10;INuvFOO+Ulz9PcZVP41t3r8svvzngO0XXTCuyy95rGNxPuLKjFkjRKX3Sh8ChUsT8mgk9oHQtzi3&#10;xbdL7O4UU8yRYsHR4YLq2i3WvuXew4cIyqx2WJkljLCEeVWk42wtxpYohu12ycXLn2Zz9hImXDKr&#10;hOOTApFZfkAkVj2f15wxNIMnw3Ax46FN8jzZm/aIqErORkMwpEAbxrgGGmI49CmwTUaGhYghYjBF&#10;o665iVs8A81TIsbily/Snn8K+gsI2wwGMdIpxpCaTiZQaaBOosqo6EHT7+DyQwISV+sjOAvOTryu&#10;jxELWBPT4LTv8aE9oHXfLrb49qZoP9lVz/zQyr7jB4Hf+aIJxq0eX/WMe9lQo2IL4eFlR9spb3+y&#10;hn1aTkP2mOkJcUvoN4g5R3cl9vgVDk8ammNL23mWqxVdH6mqgsPZjLpIp3+3uWR5/yVWDz9D2Nyj&#10;tD3HdUlR1IlsH7jITKSHkLi+occblC/DHORg2TFI2GJWbYvIqHlNh1tH7nM/Gw1IqjOCdYagAmKJ&#10;CGKdFtWJusUdYXYHtYdiLMR+Tew6bHVM88R7iLtz/PJl4vpVTH+JaLKHjDrpW4XpIRFzRh55SgNm&#10;yPaRUZ5XZqR6EFGMplsm58cQs7Y3YkxEgyeG3ZfU/YP/dmZ++7tjcfyL6/LL37+2z/4UcPYFHYxR&#10;qse9Sk2lVNRkEGyg6wMPLnpihF0XmTc2ZxIdD7A1QAwILdG3hCD024eYYo7vVlRFSX1QEUzNeiuc&#10;b4S2bVm/8qtY/4DSdMxrqE4aRKrcu2WZGfsTEwnttFma5n0ce8KyMGO28fn1g9JHNat9yE4CxiCG&#10;MQiGntMaQXJGjRjAorbE1XO186fULp4TM7ttFItv17SbMzb9CkuHk2SkJWIwrqK68RWU178Uv3lA&#10;e/kSYXsPoy3JxXXobdODpXQmUUJZqTM8JZK2NWXvBDqlrGlNoluGGc4QUlm9b8gVQiBqSJleIpFY&#10;afvgmxbdr3zTwv6zu135th/dFs+9X0/+9D/jC9DA2VXH73jM8+Flhv0n/ejDy45dl07D5aZn3rgp&#10;WKJi9ibxJWoqYUMkdBtCe0HYnoLRNOdXHXFQXePayRO8dr/jsjtlUXmMBqwpsWWdiPXQEXwHJpVg&#10;KRsnOiHE5HDjjFAWU78Yw+SXM9AMIcbxv51LZWbIiKvN2WScyhAhiiFq6l+LslGKmQYtwBUm1s+K&#10;zN6GKyyxu8DqmsZ1dMGz27ZsfY+IUpeGMraEfg2mwDbXWcxvEf2WsH6NfvUS/eYUIWKtQzTPQpJk&#10;d87JnuA8ZcYYyf0xaFYOdX564AxlsA+Z2zXZwFkGhVMk+oCxBsRgND5Zho/9rXL7if9U/Ed//Vd/&#10;58H3/S8/8MEfBe5+oZxE+Xe+/p2PdSj+0A+876n7H/qej3a782MnCWwRY7n7cMeDC8/hzPCOp+Zj&#10;SQh7thikXibGiGikfPobKWc3CNt7iPZ0vaeqFkh5QHnwJMtNpL3/G5wcn7BtPdvVOe32HGegrmrK&#10;qkBiIPgWVT9KXsSkgIJHh3uHzD5OTIiMnF1mTEYd7L7UzQdBjMVahytrjaZR4xoiVohe1G+J/YZ2&#10;t6INBXb+FLOTt9EcXMdKBL9B/ZYYOrZtR9d7VJXSGapxbtKCqRJPaiQ9pFYv069epW+XCAbrbFrY&#10;A6Mm1mTwJkx4zTQPahi1sZJ1vWKmnjc5EPCIQH1/qiQqGOMQY5g3DfXs4OzDv3f+f//Dn//0Bz7w&#10;kx/9RaD9Iw3G5548fKyD8WO/8VNjMFp6Qkg93t37WyKGk4WhKFy20zBTn5NLLGdN9j2NVHe+kWJ2&#10;A79+DcOOrm0pyxrcnHJxi4u1Z/vyL3ByfIC6Q1x9hFLQdTtWFw+I/ZaqKmjqGueE0PcJyo8BzSKy&#10;4YQOUrtBBTOOPMmERxkj+Gz7mMpVO07kR1NHKWZYVxNCEA078e0GYpttOgIaAzF6+q6jDYbojqmO&#10;nmV29BRVs0DwaL9D6Aje07Y9bR8QgarMUyTWEqUAU2FshcaOsL1PXL1Mt7mP71uctVhrCXEAdiYP&#10;2H1bymn6RcdxL/ZmRWWPHoGUHferAM2lfAKYDMZa6rpmNptz97T/nVcedD/wFe968oeA3/sjKVN/&#10;60f/k8e8Z8wKlZjc2NLEQt5TIVCXJoMl+YnLnh/pSIDvfT0/mqNP5atqQENHDC3qO7S/IGy2qLkg&#10;bBN3Wc1OqJ54ihAN6+UpF6sLLIGyqqirRRKLtzt88AiJ4B/6pxCn8lnyARVS6Zbesx31oWpqFTdT&#10;tTVGjES/k25zCmGXNLf55wcdTJWTuLtuGipVuv6C3YPf5MH9j1LMbzE7fpb64CZFMcfallnRMoue&#10;ru9pO89uuUOM0FSWuuzQsEFNgWlu4RZ3cN0Kv3qFuLlLaC9S8OOyifOkfQ1BsTYDQGOfmfrPIQvu&#10;A1LkjDnYnsQMzvmQnAnS9i4lRs9ms2K1XtMU5bu//E75P7Sr+38XU/8TU1TvF1v/NH+Iuljno3ms&#10;g9ExTN8P/0vdWsx8VowRHewydArgRF4DGYAQM0wGG0QMKpJ4Oc3ARC45Q98T+gjSE9ki7SXaXYCp&#10;cc0RB4sD7LUbbDdbtqtzthfLVP7VNVU1g9jj+zY3Ujra9g+wv4pircU6g+IQW6jYRk0xV8SJajC+&#10;W+HbDU6SfQjREzUScl+5v81q6E1FwLmCA1eiGvHhLptXX+HSzCkXd1hcf4Z6dowtobRbyrIjxkDb&#10;9uxaz2a3obAmjXzZHWoLxJQUx1+KHL8Lv3uIbl4hbu4R/IYYBMUmpNhOO0bSZEjKoIM/j6rShTii&#10;rPvrDQZ+cpgvHcXwgWydmUv3fkfft4CZGbv9FmL1LbjyBUz9I5jq+zHVP987IH9QZ/Exl8PJ1HMh&#10;OvKMB40BsSm7mMGxO9ttPGKpr3n3BagkjxmVpKjBBFTSkhmMGVUvKZhDokm0J3Q9MV4SuiXYkmp2&#10;RGEXzG7eovdPsN2uWK5OMeqpy5KqXmCN0ndJF5syhME6SeWeWsQ1aot5tEVNiNH4fmdif46GFmKH&#10;iYGokci+0iUd/BSAmZgnGSIPJWIyXIbClVQlxNixWX2C04tPIuV15teeZXZ8h6o+wYQeMVvqOvny&#10;tL1ntWkREcqioypbjN2CLbH1CdI8gR7v8OvXCOtXoDsj+B7FooMLgTE4mQyyBtIpVQsyPpAeGW8b&#10;wa0cmObRGc2EpicgSSRC7OjbDundc2I2f8e46r8UW37I2Pr90VQ/wR/QRmin+rgrcPgs5U0ISumE&#10;sjR0nafI3qSDSkdUxon2ge5QjUkoXS4IbZMcw8lcGw5y+TWUlAwbomJExKMhqUrw4HVLUIe2B6id&#10;Ma9OmM2eo+892/Upm4sVhRWquqaomjQMHSOKU8omFuUcsBJ8Z/3mHM2jWUbDCP8Pez1GV/M8ixh9&#10;7sdMAlZARpWOyXaT6QE2jGYlSd/CCDGcs7n/gNde+yjl4jYH159jdngj9YRhh+13BN/jvcf7wOWq&#10;xZqOuuwwdpt8W11FcfgcxdHb0PaCdvkyunkNCeuUvVVQMRNqqhPI86hLwZ6ggAlskz1hh45gjxln&#10;VTUCEjEIaI/VQOw7G3v7dcEUXye2+h9dUf+E2PoDaqtf4fOoi3XGPt7a1ByNowB6MEIb9lfsB6EZ&#10;R5EmwIAsL0tPWkvXbrHlIWoc0Ze5hbSILUG6vR5zMHTK/36i2FNZ7LdEr3ht8dEQq3PU1hT1CUdH&#10;19DjW+y2K7brc3Zdx2Jx2Lm6NmJLiWqND71od47263HUK8SQ/53s2ZPRSDJHKSSJ3HBwB/RYxlLO&#10;5FV0e6iy2UNvgwKW+cwxUyWEl1m//BLn5oDq4GkOxjI24PwWQofPDnbbrgd6StdTFB3WbsE4TDGj&#10;vvGvQvwywvY+/fIldPsgPVjEENWMwWZERjOvmC0uZc9h4ZHhb5nMwNBEHQ0c5yiez595ug+KNTGt&#10;bQ/tza7f/E2xxd9wrv6wKervR9wPAy+85WCUsLuS3pAmGswYKkkAMLJ9OpVEKWgzUKKMvaZiuXzx&#10;F5CwY3HnX6c6+VK6/j51M8coSLEA045l1egUTqZJYlKNTRpZn2eXQp4iMUh/SZQSVx3SNMfM5k+T&#10;NaFF7CPqW4khDScbhGBs+j5N/PbAjw52GAM9YEdlj+65wE1cXtibsrAmqXoGscG+naOMggPBuoKD&#10;AlS3dOuPcXb+CWJ1g+b4WRbHt6mbA2zscP0WYpdMtXpP51us6SmcpSg6EItxJcX8FsX8DqFf4dd3&#10;8cuXoT9PtihiR6sTJYE2j7z3oOOAt+wBPakFyRlTBqnd9PtM+zAz16ugGjDGY8WL+v49IXbvETf/&#10;HlOd/GT11J/574DP2cfGVc9802OvwBnIummCQx9V5uxNuQ8GTIhO1oTD03h7H1sUbF79EO3p79Lt&#10;VlRf9i1QXgdbY8r5Hlg0ZdiokpUsOoqzx95SYzKg6nsMHWpnSNkQui26W6GxBw0iooixCEUO7hZi&#10;oHAlIhWa+csQ/ei9M/RNPuhInbg9QcOQOVIQThMf0+ByGqQelUODFE+TaihmbW1RlpSl4v092vuv&#10;8eD+DDt/kvnJszSLE1wl1MWOOrTE4Nm2HdvWs+tSUJZFh/W7BEi5ivL4nZRH7yC2Z7SXL9GvX0Pi&#10;JrcBNpuDTe+9GIGbPfH7uEhIR3HF+HgcdlnmSRhUpj5TU2muWIwpiRh22+2iXe7+QrH+me2dr/t7&#10;/9nnyle66vbXPNbBuL334Uxk7aOqUx85BoXoWNKy5yk6HFoLiHVJ9uW32O2riA9sXvw5dr6gObiG&#10;XP/ajLZOPz+VUjpoqSe6JQ7jXAFwFM0JrrkGdoaSSlnRHtGYJyPSDxPTIZLMniKk2cl+i1iLLRus&#10;QggdvmuJMaYsYlMZyp5zuORJkOlhMyDMOTAlC851MOliRHa9T5Ye+zpSIWXLmctqo/bTbF5+nqU7&#10;pjx8htnRkzSzEwo8tthlRVLPtu1ZrlqM7alKS6UdMWwSBVIcUN98D9X1lri9R3/5Iv3mFGd6jHXZ&#10;K2R6gAyOBCKpNE/ZbhCnCzpyuNnNPXsDWZvsJiMWW1SoOPres75Y4oOhaA6ZH5wcl83Bd6L633+u&#10;JatD9bEvUXVMkVPwaQ68MXBUR23n/ncm1cgQqHGkMyIWROnXr2NiwPd38ZslZWGzAwB72VH3gj8t&#10;MoWIuDlFcwtTHmFdmbjAuE3OAjGk+cUMQIw9UQyobomxw7k0qCy2TD9T+zzAaymbA4x6NKaB32HW&#10;UPKo076AnNxn2jy4HDRNgqgqRc6AMSoqcfydbB52RqZ7Nhgji7M4HGURCeGc7uwh56cfYzm7RX30&#10;LPXBDYpyTlF0FOUODT27LnOXO48rhKookNhdV2zSAAAgAElEQVShYlFTYmZP0SyepupWxO0r+NWr&#10;+N1lLs/tSIOMapzscCeyN3aWHQ6cMzkLCiEKIiXGlYSgrNYbtrsWsTX1/AYnh0cQWiQuCdudV913&#10;v/2XRlPjVTDulaDDUzQExdmEkubCdLQkfGNmG37I4Isa9zhLMXbMKrr8JGVR5akKMGbvZ2haz4YI&#10;pj6hKo5w5UGaOfQ7Qns57lo0e/N+MWeyQUo2BIxqwPcRfI81Ni9ArQgRHHneEAO2QUzAaI9mmmRw&#10;eRuy2khreB23YYkVQtjLmMOagvynD8lrx/Coq1wYy8dU4jpnKIqCGCN9/zK7V19maRbUh3eYXXuG&#10;ujnEFJHG7WiapPTZdT2rbUeMSl1a6qpHtEWzTYk7+nLc4bsIu4fE9Sv069cJfkcy5EpueUHSs9PH&#10;9JB1Js17iUmi9ohNJtBYuq5jfXFKUEPZHHF48ymauiR0S3T7Kv32HCOKuuP0wX7uPGN8zLNijoy9&#10;DCUZVR3L0Dgsp9Gxz9svKYf9GVMWmL5neL1CcknLzenUGwYEi7gGN7uBLY9SKRQ61K/pQ6ItzDAs&#10;PEzw79lqJJDhjc5ugz9qUppo8CA7rC3AlIixmKwQSo1wnWaYQouR5BerWbUSY8RYk31XGVHGqYyb&#10;KJs4lRpjYGqeEhkBI7vP8eXlrtZQlhVVqYSwZXvxMU7PPomtr9OcPMf86DaumGNtx8ztaKqevve0&#10;Xc/lusVKRzkEZtygUmCq69jZLdzxlrh5jbB5Bb87xfeBgEnGYYXJD1CBaMAWWFsSo7Jab9m1LcY1&#10;NEd3qGdzLJ52c0bXrondEjS1AWoKoHnLApTHOxgjxDAJkPeDdEI8910AdDRFHcaqhmkDiMRoksbS&#10;TlIuHafTU59FDCTApcQUx5TzG5hihjUQ+g6/Ox9Xy43i6Fw+D2ZTJmd0n/dw7M8phr3NxqNoenCv&#10;Cx2x77DWYV2ZZHJKlhJ5bFESY4XvthiJWJud1MlopTJSPIWTcXxrKEEHIXuaNkk/N6lfzKPkuw5I&#10;ZhoyZk9QIGJZzF3iFcMD2nuvs3qtoVg8mUQFB9dxpUHcBlcmoKrtetrWs203lM5SVw5nWwipIjBH&#10;78AevYuiuyCsXqJfvYL6Fd5HXJHcFsDQtS3nF2dELM38GicnR0k44Nf0q5fxfkPs14An9LtU/oYe&#10;jEXeopjtsQ9GEdAMgZu80GbQpw5kfuqP9rxyYFjmNqo6TLbqRxTeICIYgzL6NOVfzChm1ymbE4wt&#10;6PuO0K1RCWlyPyN5vdcRonfGjA+EfTphnN7XybICJrg+/Zw49nzJRApUPV3rU2Y1gisXsLiDPXgO&#10;MRX98gV08xq+WxLwoy3HMHU4zEQK4EwCgIbh7JADX0gePfvk+9ApGytvaAlk5C1jTIFPluBVZYnG&#10;SNu9wOWLz3PujmiOnmFx7Wmq+hpoj7gdVdURg6f3gfW2R7WnKj1VFTDRI67GNDdxh89RasCv7xFW&#10;L9Gt77FantH2HuNmLK49S103iLb02we03RIbt/TdFksg9B1SmKmqyBzlW+34HvtgnPq9+AiSySNl&#10;6vT3QZhtmJC3SYUziAb2ytShFLQFxfwm5ewGplik8jG0GRXNHOcw5Z4z2mhdwTQULCYR0/tDxUby&#10;uvG8SCdk86hhs/G+47kfvi4hmULZBWb2FPbgWWx9AqZIi1dnNwj9ivbyLnbzMmH7IC3c0Tj+jsPu&#10;kSQS0Cydy6NNOrmMK/rZnF1kJOtNNqcaAlPy+x4Ct/d52VBRcK0SYlyxvfht7t3/OKa5yeLaczRH&#10;T1A2B2jY4UJLFXq6PiT3vK3HOUNZR5wJOAFTXiOUd+hmf4KLVz5MUfw6N27ewEgEv8Iv76FhQ+y3&#10;aGgJpP5bsyBZ1Uwo87iO+ioYPy+do0lLL/b6SN0DbPYAmaEHHBzVchD6jIXH7CYu9GkfRn1AObtG&#10;NbuWdKuxQ8Ia0YDGSJ/J5EEXOmS2oSdzdpKmabZN7POs4oBYJquK9H5LZ9KG5FwSD9P+1oBFEROI&#10;FNDcSi52s5vJnzV2hO1plvVZghZEO8McfgmzG19B3J3SXXwG3byMhA1dnxbFhmxylTKxPCJLY+Ay&#10;M/La+TiK0MdyNvfbg/hgXAgb91VPjBK3ZJRsKUtLVSkaX2f7+l0uX5tRZMH6fHFMWRlMv0vUD0Kg&#10;IJiGoA3rtbLc3Mf7QDM7oF4c0fga092n3VxgdYfvtwgB1CM67d501rDe9lSSzMEY+niZfIqugvEt&#10;J8epLI3BZO4wZyPlEQe5zAMzWE6M3x8TIirGUs5vpB0a9UEqy7RLjX4MWc0yZb/Uh00cX2El91g6&#10;eqMOZZ+zBkPKfN5PGcdZ0Nyz+BAJOZBTBveEIFAeYA/vUB88jS2T12votqAdhrR6oOvBx8QJ1rVS&#10;AkYOKa+9k9mt97A8fYnlCz9HYR9gnGJjQmGDRmToVZnGzAZbSCPDxuZsCZnnLMfJCWPS1H7OvFFT&#10;tjeS/TGG/niQvUUlqiDGMZ/BLHb07e+xevHTXLhrVEfPcXjjOerFCRYldJHVume1XuKsMm8KDo8b&#10;ylK4fHBOd/lpnFG03xJFE+C1j5YzzVm+cn/LrHY8e3uWt20NXbVcBeNbDcJR6kaSSDk33VaNSmQA&#10;Lvb4Mp2mGmLwiHW4akF9cBtXH6cloeohbojB45N3xKhm0T01S1rPIakvNDqS74O7mkNGhUji84Zp&#10;hMmy3+dpeGfTrgt6j+8D4mqqxTNUB89gmxtENcSww+/OE+8YQpKh9dn0qnAsmgpXVNiiQooaH5Sz&#10;V3+Py/ufob98mUXtmS8qUMGHMh3c2GElIDESsnIJUq/rhnVzIY7qo8nTJvfamV/aXyGQetAsY7MC&#10;uSIYXeaYtKdi8o6R2oK0bJef5O6DT9LZa1RPfDViSyoXeeLY0pQB7ZeY7hLfV/jtQ8LuHHE2lR9Z&#10;OC7jSvc8Lgfs+sjlxnO59tw4KpnPyowVvOUq9SoYt9vtaFMog1hcpjJpJPz3+sKYFTlRlaKsqWY3&#10;aA5uUdaL7Gezo2+3xJgAGWPy/sKx/5wyY1mYsRweVSJ7aKnmQPussnTo0WzquUoje3s9BNccUy+e&#10;xs2fAjdLm427DWjyNe17z7ZN+x2tNXlvY4FkN3OxNdtdy9mrH2d9+hlM94BFFTiqK5wrUR/TunBr&#10;sbYgxjKPc3WI6XHDKr08njSUrLJX2o8zhVbGrV5RlT5MZsxp72MG1DJ4NrjJDavLIVlfWpcoid1u&#10;S9f1VK6idB1FLZwcN1h/RtimFQ2+b5OQwh1ASOv/Egj12WdkqI6sEc4uOtouIcRny56DefVZW72u&#10;gvFzvL7ru76Lv/+fv5N769M0rf+IHE4fUejEGPE+fWh2dshsfpPm4CbWFWnot1uNtIUh0RtItr7I&#10;Jc5+bzUqQlRx1o5P/S4vlRmNiQdjqjxJkbhFkyV6EIadFcWMcn4LO38Gqa+lwx120J4jeGLw7LI1&#10;BppWCszndTKJMmm/Y1DDxfkZ5w8+Qli/QiVbrjeWcl6AVDmI0sbk4FuQRJEYcdiyQosKDZ4Q2gT5&#10;S8AYHUeU4l7ZOvSDMSahxOBpMyyODUFHOxGXh4xTcCRhgxiHq6o0LdP1bJYXWV10zPGtYwon7NaX&#10;FG6D7Tv69evE9gzRNq0/0Hn+ncKIv+Ru45F1ecK01u9i2VM64faNhtvXq3G6Y3jdVTC+hevi4mIk&#10;6/claSO5r4qQRpCMbWgOn2B2+ARlc4gRpWu3ycKfiIzmTzpuZHIu0Q8DUujzJuShh1KSssXn3Ytj&#10;wA7gxt4s4SDWTuR+Gk4unKVsrmHmT2NmT6YdHcGD3yDao2GywQgxSd0Wsxpj016PtFKgZLfdcfb6&#10;82zOXsD0pxw0wuK4xJj5mIljnCiS1OOm9+C7jqiWokiyMTUWZxdZVdQRfUeMHRAZptAG4UDQyTZj&#10;6M8GVdFQIQz0nQ9J2mZcibElPkRW6w27LlBUC5rjp5nN56jfov1D+vUl/W6NLJ4lUKD9BbFfJXcD&#10;NePOzdTjyiPl6NBSjHs2RQgh8tyTc6pSKJwdR7aUAUO4CsbPA5Y6PPomxU0IMSGiUalmJxwc3qKc&#10;XcPYIu3i6JYgEZdL2nERaS6jnEtT5z7oyB0OQuo4KGiyPjKtYMvl2PAwGE1/U+D6qGjIQi0DpqgT&#10;Inr4DK6+lniusIPuAmJP53u6vGBVRCgKx6IsciarMOUM75Xz84ecvv4Z/OYui6Ll1qLC2noczvU+&#10;jIhhYSf7kc5nWd6gAiIQ+g0htGkBbFFiXIWYBnF1Xn6TAjPJ7lLpXuQs32ejVGPTCNQwfK0kqsbY&#10;EldUiBh2u5bNxTkqBc3iBteuLSgLod9e0F8+QPsVxF2iYnpP9G1CgaJPPeEIvk2+RcakSmYonfe0&#10;HSOrbK3gnE2VSs7wIz1zFYyfn0CMAxcmCYwJqiAFs+PbNAdP4KpF8iX1O0K7xZph7VtCOGPm0ZyY&#10;fHhi+sxlz2Q3vz7KRGMMbsNDVhys7ae13ImPczYddmMsUl7HLJ7GzW+nFdx4tF/jQzrk3ge6vN+x&#10;cJYmL9ZJh7lBTcl6s+Hs1U+yPn2BSi84bqC+VmLsPD9AyIbOE6dJBreGnpas7Ywx25WM1EQkxpa+&#10;7dFuR+FSEGlREWMNtkdiCkzv+3GFeuIb96b3JRkqW1diTYH3gdVqk4QQ1YLDm7dxhcPEFt++Trfa&#10;0LerVA3ELn0qMSTQRyOTfc1gn5dsVRC7h4gPwcXoIDAOlyPT3/PsacbdJvvItzh0caXAycvNYvAY&#10;GylnJyxO7uDqE8qiTDxT2KS+IoR0+AaH66y9jCHPvZlh1ZpBZRJRDxMCVTFNpg9lcfKtmdatDVuG&#10;bdpcmrKtmWHntykPn8HWJyl79lvC7jT3goG2D/R9MjAunGVeFjhXIq7CuJquj9x78ICL+59Bt68z&#10;L1qeOiyxth4RTZPldsPhGherDnYVA7q8ty7dZEFB0Gl/YyrDFVVP6AMxtBjjkvDaVSgl3nuUFqMJ&#10;hQ0+JE7UGGxR4GxJiMJmu2PXrrHFjGr+BAezA0QTV9tenCFxR+g3GHyS+ZkUfDLsDxn5iRR8Yly2&#10;eLRgkk5XsemBbPctyXikD5QRUIPDeUFZOvqglMUkkZQrauPzUqNyePPtLI5vY12dAjC24Jf0vUdM&#10;yoBGSLsohgMZs1fvoDoZ7BqGftEO68PThxjy3OSAKiYlSja0Gq32MyKqFqlvUh48TbF4EjEVwbfE&#10;7hJiT4yJkuh9yoLOWebzisIlRNQWDRHHcrni/MHHaS9fouaS67VQnBQozTitYkQQy/ggEDMFWRwp&#10;iek95sY1Z8ZM18gbHih7DnpWIjF2+LZDzDapfGxFVc9RXRD8DtUdrjBY5+g6z2a9JkShqA84unmH&#10;snTEbonu7tJvLzB0+N06VzN9sqnUgGpCRK3dlzzaJGwwJSoecQZRh3EzbLVA7HJafRf38ufk2DH9&#10;bqocLQqstbStz8bI0+/+VvzjHPq4x2KkaE4oXA2uTqZQMaB5rXVahaYjeR1DHGcIk5cn9CHdxMI+&#10;ulCmD3Hal2gmH9BB0zkcYJ/LYw2Am1Ee36E8fAbKwxSsfouG1bijcNd52s6jGJrKpSxYlIhNDt5t&#10;H7j/+j3WD18g7l5nUfYczx3WVpmkTu87oo8MB+9P8/tMbCZwxYyTKSHouMvD7cnYopJ6WiOjx+mg&#10;xtl3+Q7RZ2AnYIuIFAeUiyeBGDbLs+3l5cUC46gPnqRuZlh6fHuOv1wRuiWGntDtwID6DqxNJtLG&#10;jrOJUxDmv5jkECChwahgyxLBoW7OenVBiBOy+8b53gHEyXM5SYQQUmk+9PNxT591lRnfwhVj5OD6&#10;2zC+YnX+Gu16iTWB+azG2YYYerxvsQNwIumg+pA4QWcMpZss5IfRJtmbcg8xScGG7cLOyDgIHEME&#10;U1AubuMOn8E2t0AKNLRoe5nlWJP/qAKFsxzMG6xLT3txNWoKlssVFw8+Rrd8iVIvOaoN5ZHDmGY8&#10;mMMOxGH6Ps8ljwFoBrDCDKVpFkUMQ8ZZ/QLTbGJCgCdHAOJguz9NeMQ8YybGYVyBcQ1RasQ1I6lh&#10;66Nw2BxRWCW0S8L6FWJYE/tNKse7NvGL0edeLw0Cp4n9dNOdNfgQiTqsA9BUKZSL1JcWc7abNa45&#10;YPvwM+xe+xVceYQTm5FRGeV6cbBf0MnfZ/i6NQZsHB8ARvLmO3krwSg89lfol5jQcXx8iD84Yrte&#10;slyeEsOOWVNTVgsMMQm7tU++L2YihDVbzJtcyo4befNiF0NSkKQ9F2nXowi48iA5ay/uYMrDNCES&#10;doiuEPX0nWfb9qPsbdaUaR8HDs28YO8DFw/usXzwGeL2HvPSc2tRYm2TQCfd84Nhkp5NZk3p/Vqb&#10;LMplD5gZ3NWMnaR6MbI3AZLnEQdPnPx6a4c1bnlDlbHYIpkWq2mIpsI4R+i2yO4BMSaHb+sWVmKH&#10;3zwktCui32EkoKFPkzUhYI0bg1wy0DL6+ewNzAzZ3xjBFDOi1AQj7Fb32L388wQKKrOldoqVyxFY&#10;e4SjkL3+cQhKpvp1EC+Mm5+vMuNbh3Biv6Hf3E9coZtxMD9hfvB22nbH5vIhq9NzysIwm8+xZU30&#10;PTH2WMkruk0qXUbfTkmHKz2tGf1srFFKVyD1bWT2NMX8CcQUaGzR/hKJPT4k+8K2S/B/XTnmM4cM&#10;5HrRENWxXl5y/uBTbM9fpDFrThpLfb1EJMmzBuqBIcsNq8B9RMzkCgATGhjiYEo1ORv4LEAYAlbI&#10;HGrWoVqTVtMNvXICqNIeC5ed3dRUybvHFinvtkv63Ypue5n2etgZ2AJUVfpL4u40uaYTc0kcsdY+&#10;4hgw7tZgQHh1WsEgeztHjKHzwu5TP03YXSBxR21WhBBwpsTHtIsS/B6VMTJd6N7o2V405jJ/Wusg&#10;uq9jvQrGt1CrdsT+Egk7FEtoz8DOKOsj6hu38fE27XbJ8uIhxJammVFWc0QiwXdpbbZN3uzKtNfB&#10;kPw2nQg0h5jZU7jFHcQtgIjELXQrNHp67+k6Tx/T1HtTlxTOJbsMV6cs2HnOXrvLxb3PQHufo1nk&#10;5rUSkRldiCnQJGk+nZW9hat7TmluEg74MIEskg2KE5859Xhu7MMmH1mT08Lgf5N2PSaLESsG6wpU&#10;KsQ2mHKWJYAdYXMPCWnrs2iHdjvUGiQ7rhM8GnZobBFC5iKHyYh9/9rPbu/+/1gFawztyz9D2b9K&#10;YxNoJq7MBhcyURlv8r37/84wHJ4Aq3wv9kC7qHqlwPm8gDgRNAQ0tAmgCS1iVvT9BeJmSLFgMbtG&#10;M38HfdexvnzA5vyconDUdUNRNXm5TdoYZYgUEsBWyfbh4Fnc7AYiFg07or/M5HfAh0Dbp6NQOMtB&#10;7XCuwLgKUzSEaLi8POP09Y/jV68wsxueaCzFQZl7VJKyJQ0pZp4y94bZDW0QZGumHkai2iQxwcgr&#10;5oCUDAGPRlJMetnRzyckdiBl3bRmHEkPDlMuwBSE0BP6Ff3mPK0Y75cJWe12mV7wQDGuWJC9qJK9&#10;NDMIKV473TFvCq4dujE9TaodRlvNNPFB9lD1zONdgknvMeibL7SYPB3e/Eq9oo4iAJOHoPfL4re6&#10;iuOK9M/9XhyE4hoxsSeGPgmIuw1iL9D2nGhqyuaE42tPIPYOq8sz1qtTVqsl89mMqpoRQ4cUB7jF&#10;s5SHzySvVL8jdiuiXxJj2jvR9Umk7axQFY6qKjG2wBYNmIrtruXh3RdYn72A8w85bJTZSQlS40Pu&#10;lbJgWjKYMsxZDr2ewAi+qE7jVgP3GfPpG6bsBw8d7XXkPmWvXB17yMRXJFtKceBqimIGtiaq4MMO&#10;6S7oNqks9N0aQ0RjR7SGEJKMb7/k2w+IUZI4GAvl/vP+ecvZsuN4cTgi2WN/ODEuY1AN/Z0m1Gd8&#10;/9MCo0fbQ5E3ex9MpTGTRvWRQM0ynque8fMUkJNAPK/kzgOlaEuMbVoYg6Xrl6ipqGbHzJsDDo/f&#10;xW6zZb28R7u1HL/r22iO7iTX7facsDtLM3Kho+89u7YjhEhZGA7mJWVZgk3EfB+Es7NTlg8/gl+9&#10;SiUbbs0LrCuIUfCDP2nuBQf+L+2KSJluOLiD3f1QaoVhjZpMapfBrmPY7ORMkrzFjELGMK33dtYk&#10;eYQKKjYrelIAqikJ0RPbS/CZgogdvt1gUIg9Ym2y0c8ZGUnKNDVvkp1GVHNyKl9tPbtdwMfIg/OO&#10;29fdm2Q3mdYuaO7pRjBt79+QN1Afb1IpTWj7MOCcwbgiOabv20/CNJB+FYxvORh1HFdKnGKeqQsx&#10;c2wR1Z4YO2xMdoo+bvBaUM0OcW7B9Ru3YfYsHL6T0/MHiHqaEkozo8fT9h0SHbMmu6yJwbgqZ8Ed&#10;53efZ3ueRdq1Uh0WKPXI/Q1lUPLFSZuh2KcTlNH4ycke0huTYGGaeNj3o0nf5Pa40eHJb41gbNqc&#10;1QdQLK4osLZOI1lSESUZNsf2PvRLQrfBaHpwxQRTI9aOxHjusjBZvTQKQ/Of5g38oOx5tt473dGH&#10;yMlBSVmYabqCR9HTfbJ+KF+VNw4871VFb9J3JtQ7CQeMffN8N7x2KuWvhos/D6T/8AlMOxqtSfzj&#10;C6/teOZWkyRWDNK5QN+H1PsExbNFeUgsGow6Dm9vqQ4MbQur9ZbTtqd0JUcHN6msT8tTEfrOc3F+&#10;n8sHH8GvX6WxuzyqVGZ1zoBwxhHAMCIU+RMLe36lSUEjn/36geOLOjp8u1yqGpMOnMbJzdxZMyqL&#10;Qkz6UGtdQoDdDClmqDhEItouwa+I3ZLodwkEC31+mMWUrc0Ub9NmYUbTqjcG3kCwp49Dx70dPkTm&#10;jePJGzWH84prR2WiZAYLlFzO6hvmmGSv3xxW9w0C8TcDgKJ+dmDrXrQnhJy9pUc8IjS4QlPfejRO&#10;wuwspTCinK0Dr591nBwUnGTAYCLzhx0Ygei3qbEPaygO8au7RL+htJbriwo/r9h2cLaOONdg44bN&#10;+YtsTp/H9veYV4Hm2GKkyXvnleCnKX9jpnGqOC7+zLOOmoI25PUC45zjQNZn/xtjEoo6VAAhgzmD&#10;kkj31qohgnFF8le1iZJINoaKaI/fPETihtCuQNMUhhDTwLRm/8W97DQQ4m/MQuOU/htAlLFtGEaq&#10;8vTK07dmvHA3aYOH5a3Gyl7pmSdgzCTRG+xM9rPntC+DcYfKfgAOPWdaeZBsPIfkvT/nSB65csJn&#10;N76fczBeufvv1S46loKvPtihCqeXHccHbnSCe8SUONsyxuCJmmYI/e6c2J0lnSQGUyw4nF9jMT+k&#10;Z8GHP/jz1LuPc+N4zuH1I5wz+L7D92l1W5KTTU/gtkvKH2cNxk4Ccz/uwzDZie3/Y+/NfmxJ0vuw&#10;3xeRy9lqr7t3357uGc5iU1wkAiJsUqIEUQYFC6BBL7KkkR8IQ6ZgwE/6I+xX+8mw4QfBMkTJJGTT&#10;sGzYFAEvgmhxyKFEcmbU7Ont9t1qPVuezIz4Pj/EmlnVY7LvmE0Ou4Fmc+6tqnOqKiPii9/q3lRv&#10;U06M0imDxvjPKwvlUwQyakMrlIUTUTOVLtC4nEMXlbNEmRX65gokO78InbFYeQ4w3e9SIpxbBDQ6&#10;SW4GQAe3g/J3vqhysYjSvXBkCovvnQ1Zqyl/hqP8Jc0wse7dhzyHO2VS14RMnhAERpHAd+S/J/cp&#10;JaYHWxdlPZAB6JJXdPt/psAJBG7sYnRRgvOJxnZncbk22LWMSaUifxhO0rAoOWTWsIXYHWy3BlkX&#10;u0H60kH6kxPUi4d4dP8Ix9Mfwnq9xsXyAkp6TKcTTGrHPZq+hbU9Cu+Or4ohVxjQO/I7vPd1eO7P&#10;S8CAKG0LsjR4KN5xke4BKgrtk+AKWDWBrudOKA/AdFugv0TfXENLC9NtoJXAdq0/rRkQF/Gv9JAb&#10;oFhimjd4SXzdvgtAVKIw4glKFMdFlwRGEVwrtKsDyFMYwlgdjNpjNEhiqrp7n/nrMQ/vnUrhRuyG&#10;GgnIb/KOEimOVz3XPhtT/S80/JQtuwiMBycVdh1jMdXoDGNaq8Htn33gMTKyV3yJBknvIilsC9gG&#10;hl1bMOkC/foJrLSYTY6wd/B57JoGzfoS68tr1KXGdDpFXU0h7JqiRLwmNggKsqq2QMqH7BhrOfMV&#10;uvHWMrt+DX+iKK3BHhGFqkDlHGU5haBwfsjdJchsYHZLFNSDuwYgwHQtVKmRR5GQl74F/19ICRd/&#10;0pHvQ1QjiCPeDSlNtRIvYGlUjJHJno65czSBUhrG2jhGhtM4JjWodNeLI6hHQ2/wiCSDMTbnDTEA&#10;kyjVzfsrQFzUSPdiALg4v/jki/FVPvl76WRMvafJ7a8U8PC0iidiIqMlVcUhq4yjrEIOrk1KxIJU&#10;C/QuFt7sLtHxJai4RDXdh1YLHJ/eRW/vYrdd43rlkNjJZILpZB8EA2s6GGtcwJVCbAsWCY4R5y7R&#10;OpHfAvZIrBtZyTf9gkqocgJdLQBV+ZbfBtyeQ/o1TL+B9s4IpQlie1BRxHq4CIIyIn/JkVKQNOoh&#10;77tMLvqwCJWvlAuYS2BrkpKFIvgSJpGYmSPuvozhFS5+zljWFlwpOR8ZbydI/KSmj6cnKN7J4b/f&#10;9Dw4HEFjZwx+4sd/7JMvxh9/hU/+Xvjn4YGvyxxl4KSRVQYwORH7yuybeTkxidzfVzgCA6GHw0Ua&#10;Sr8GmxZWGvR8DukuIHqG+fQYs/mbMNZgc32Oi8trVKXGdDZBVU7RG+eQ762B9qOq8l5Ltul0j1Yo&#10;EJgIRBpl6cpaqZjBigLBwrRX4H4FMhsXXMU9bNdBlQSxBqKKm3D+6M6XE+I0gmKEE5KaP9RaDQn1&#10;NHCwjT2J45WABMjkWtTYgUIp0V1GtFXqEbupqvFZVFHahlDlkJifuNgHAE7cLJCQYQCb7fYTT6vF&#10;Zrv94w3d7KukqpBhwU2IwHDmWQELo/DaTxfINFTxuCdSp3/jDESjB9kR4WwANgIrHVguocw1RE1Q&#10;To9weHIKlnvYbVdYri5A0mM6qVHXCy8mtnYAACAASURBVKjCgriHtX08WsKdyVpX7AlyNXBlMXWI&#10;aDnxr9tCdlfozQa22wDcgaQHW+s3DqdzU7c8vdHbl4c1gbKPTcH/8p1I9VEafkBOjeUioMKCTMLn&#10;pX0ScmsyHoEl/bnK7oP5a+f/f5h4Bm8gf18jOVC+0UTKg/yIO7rmfEZtfBdG1MA9cRZKpQh4dFr6&#10;nVvSrityY/GGclXSCqQdke8ahA1APMhaCeMc+8h7EgNid+zanXEaz34F0RPoeh+z6QGm88+h73ts&#10;lmfYXK1QFgrz2RT1dOobfjsH2CgNVfh2XTUFiimKooLpd0B/7YKLbQPuNxBxNXHk2yTD/UtlyUof&#10;93CF0zCOy6PnOo2OFOMvbvt6NFTf0K7j6YwcB+mS0Gkw9uaEffCP6mDu5VTNl0vjgNDxcQtH+DEb&#10;xXikza8k6XMJ1p+4ir47KOhnpD+y+jdyTUIh37PUlMsCsl/OsGqcKNyXFHR9AOsfdiqddYq0i8IA&#10;FRmfmR4eh8o5Tawwg6UHYw3p1rDNOVS5QFnv4+j4DqAeYrO6wnJz6VQ+0ykm9R4Kl1kA0VNQWUMT&#10;wXYrcH8B21yBpYPttiBimL53o6IEbcqIcP89nGbjP8foJNJehB7v5KMrQBj7QS57x30MlRKS1vyJ&#10;55RQkp3ImeEXCc1WcYyWARIq2eZB2QTBcvupzyw3xmgV7qNKMiRWBoAUfZYO911akFEGx3EHZS/v&#10;V6BBz0Z+egLJ1uPgb4Pls3+Oghj1/gOwvxsSEaAngK4Sais06PDI7zjCNhacKrOF9BvY9toVqtb7&#10;ThN78BaaZofddol+Rzg4vgMNgdgOpvHE/G4Jgivz1ASw7X2QlgwS0UJgVt7gfOumlf2dAN/xBM2J&#10;deY0qitFEcghlbS27Il+rQliHCcYeDwi5byXPtKS2cVbGsPudC6UF82nctawaBPiSuk9eB421eKS&#10;R4aVq2EgcrUCOgnlg5op5BcFM3HkH+kzOdx36WxMu2o4q5RKW2Pex0EDgCIbU6lAv/oQsnwfVC6g&#10;yr+IZnPlij0nh4AqQeXMz0A+nDgYemXYkhzoARC7nnlhKNuBuzVgVpCmQlE7TezR8Ql6rpw1a3cG&#10;7lewrc/L6Xce+TQQpTNejwYWJeWrx7VygI9IerDDv3r0vynGUwypgRsEeiTghw+tDg+0/6/Kif3B&#10;OCxxbMw3rsjN+6JVpQjG5mDPLVassNFKSrobbix5wSxi6as7efP3lbyi4wnps8X4Cv9YK8QMij0Y&#10;LJBgHiVyYUcBreNMVC7DIFvnfLAotIZpV1i/80uwpgUdfh7q8V9AuznD3r27ALQPSE7SLR49gGFT&#10;UPHJYt9cBXBvwbJ1Jl0+d9rQ8hiFNLDbZ2Czg7UddKEgYqCoiJzgx/Fokh17cVwVyoTjt5h36eMB&#10;njT+ZyhnoAVYBmhleG1Ft3FNyUf4sYw6DUE0yjlPrwYKSXHxtPSvrTTdGG1v+/qUvSkZbeBjmd9n&#10;i/GVCH+QCCc3w3hkpJD07UNqs5EVcDYjZkFZAlFxDQKkd3F+199G/43/Dn27Qkk/41LKjHtgmGWQ&#10;ZJ7v/OFuSZRGJBGGhHhHcRRLB0BKDV0xxDYAGygP5tNooVDUWMpNtDRTRisCjAjoYzLrJdAWCqPk&#10;bcRU9KgPkAzlHKOyyFQ4khaM3BxckDdkAjfpFYoZNolSGUrwZGB3CsoaGyaRETdJI61pvHeOd4tA&#10;kXy2GF/9n73F1PTBGBjHLY7lLAG6prD4PPeoMyRWMp6RvKpDkKmj+xVKJVi/+z9jal1hC1sGZ81W&#10;YWyVLPjYZdUAu9aiLFKOTXh/XWtQqRaiOkD0jRMnABuDXRxBkTJ0UjjZGTJk1Yduj0KevMhlYMQF&#10;hlH45H9O4WcYTysghmTp7H3lr4uRqDy5avIAKD+JMGIxrJPdJZg0bDZhLE4u/ZRfIzK2PmWbRvb6&#10;lGlsRTAg+yO6/lkL1av98y9+8W99/v/4Z2//eGfNcxI+CnrDdH+kSPDnTUQhkoJFUES1vztdlbgH&#10;hfxYCZB7+BRBTAPFDHEO1XhKRYFArnllAWkXifHtZw3euDdFVdBAdGCtwBhxWU6R4fN6zGzzpvyx&#10;zlxGLGkUzk/KjwVxZKSYQSp5JaG4CIL7JTyk4YSXzLmPj0Ehwz2NkNBtJwdI99GoM5Xh9xm+Qj7y&#10;yuCHkFZNjgIrSuNnOK3T90pRWYT8GRhZqPi7MKv+sVuMv/4P/tYcdvcXSLq/0W9f/ht/5gdP5tfL&#10;63bdZKUz4EEqNTNAKnU1CsYoqCOn48gZdlNOCeIi4sKVKN2BCDK4gw5GVX/HOlv1uLzucbQocbpf&#10;+Gpw9nIyQRFBp6EmM/BwSQmUydQkGWLHBHlOYQR1Sd5BoTVh1TC63uBor8SLyw53DqsYWxJMzINo&#10;fMruphgGPYXSIcq88g48o+jXjJEX+WhIFBVO+cahFCBMEXgLqpowSAbXfhxbZXg6I7tvIhuNw/cQ&#10;TuCwaSjlpJAqjNefWaj+v//5tZ//D79fo/urvDv799i2b4ntXb12C8ByzRLU/RIVIeGXyc4EGB8Y&#10;CuocJJ+h0qEcNIkAJGKJwUUvmY516LhXlJ9uAlc+zHh63gIEXK06HM1d9AWzuHTB7O46PFHS4slr&#10;1vJjTQaQ/fCeNB5xgxH5nWc7nCwUPjjr0RuLzU7w5KzFpNJ4et7h8b0a84K8WH3oaok8IKUF5vo9&#10;0onG1nqXRXYvJR+qTEnxlG8cob9xAKTQiBelXCyQxAZhKqEgwcsI/+D3FE7ba/heYrq4yszFlF7r&#10;ky/G72EL1df/+587hm3/sul3X7W7sx+z3NdieyiyUFn9m2cPfCCVa6n1/yfxiJkW1bJAcTopw4Nv&#10;M9AhnJ6kQzZL3n7sHiyt04no3CJpTA7hyCd7BbqesWostt7KJT44awjKJycFCW5E3YcFFkY7hZQ/&#10;w5IWZbwv+u+p6RirnSta/eisxdkV0PXu3rrZtYAIvvlBg84w7hyWeH7V4P5RgcVU+83Bbwrw4aK3&#10;yMvCSUPwyXQ+ntvnKseMVxGVVD0+J0cp5Ub/TK1jLcU7HSKSTBltkeK/KR9vlad1iHywl29IZi/7&#10;i1RMeh+x/oABKj7jGYcL8Bf+Yy22/dNid3/dNGf/lu3b+2xd05EigRXrq9koS6ZO1eFJ2B3GufxS&#10;L/GEQ1wMYyQ0jEBBgB48hxn65xc3e9qEGakFyTckW3aui5P9Aqutwd6sgDEMKWlwwuaw/2DsyoCT&#10;2HNhs82C0kkVOT66eZd7edXj5bWFIueDbFr20YxubTEDhi20Irz9pIFShIfHJXorI8jfj+7+ZNcF&#10;Yvp6GBkDt+eiI4fjoYyoDLcIhshsrrRBWOQkI2CWBliofAe+Jmc9ci7xNjaEvgsFjd8zi/Hr/+Bv&#10;PhLb/oxpzr7Kpv1TJB0pMVBsXUSGOM1jkESpWAYqg+h6iEAVI6mbCyX0VdcyiPFjRqySjvdHn7gW&#10;jiHXPJzuk2EUDQBOfJxypY8vD+2NGy2P5j4w2PgmY3+aqCwH1bVYUQZQ+LuNUHqAdeqQyO+RQwE2&#10;4fllD6UEV2uL3gjKAvjK4znee96gaQVVoSEgtD37JG9CZwVTrfDtpztUVYG37ldRsRLS1ZWPAHeb&#10;A/nwL5XQy/wOG+gHm0j/8bUqmJJVjtgq3Fy9EXuTAUA1JO5lkIWT6wNzTCskJQRzcgKq/hi3UP3G&#10;L/zchE3758Tsvtpvz/4SSX9A0kOJ6yzsfQmqzlqgglNfe+i+LBSMtVkepgxqrMP9jzOwJegAApUB&#10;SXfHuDsrSeSySn0czIJCpwRryUCf8PcEh5gmVY5z7rvFEm8vI8QwFXrmD1l+0iXXvTf9KoyUIwRN&#10;rtLtgxc9Otv50Z0wKTUmtQYB+PIbc8wqt6WsG4MXlz2u1gaKgLZnrBuLLz+uQMoHawlc6zESzCsj&#10;e1I83VRCM523MYu0uEXlkjv9b9CTI8AobEhhglB6jCJLTJLDwN0f30V8X0WGKyATj/+xOxl/+R/+&#10;F1+atu/8FbN5/69A+i+T9ICPyA9giKLQmOQv3Vk1mc46G4KKRoQTohdOupGlJkL08FVnJJFYJiC7&#10;g7pflkT6wrscdEIz83+N8eIBxT4LVcU7JpGg0ohujxCalCOwCHV1XuQc+gQp04SOoyECqETZz4II&#10;WO0YnfGKH//Nnx6W2DQG//ydNe4eFjg9KGCMhdYas1rhaFHg6UWP95/vfEuWwqqx2H1k8Pq92TC6&#10;4kZA1E3qRDLENBRZ3HZmBCxsgNjmzEOkM9QwnS47+YRdMrr7+Qxj4wLPyplvM3GpSSjhkPI/RqT/&#10;P/of/tv9SffOT0269/6Devm//gS4n/aGIeL6/gJQoFVq3rX+z5042mfDWE5FpopGN4ikhVTePxd2&#10;R6EEh4cx0i0wiWBL9LmprEoNQFEQcmtWvuCNFWjNvrOCvWg7ndAQwb0jnT2gviV5IA/J7E9h149n&#10;Z4L0OTP7JsrPnXxKAU3L+J33tj4VHCgLwut3Kjy+N8PT8x22reDhcSQ10RuO9+5HJzWYGR+87CAC&#10;PDtvcXpQoC4JXZ/e7Tj8N77DkWUpjoSUhE08TpjLUKBE16T7I2fqHZWdZGNOUEV+lGPolfhqc865&#10;UgwTxuMbD3+uvofR1F/6H39JTfvf/ZOT9u2/Nr3++/+2cPeatQY7y1Dktvrxzhr6EQGg9DmglhkW&#10;hEK7PwuUQkgxS6CNJ9OZU1SDUlHyFmgL13fvjcGcZC/uRAxG49B7n/I6I9jDnCGiDPKtiGn8DMBD&#10;2ADIc5Jp24haVT+mRTVbjCccLcLswbMYRiUSJW9ib3y3oSZ832sznHrz9cl+gYdVgd5YXK4Mnl+2&#10;aHs3cj84qXG4KHD3sMKT8x7Guslgb6pjkWzeDnWbRhYY2ZFGSHBQBOULSfxBSxhmnsogo5nS34ew&#10;ZHJeRMk5z7DwI8CWA2FpolE0PMXjOfm9Svr/o3/4d+7N2m/99HT1818tzfmP9r3RO2tdZZs4MEUR&#10;wUpI2PYQdwaRGHbqGAhiJ70NiwCu5DRA58yJSYpG0sCDYXgX5Hy7zVwcsT5NZSPmYFTyhTQ+SpGZ&#10;YSx50Ib9wlQ+GzUHc9ydM3ZI+K8dGnQjMnuLkptGIuqxL9ONtQRjgBdXHVZbGyVsb9yvce+4gjUG&#10;IJe1c3nR4dlFi9WWYYwFSEEg2OwY3/+5GbadxWKqsDgq8PTC4N3nLTpLeOt+NUAdacT5qYEUcWhW&#10;Zk7jLJsUlZj/DlhcfqkdJYzHO7lQ3AwsEoiTt0+FyKocPR0isWrgAKGcF6ahO+SP/GL8b/7r/7L8&#10;/Gnz4/XuW18tl7/4b4rZnBrD2EGgiT3S5PJMQgyhIkLhR9Ag9A4ZltqXk1oWsBGfCp6VXLLAUpA7&#10;+UVmZUD0k88FRaA+RqLuDKKLF/+h0JsjkhgsUTmvGFQ9UdkTd9rMHUBJ4hVkcPkomyfkC25BJOPT&#10;dPNhCeKGprN456MGxrrJ4s0HE7x+WoGtYNVYXK57PDvfoTOu8qAospGYgO2OsWoYy63F3cMKdQk8&#10;OTcQERztFQM1y/heCGRXc8INV3/aBDOFTXZS5qDV4L+S1DJ24AoJbdIjRFYhFfvQTfOxGqWip5Oe&#10;bojK/8guxn/6d3/2rd/8nQ//nR+a/vJflavlD/S9QS8CInaaQS+KDjO8+6GlMk/4uAvlCVrEMUgg&#10;yplIedCt4P5HOC0FYwBB4ojITCgKd1CF+m1fdR85vqi24XT2hK8hGRjA4opIOSKmwxgPl3jmTsUo&#10;LPCbwtDh4IXqnIXq+IeNafBHN+5XNLBD+fegFOpKodCOpjhcFHh4UuPFVYezZYvLVQvLyi9C7SMS&#10;CSx+o+G0ma23Fsutq0a3VjCfaMwnrvCmyCsSRmqXdNR4yslL3ZB7I1UWLAzysSW+Q0RuCzBOK0ST&#10;cvfB3Bw88li69uShj3M8PsetUhLhj1iP/up2/09lMX7t5/+jBaH7Sds1XzXtxV/80S9P5rvmAgBD&#10;E/tOdok7viYFUhTjEhHqzVTSLQYnQ6kTjZH6C11uqE/JhbEM40/BoqCbaeGS0Mt4qiGlAYQXZcnp&#10;jnR3FHZUSEAiwmJlf4d0GjCfc+pXjFP18CAcl/RtxqHh+0QuvMus+vkJTTQ+scXVhsOBNi8uuzju&#10;F5rwzQ+2uFr38biNMYviJgxFgPV/R3DlrrOJwsOTCtdbi4ulazve7hjfeH+LLz6qY7W4zs2+TK6+&#10;e0AJDmMZIw2SjbED4MWPmqGXMd90IHn2KoY+yXEYVVj8t+h1rQCKZXAADO6yeenOH5XF+Gt/72d/&#10;wPa7f7/fnv27Ct1b4B7EBs3Weng+3cFClXVvHcgRfjpBkBtjFMn1F7nYiMz4i1CJ7Uyy7MfGMBMp&#10;WLfg1QKijTMRZ4su3fM4S6P2Ok2TmmvDQgpjY0DrVJa9Gh4Iic5+udH3l9/vgkAAPgwYJBmqJ5lP&#10;T0bAB4FEgRQPZGOAI9bdnZZQFJ50Z8E7TxucXZuIRF9vDIhUVO0Ek/VsonH3uMbR3NVyf+vDja8S&#10;B472SswnBRZTwYPTCb71wQYfvuwBAg4XBepKZdKxcJrSzQAZAcb9v+77kIEJmIMF65b+jhsgTnZX&#10;VhQAvuHSCfd7ycjMzFOeXC+SvI/De+lNbvcP5WL82t//mycw7V+2pvkb/fbsXwd3lRIL54ywURKm&#10;FEXhrbWp5DMoSwKp7tQY7gdaOujS8X42ZKr4B5AdiEOQrCgGsNbAsoaanmK6/zqKvdfRPfkNQH47&#10;nUiUtxlF5MSfviouWvaAEI2oEaKhACs0Cbt7a9owCu06M8KpykGJnPsco7oGmRAgdWUUme0qxCZa&#10;46t7gZHrYbjja+UWmVqaQclM6LoAnIXp/mmFhycF5rMSwoynF8YrjBQmtcLrd+uI2hor8X1OaoVH&#10;pxOHfGNYQBrej6ZhZOP4zhvu1EUBpxzK4hjHzcUDrjLjBOO4L0N6xU0QFsxJVxf244Cm54hqSpCX&#10;gZLnu0VI/P+yGH/97/2sZuBHpd991Wxf/jRxd09sDxIDYyxEhTBb1wEYqIYcrVSuBxpWXDx9sO9I&#10;xu30PpBIKxUBlKCwKTSh0u40gBgYA1C5h3L/IRb7rwHlvhtPuQObNjksaDgOuZ1cYjJYGE/VjfHP&#10;cY9RteP9jeTtAMrHMyJD4By66u+X/pdsIy8e7D8ybEoiR6mkUcvxjnzD0SA3Fh8hTxBwr933kmq3&#10;s7/LX+9wUWBSKay2jBeXDZ5dmvj1ZrVCXTocWyngyVmLF1c9tCa0HeP9Fzu8cbdEoXDreDkQsyMj&#10;0GV4R8uT2ukWJU5Oyo8X6o2PUfCBXxa2ug978AMoXv5vEN/9F1PkhDKQbZylk7KSbBDhqz9Ei/Ht&#10;3/yV19fv/e8/053/i79OkB8m6RR8bTb7u5YiilXOIa07tfE6LWZALbVSrjHXn37Gi4/D3SbA3NaD&#10;JylgmCDsehSFakz2HqDcex00OYVAu6rvbglI7/WF5uYPWiR2NAAf42HMFmLqwvDuDyQqIozWWgFd&#10;78ZUd2+DD3oC8sqAeEelvFXZlbZS7IfIARw/PueC6Y9RuYQ/syz47fe2uFybuLM7wEXhfGlgso+9&#10;3hqcXVtcbRjNzsWJBJH35arHk5c7vHF/Agiw2loYfyfNReo5SIYMjRS5Wcltb4iwR2PhSBt8I4cm&#10;vzfmpzEzlPRuqtj/EcjsHiaLBwB36J5baFUgb8pyIed+Q6BkBXP9malgl+3gXkuf2mJ899u/u988&#10;/Sd/pn3+tb929c/+s78k4H0RhukNFHHcvcNOGCRY4o2oQbAdqsy0AooYI5j4NSJCVZCv+E4tu0F3&#10;Gu6EwgakNKg6wGz/ddD0PlQ5h4hxaWniqtd6Y9C0BlZc5J9kprgwgpB3++f3laGUbZjqNtwxlQdo&#10;wlEnwzj8EK8B8ZIrN0bHGm3/B+njeXgK89AhEk7zsPA0Zf67MUzv/YkhHOrx3RqddWKDu4cFzq7N&#10;AGb+6KxD2xlUpY5KFsvBs0g4Xxq8dtdNKpudjfGG944qvHl/4vpGRiNl1IbH8Q8fKxYPZOBtrpTb&#10;mqMguXYYUGAoGNjiHrrJHSilcfDwh1BVNVhVWJ+/mxjjYJ8LsSv+/SnCLdk8uehckMG6f/CL8e3f&#10;+n/Us3/yn/5t6i//tiKuQQXY7kBiUCgeHek+r7JwMLC1/g7k0bkA2BgbSltoEFZks0DckGdpveSN&#10;jRsLy3oBPbsHmj2Cro/8TNcC5hokBtYY7Nret/gSJlWBejLF1aZMoIsfQTn6Gilm1OT9GrERKks7&#10;i/F/WSIa+xgO8Y3IwgJWKeMmAVeOzkkNu6lZiSi/K8lw974lvjDQiiyAlts1nXVJONwrsW0ZD08r&#10;fHjWojd+dPR8rh7xbIi+QorPH8GJw997vsNyY9G0Np7MAbXWI6BDgEgRpQvGcLNI5t5cl0qDkz6P&#10;uyC67b7ohtqGjsFoMb33YziaHQB2A+nOYWwFFAtX+BrKadnpoWzWWkW3lL1Kxk+6tL9kiftUFmN3&#10;9vWfYtv/J80OArtDXRDqeuoc27YDwbhGWS8xcz5Cx/soFcouQ9yh77TQSbDbe3d9sv54GsCwR8AY&#10;RVFBTY7dApzehypriOkAu3UBvsagbQ0641pv66rAYlZBaQ3SFVS159qYmFN3QgBxvHSfMhkXZ6Rl&#10;TIgTl3mD0cmVTLvipXeS1xhmMqxEbwhLprhJCDMJMsGBc4VwlokRx8HM2KxUXkcwvEM9v+zx0VkL&#10;EeBbHzawDHz5jRmanR34DwK/ebRX4sHpBJUWfPCyx8XSRqLeCvDkrIt39TDmLzcWbS+YT2gAbuWI&#10;eB4GlUCkfMwmKMhglB80TwkNhPxFMTy+jCXohz+BvdkCGg24eQ6gd4IMmcD55QxSUerQ/CycgKV8&#10;UZKiWL9nlUYvNVoc/HpdVatPvBjrqvrEi1G4X9QF71WHhzD9HjarS2yvVigLwqSuoIsJhA3YtiAC&#10;ysJ/o76QFEEpM7CnpDiIeC/0/kCCxHZfVe5Bzx+iWDyCqvb9b2MHdJewpoc1Fl1v0RtHVtd1ibLQ&#10;0EUFpSdAUcMai+XFM2yWL52MLSpwZFCgmkZmcaFReWPVAPjJR0eMEIqwcw7BqiBMdv+hmLfj0Fvy&#10;o3iS3IWTMHDdgrwG3UcQZhQQaKBnjujqk5ct2p4d2d8JvvLGFIuJxmZrbuz+r53WeO1Oiap03Yjb&#10;zjU6YwQ459zdfKrx+G6N+US5ajyVxzBKrhL0HseM5yPK6udSy3BIGQ/UiANYABKX/q0yt79Ddx1F&#10;U2lGWQh4t4bYjWuVtgIhBdjOhUT7AyKENUcRQOQRXbx/CG4uCoWGC3x0XWDV7tu940fmc29+7gs/&#10;/ZM/+BaAX/tEi/Gnf/IHP/liNBu0qw9BpFHUCxwc7gPqFNvNCqv1JUgaTCcVqmrugnhNC4iFVhJP&#10;Oifutg6+17780/crhNNEeUkcVA3UDowpZ6cgXQLcgfuVQ0WtRdtZdL0BgVCWGnuLCoXvulDVDIDC&#10;dn2Fq5ffwvriA5TYQBGDoXw6mwwj+JAFGHn0zHDKlBF/hw2AFGh4l+MsNzQlZqdFIxhnAMrg2Mz5&#10;LxpkgSblzyDCnm4mf6uMbwxI4VuPpvjtdxlNZ3FyUOBgXjg+UqfqbvJIy2yiISI4X1osJsC01pmS&#10;JY2LwfIkIOzPC5zslw7s8BvNQLHi4/jDBuF39xsISA7W5Bmq2eA6oDbCiJyqzAFrWnCnIWYHsa2n&#10;MwDFFRT8iEkpEX1IWgb1lLOGsSicr4DzjZaLZt7PFifm5PhADg5n00r3d+oypa/8/k/G8pOPqWw7&#10;mN0lYA36bQFdzVBO9jGt9rG4/xht26FtlmhWK5SaUNU1qlK7HkDTQWDjNwl/t1KxP51dGK8ooD5E&#10;sXiEcvEQVMwBGEjfgPsl2FoYa9Eb6+4nSmE6qVCWBXRRQxUTQFXouh1Wz97D6vw92OYMdWFxMisx&#10;nc5xtdzG6MTgiFBZkrRI4pyYb/YxhsUXIHtrJVquRADO5B95fo1g6PQXlpGqZng/RK59RYa6Zlme&#10;Y6F0ALcC8hy+VtcnyV1cMKMgp4B4nl33eHJmACh85fEEs4mT0LW9e/mqVDiYa3RGsNy6Io3lxqIz&#10;jNlED8pTkWfzyFhgneuMJGW5jr2I2c+DP0bDSipJykkshHuI7R3AJxaUJTBLdqo7cCmN6YUGRBQM&#10;K7y4EDxfVbbFXn94cMxvPZjpw7maEK+UNkvwdg9id58cwBG7++Qno7D7Bk0DgsD0G0i/gtBLFPU+&#10;qJjj4OAY/d4xurbFdnOJptmgrktU5RylYrDpYG3vTj8lILi7negZ9Pwhqv3XoSdHbofqG9jdpUPG&#10;PHXR9Q5lrMoC82mJsizdAtQ1jBWslxdYnr2HdvkRCjSYTzTqwxKKqoQ0ZtYZycKZ2GPbaiQIZ/9b&#10;l1xxk8do0HD/jrEcmZEX2Z/FAGR1W25gkoFIFoJlbTrFSUnU74axNLQCI9570uLcNIy3n2yjGiWg&#10;hWoEjoSFf7E26DqDg0UFCDCtFU73S1ysLY4XGsf7JbQi/MsnblObTxQenFQoCxpYmwjDBDWlhobg&#10;MSIaxB1BDBECmGO4Vp4YHrTJuahb5ecrZ5OEcjpYrX24lMooF/FXKhe2smwIH10SVv2819WBObp3&#10;gOODqpyXRou5It03MLslWAEytZCMJvv9L8ZX+OQBdwQLYQt0xgEwdgtBCekvITRBPT1BfXwPAsJ2&#10;fYXdZo1SAZNJhWoygWnXsKJQLR5hsv8m9Oy+q1CzDWy3AUkHYYO+N+h6A7aMoigwn1YoihKqqAA1&#10;AXSJ3XaN5fm3sLl4H8pcoy4FJ4sShZ7eVNmLxHHQ+Cc4UAnKP5kBabUsKLIFQ6NF5+iaXA3iUWQA&#10;NssAjankamiKDZms+dMZO+UHSF5y/Dv+NulFkxrH0x1W4irIexXvH9f46LxFbxht777nVWPx8qqP&#10;3F4usI+CAX/KPr5X47W7hNXWedU8RAAAIABJREFU4IOXLbY7dmZjRfjc/Snun9ToejMwBwvyirXR&#10;QErD044ykzh85qzCuDY8E5znLRiCG2JRCtEZSvs/LwCqQKoCKR0j/5VS6EXh6TXh5bLkHfb6+d4R&#10;v/HaXC1qTGq1I9ueg+wOZrcCiGH7HXRRQ0z/Sr7G4lU+WeIOza6OzBOr7AXPhhsoaWFEQfolmGrU&#10;syPM53tQB8dodztsNldQbYeD1/8sJsdfQDnZg+0a9M0VYFcg3oFtj7br0Pc9CO4UnCxKaF0BuoZQ&#10;DWMN1hfPsb54H936OQq02JsWmCwqKL9F5mbccEoUWkWrVHjAjQ8JFmbwKNlkHHdxk3uUgU1KK4pj&#10;Z9zN4wIcCislS5WL9QIyVuPkovZcsJ4+nrKRNaTCcSZoLzThzmGJZxetOyl3jG9+sMXl2qLtLbTS&#10;qdmJXdJ5WSoc7RXurg+XlAAQPjrrMKmVH2cdIdAZHlAZCfAbL7ysiRjDDShSG5LAHJYkayN8vEFZ&#10;siuoxGCdAtAVFFsopUCkoYoJVDWDLhuQVljvFJ5eES6aqaFyv7977whH+1U5Kbq64CVMtwTbHUy7&#10;AZPHQLSCtQa6qCCfZrz/IMRJEqTvvHrsegYtwfYWsD1ACr1dQ6hGOd1DUezj4OgEoqbQp38SF+sO&#10;RdNgWgNlOUHPLXa7FqYDyqLAfl1CFxqCAqqYQKCw2y6xPPsWtlcfAv0Sk0rhZM+NwSHZu/cSuVKn&#10;GjMRJ/h2GlkZJJAOilok8YaSp3d70XEx6m5UmQggnrL+xKIQh0vpXpiQ2aRjVVEeRzcVIXGUTmR/&#10;7mjQNLQm5UZcyfJU33u+Q2sYpVbYdYxt60C08JpBSTStFO4eTXA4Jxzu1TDGRGdJZ9z38taDKb79&#10;tEGhCftzjapUKadn3LAV3svvoWI8Ru2rYVLAwFhPdGsqQBJbAKACpGuQnnjtbQEqapTTI2y6Ah89&#10;u8DLDypu6bCfL474zQd7el7LpFI7InMJbjawtgH37joG24O0djVxma9AfaqBVDkBnUm8Xl712J8D&#10;0zLF5YsYsLH+TrhyxCudo6hmKKZ3UGKNg6nCer3CxaYHC6EqahwsahTUAdLBsivONN0W1y8/wPr8&#10;PfTbl6i1xdGsRrU/g/LuhM5wlNoRgKpQkaQPD2lROF1rXhUefocsKRg3qmfieOgWXZ4Kx9mCHAud&#10;FaWfz0DdL6mglUdC8pyXE/GR/p7PkEwEIVkq3ZjEHAvWw8cbK5jXGmZeYLm1vm8wbTBauVPw7mGN&#10;g7nCYlbC9HZIqnseuOkYb3+4xcvrHg9OKrz1YArxDVkgz9HxUKQe+Lx8nBdOaO8AxL61RhmDnNU8&#10;ZIt0OlXj969KUDGFEkE5WQCqxPnlBh+9/U158eyJLQsxx/e+hNOjaVFRWxdYwrZLsG0A20BsD4Bh&#10;jXGxkhTtlxmKjU+3+CbWMfuHKvwyz64ZIhbTYxWjBlNXhcsx5Z5hhSBmA7YtzPoZlC6wVwr26sLt&#10;1h3hbEWYTOaYlDOY5jmWL9/G5uJdlLLBfKJxdFQ5objA82Y2lnsOq6a9gDw4PUK2KWQw5lkOsYwB&#10;rkcmTMBwNEQY0xHldKnFLwkHOFP2IFTLAelzRYagDoYyEsk2PKGUep4UOnJzVvMnZVFgYHwNYVyf&#10;fzTBN95nXK4NisI9wIUmnBxVOD6ooJXgzuEE1vZu8fsNKOTlNK3gwxctdh2jaZ3SptBu7O/MMBzq&#10;Bl0hI7E3ZWkLN/eP0bc2jhO5aaMK1tIgL9TlDPX8FM1mifc/+gBPPniPN6tLc7g34TdfO1L7i6rS&#10;vFGaX0D6JYRbiNm5th1x1y6lVKR6KKSO+3ZjUXnaOL3CYnyFT47hSpx8iM8ve3TWQdynBwStwu6v&#10;B6Q1cwBLDAwUTHPpGpb6HYpCo9RTnMyOYNQMPc3wL7/xGzDP/k8c7xW4ezTHpJ6DTQ9jeh/OJKhL&#10;isUyeXNtkfXnRVeIIpSehI5qC0kPd0JaJTMayzDG0ZttrR0R+SNBOcVmJMnUPTJIpx427YY81gTo&#10;BDWNIsnAmGGfI6khkBspBUYstQib+Gpr8fKqc3dmjzVOa4W7RyWeX/bY7HospiVK5boAgvhAiLDc&#10;Grz94RbXjZs+FlONulSYT/SAaonB67f8k/SxiA6Y0HMoSWUfpXJB/aT1TdE7ZQhwLpvUiqALhW0r&#10;+PB33sbT937LKm7M8eECb9y7VyxqVNxdQ3UN+t0SIKdfdgkTNv78wsgekFqOsRwy2BQ+dQtVekCd&#10;CbcsCJOS0HSMzc4pH/Lbu4TKNBV2egBsYU0LxTtwt0QH5xusptfQkyPsHVY4PSgxmX4OioC+3aLf&#10;tqjLEmVdO5WP6Zz7QrIyE5/43LNFEaI5MkmTZXGjn2+MokycLvFU9PKu3OYV74ZpQ0oaVckCeL0A&#10;XGHQuxg6NkjdVOb4BolbrFAEtgnwCJ7LiNhqgg2REyqpUIgCkZ/+Duwe+jcfTHG1tjhb9tAeyPnW&#10;hw2O9xzo1RnBdOZWfqEJnQE+Omvx4sqg2VkUhYJhwYOTGg9OKn/3ppQtGkT8TDHygiVxNZTV0WXV&#10;ih48yzoucbNtKvQ/aj/iihfAFt5611uF5yuF59cFN8/+bzOdaHn97kLtzxfVRLVkuzOgaWCaFRRZ&#10;2K6FKghsTYa4DpHkQPsYIyhLGeXgfucT/feIpn7yT14ur9wdzfNsAHBnX6FpgcOiiCZhy+wiD7M7&#10;UgAuFIexzsKyBdsWYltYy9BkwLaHLmr066eozBMUs1NMF0ewltH3DXbNFoqAqpyiLAFmx1uytZG4&#10;D3k37H9xzhsZ2UPnrhg45yUjgYfuf74FNSXKVTrulIkJO3HqlHyJpQ7GYKq1Cf4LOl7Kmqq0ouFp&#10;mFm10j01keSxu15yaD+ZIPamGnszhYvlxrdouViTo4XGF1+f4TffXuLZRYdNA7BoLDcdVo1g2/Qu&#10;C0cBdUVAR5hU6laLFGV3Z9eGPAx0yk/DOH4SgbNVp7XyY2LUzKXUAJ0ycwpNUKTR9ArPrwjn29qg&#10;PLBHp4f0eL/Uk9JozVtwt4RIC7NzyisxnV9lFiw6dWZIwobi+wr3+luE7wOxwifmGV/hk3/5l/8x&#10;fuqH57huVwNhszBwOFeotB0oUxgjWD7indHy4O5ebAE24L6FyAa2W4O7a/Tbp0C/QlHvAcUc09kR&#10;ZHoHXd9jt9ui5Z07LavKidW5g7UmhhFp5aRg7EGMWD1NqYUq9xWOVS0hSEpFICI7HTG0U6nMrc9C&#10;8XR06K0a9DAi/xqj3y6NlDehoIdFBhcnGlmMMCLY87rtsFB3rQtcfe1OjRdXPSwLeit493mLZWOx&#10;boFn5xZKafTGoCh0fEC1Jnzx0QyGBXszHX9WQceZP6UDZQxcMlsu6A5J45SdjDz62YfmrlhJ4FMC&#10;ikKht4KXK4Xn11o2ZmGm80N+9HhP7U1RldQQmWtIswbbFrbbQpRAPCJKYN9klfV1ZPtoOOUDD8kD&#10;03OISaHsmXiFOyO90p0xASHa36m0hKptdt/0jYamDEn0vwnSEnsYJPPzCRhgCxED4R6230Cjh7Fb&#10;WCnA7QVUOUdZH6Bc7EFkH6Zv0bYbKAjqYoqyEBjTQWzvENLQSeh/iNEGBQzaifP4DOGs9xpjy47E&#10;6EcHG1IUmWNgqwodjhiMq+ydLANwQw0pFBnwmSrKBgd9u+OFmAUl3aAW/PsqC8JX3phjtTV4et5h&#10;UilsW8b6+W4QT5PaugjTWqMsHGS5vygy0CpZoyJqqoYxiDJCc8YNUwNUNBdnAAPEO6Q7rHcaF5cK&#10;59upleLA7h/s48HBRM/KvlRyDW5XELuN0xYRwLYHucjwGydbforzDQkiDbQXMhqdg2nnVQDVV2yU&#10;c2On48U4lYLobKTj1D/h/nWBva6i29uTJDjbNIg0QBpCFiIqqk/YCqyxYGX8N7+DkQ7UXjvwp5ih&#10;qPdQTw9Q1cewLNg1W8DsUKgKVV2DYGH6DiLWuUYIKLROxHwG4MTF5jk3zQnFzNPiAiILYZCq3Sgm&#10;O/c9+MwWlbceh6+RbUrp9fLXQPYzRbwGxFCmrDyGMtXJbb/PgKrmhylJ8pcaCzw4qbCYFvjG+2tM&#10;6wLG0MCZsjdR2LSCu6cl7h5NsGtdQoDhxP8pZL0UwC2tyJmFSrLiUhqIoWLMSo6SKi9RA2lcrIGz&#10;TSHX7b6dLo743mtzdTjXpeYNKX4B2a0hdgfudxA2MfKTlLoRw5ij2cwDGUZ8H7myJ70viZYtc8vC&#10;/oRj6qvxjBG5zE7Jkz0nsDWGUVWhU4I90KEGJ2Uw35Ku3Jira4AtVEEQKhxxlF2oY/gvO88kWwB9&#10;B9Aa0l+D2wtAz1DNDjGZziG0h65rsTUNFHqUWqPQAjJONMyShFQu8Con5R0IlMcrAinhLbgs3Gjd&#10;YX73X0V550/j2W/8V5hONIztUJRFHGmMTX5FynStAwF4BIEcAo1MxCwSBOhJyhfG21tdDpln8Abi&#10;RwlM25+5Mpuza4PDeYHX703xzfc3uHtUYb11Yo0vPKzx7NLgZK/ArNaYFDcjPty8rOLVxIxsaLlo&#10;LV98OTZzm0hAKUJrNZ5dKlw2E9urfT4+PpQvLMpiVtmCjENETbdyE5TZxQUo/j3lC13rUaV5NpIK&#10;j8QD4e6qEEuUIiDmp0ClCEpjoMr6g5fD5e6BIAGzPqreh/twZhniUeIXx2Yogq73nR3Ktq59gjsQ&#10;FYCuQVR4ce/wzskBOyeBggF3vbPJ0NItTNSopocoyzmK+QF6y+j7Fl2/gyaNshRMJxX0apfNGPl9&#10;jGPFtIzuYgFq97Sli6IwHR6+8YOoqp9DURR452u/AOzeQVEUECqgSAM+/jAGMGOcA5PL7DIpHFJr&#10;smCYLnBDgjIeozN964A2YBf0XBbu+1lMNb70+gxlWeD+cYXPPZji7JJQVgVmE4W3HpRgtvH1g1ss&#10;ZJaK0MDTGEAlY/1DT8OEOJXVv4VxH8EvqAi9Ba4bjRdLJVu7sJP5Id97bV8tJlJMdEtm9wK0a2Da&#10;NTRZcN9Fzjum42HUP4lh8U7IaA18cr4RhPfICB0d4p8FzymH9PFXPRK/O3I4SVme4NgLkf5uyCsy&#10;BzWO+I8LO6TF5Xv/FEq22Hv0I1DlHLbfgohBVIL0FEIaLOyVL0kRw1nfglIMcA+RHlZ6p9ixGzCV&#10;kMk+pJhjMj2CxdR1Y4jBb3375Xp9dTWrFJTN0q6dzSld3KN8LUjiaLQxQCDcg9srTGYLEAT3v/jn&#10;0F69AdIVLt75FcyqFoAGQshWVpiT+MlUADrIRo3WI4kObcl8lfHBysj9iKhiWPCSH0epz1EwqRSs&#10;dSfHG/cmKDTheL9EURToe4OidBGOBYafn2faEGGQORpdFAM+13djZNQBlAIpBa0UGqPwdA28WNVM&#10;1YHdOzjAWwcTPdFdUdIS/e4aLDvY3QaFFnDbus+HR+05vSfLIaEPEZW+iXsETbL/eepRjAcjpgMm&#10;VDj1W7JI3k/w6ZD+YaxgDvfGJM9SGXhjLUMpnUpdBn0VCn23Q/vhrzi3NhEsTaG0wuHDH4SgANX7&#10;IFVk+tA0sga4OdcrRqUPW9je0wTcgFEA7SWgp6gWx1D1Ib7+2+/M78y3dGcq2cnLA2WZK8eE7zv0&#10;l/VRGY72wvK+3aBvzsF9i7okzB99P1S1j6bZQfcvsFtfoLDXA37KcraoOd25Qkgz26AASWRzKP5h&#10;H9CMEdgRVD+ahg+WJsDSbWADxVqEHCnOTbYyhvsHr4ebEYq5T3cELoFSCFdRAE8uXfTFpYFcrA+5&#10;mOzz3UcLOlqoosSWyL5Ev1nCqh7cbd37Mx0Y2oNj7kqRv99b0U25rXjVJ6UrDEWz8Wt5kWR2eufI&#10;tKJEG316zcXZb3SYlubuhtYytE5ugRAzyHkYLxz/RkqDQNg8+1UfvVChmh2g2Wxw8voPu4Q3cHRY&#10;SGijQuL5JEsFU8ohpyzWObt7pzc10sKKBuwaatLgtRNN83qOanKA/uJdwCx9ByJigDCyNDcFjs4K&#10;GSGCLAyxO9huA9M17v7SLlHUGzx860+hXNzH7/xffwdFdx4VSSwCLaP8VZGsaHXo/KCIxrpc1iI7&#10;nRDqun08Bes8pgLx7+IAp9LDSnmbklDMIco+OoZRaUWw4oKbmCQ7tbOeSD8Wu59N1k2RBkVnKicN&#10;wwUm8xM0nZJyqs2bdwpdqbZUdgXVrWH7LRQ62LaBKggwPVAUMeIzhJexjwFFlkKgs9Uf0gVChTmC&#10;MEIpiE8nzGvPw/euVVAlp/SEKKLIUhWUplc624pX+eQ8nn7gepdhsagbN32MBvNAtRMJJrjZnLzp&#10;k02H1dv/E7puh7J9Hyz3oUj5hajyG2tse0IGDwSTLzk+178vCzY9bL+DIQFQYV4zTo6PMLnzJ7Ar&#10;XsPy2dso+ueosEKph26U/IigzEERTcfWm6X7FtxvwaYFqwLMgoo0SrMP4X5AKIuPcHPggAyg9XEx&#10;tgu4UvHki5BIzMnxCzMsilGWTC7UvnFiZA1QobEXuZomo0qSein7HLrFHxwzabxAwd/PSl3AsML5&#10;irC1U8yPTnF0coJDMkR2W0r7ArZZwfZbCAzYdi5dXoyrGabfB3I5biuOYoIkbdM+QX0c+ByomfzV&#10;BMhCp5EVsOIPQwvVMMw3iJ/VKF/U3YncQhrEN2YJZoHQDilqAoHWBbYXvwvYd6CL0lcCDHNLo2Qt&#10;3K1YQBpYNwZ1CWiVx1cIhBjWGqDv/eW9h7LXONqfoKj+BM4vPoeL62eozHPM6Aql6iKN4zaCdAIP&#10;pFDxYyzYukVJ2uW4mq6G6bcgsM+pSpk6OTIdBOgSS1K9/C4gopn2MtyZOc+Zv0U8fUPLmSetEQYK&#10;n9s2XNySzK08sDXAjnw0eY5UhtfThbNVXa4FH5332Jo55od3cefuKY4P98Bmh353hULWsLtzsNk5&#10;xDzW8qko8xu7N5J2dRjJj1tpHheMtmycqaDUgpdXLQ7nKqUjjLjQYMi2+Yac381vHE6flNqQV5lS&#10;5QZQkzoolB9XJQvgHX6sM+/mu5EMENh4GribJYiqWEoKSTmjCHYnQhzfWARPzgxO9wnHe5TdxxzF&#10;Yi376AwAbIDmGapugzv1DAf3Z9iefh/Ol4+xWl5AmqeY4QwT2rgRFjJIZEu5p/4hDwlysBDDYN07&#10;Gsa4iMCcUU5wuCR9LKeKueip9JmrKCQuyKjoyRYg3ULwDxchYkxFHrsdHmS+RTQwph3GnsOcQslr&#10;wrV2JTu7XuHpS4PnVwwpDnB0cg+vnx5iPhHYdglqVrDGTRWMBmIaiDXxjeTWrbGo4bYNBiP3VbBb&#10;WQY+eNni4Z0J3n22w7QuoYhxvRWUDyo8u+zw+E6JolA3ag6GhmYZGKJVZkH71ACco70ZjFkNpGAp&#10;Q2UI6GjtH2CdnAviNU5uJFCeQE99FXlAcGyRQkBw2SeYOehR/J8ruJzN67XFumEU2uBgXricGM8y&#10;98bHZ0T7k4Xt1rDNGdAXUFRjvzrA7HCC/uguLlZ3sFxvsF4/R90/xxSXmBB7BFllDy150YJyO7n7&#10;CLcpuTx1v8unn0uu7snv24PRKKufi5+DlF6nsocjbGOW89IdNwIlIUMmIrhF/SK3nKbIVCnyMSeu&#10;E9crJ76nAherFi+edrhuSkz37uDhm6c4OZiioAbcvQCvNzDtBlROwJjASoEiotQUBfK3veJtecEC&#10;ytIU3LiuFbDeOjqm7RkfvGxdsevGYtMCvbGoCo1vvN9AQDje0/jovMHDkxLTuohRIrEhWSGW6eYA&#10;EYtLVH987/CTL8ZX+eR/5c0j7LYXMRxJ3bD1DFO4c8XDIEOUCMqfbuT5HmdOlYGoPPfvRcVK5g9E&#10;xnterd09ct0wdi1jpvxpCPdfzZIXAzstrO0gtgXLBoVtQFRgXu+jmk9w72Af181buFw9xtXyArp7&#10;hlpeYE91TukfAB1dQRWVG6lN4S1PapD8npe4cC4p1IPvAtZSClMebHBDzelQMoYo9bN+VNTqFk84&#10;pQLXQGrn1IeMhQPitBfW3m6LIiKUpUJvCU/OOpytBK3s4fTuA3z5rX3Ma0C6JWT3En2/dSFm4hPb&#10;NIGlBFSRAWIpceHjJH0sN/88MgyZWOLDsw7X6w5FoX0fCHsRhq/pExeMXZYabz9pUGiFB8clOt9Z&#10;GV8zz9HloSWPAOzaHn/+R77wyRfjq3zyP/7Vr+HPfqVEs3Ko5tjPJ1mKWYrk4IFUzqVwDUlvZsro&#10;EU6hRJTUPORzTINaJaB31vOYD45d4G7bE9Y7xqSWQeOTjII4LZyBtvBjrJjGvY5twaJRz5Y4VBMc&#10;nu5jc3iC6+Yurq9XeL59gco+w0JdQGkNVc6giylQdp5bNdC6AukCIAUW8hYyGqCnIZnN2EzwHbI8&#10;VRaBn8V7YED++2yfW9y8eX13WHhEN7uyg3A+BDDnCzKgooOTUQKtpHG9sXhy0WO1m6KaP8S9N+7i&#10;cFFiUnQwzUvY9QbcbQFuHR/LLuZDclGn3JDHR1RX8s3mFrVO1hIUx8mX1z0IwLqxaDrBXAm+9PoU&#10;H104C1hdEXrjayUyhVRZEN552mJSK7z1YBK/fiznlWFqQdjcFrMa//kvfu2TL8a/+7988k++s88R&#10;SEjawwTJyw3PY5LNKUKMPQz3lVBTFrhIGwlt9hI0v5sHDk2HxUkesU3EeKEcx/bwWLs2ZMNxcwij&#10;nhpdfnJlTVAShXDkftvBskI5WWGOGnt7+7gzn2LdfR4Xq8d4efkMTVPhqFeoF6cw2sXjKmugixKq&#10;mEKpKgkKhAbjpuUwNgdlkduMjKd+bpyGkhC96AP0HRVjpYvz+w3vjN/pdpJHa4zvjiJAqV2+kcUU&#10;H11YPLvoYPQhDo/v4EtvHWFaGmjewrbPYJod+t0GBOMMu+CsTpwwBCFlZMNKI2CB9LyE9x8qAtlL&#10;3IKSRhFh1zHefbpzFYG+ffpgXmA+UdCK8JU3ZlhMS7S9QdsTnl3scLV2GELbM1Zbiy88mkUAjbIC&#10;1bA7sQ3uk/QddP0n79soXuWTcy1eeIAGURAjp0aQc8UJn7LY/CzbhXyNuBpo/fyDGsa5ACYEUCbx&#10;slmxKXyko9N55iASc6pxi18/a3FKzhL/8dbAGut6GYigZI0KNU6rBY7uzLE9eoiLNfBbX/9VzPeP&#10;cXpyiPl8igKt2/2VSzSnEP/IgFWShXolYEDlSQOxFhw3m5CysVyyj7Fj4EblNefpa9yoasOw3Wn8&#10;d5oYooG1WeCj7T1cqe8D4QIPHi9x92QPMGuQfQFeL8HoYNqt3wmMf5jZd1QQbtaj59S1RJxAUa7c&#10;8cZpvola5mkLm5axblyvp/W0z/GswHJjcXbd4a0HMxwvNKAUCqVxuChwMCM8u7R4/0XjNpxCYdNY&#10;vP1kh9fuVJjW6ecaNsFo5xqENL+KNpVeBU5NeS8IotmIOUsUdQ/veukOOPQBpiOKR6CPO6W82Byp&#10;uQmRs8zMrEDMpmGf3SKcWoYH0fjCyYcWJ52sKwPJaxiUGASGcZcNEG3BZgNdTrCnp5jvz7Gd1Vju&#10;XuDD986gqwMcn5zg9OQQk7p0PkwosGWQdjmgvYRgXV9RbSWLmEhZOU7bmSaPXLGTB4KpkaUnfA8q&#10;ix4J1A976Q7d0JMGcbn4KYOxY42n2yN8uL2LrXoN+0cP8fj+Xczbb2C2ew5qr9E2SygYmLZBWcIF&#10;OZHrciRFUFC4XHU42qsc8ioZH+p//ko5szCNxtO8riBxphQt3U6hJFg1Ft94fwvrQeuyILx5f4qT&#10;/QLPLw12ncGD0xrMFgRnqNYFUJYKj++5MKAPzjowAy+uehzMC9SVHhD8QBIZiFAmpqBU5fBJFqN6&#10;JTlcFkkYpFRF1j8xQP6GwVS5OFhlBS6IC9TNVlEcnVeosWT13eHjE9fogBpgUTM01CBCMWpLRybR&#10;vGZ6UGGdnzCe8HWjkDjRNFvAtoDaoChWmFGN+XyBk9kE697i8vklzs8PcXj6Oh49fghV1E5MoPw4&#10;niltsptSvALlqeOSafQok2CFBUnZfDooUvM1Vsxus1SKvgP/GEhxF2l43ZR4d3MXz3b3gPou7t4/&#10;xBfvzHG0P4UugOv3X8KsPoBSGtI1EEUQNhAeOU7YGbq//dEa+rU9HO2VsELe+D3cDHiU/ZqS2DMR&#10;P1IhDUUfqBsl214in/h9j6a4e1Sh7xmv360BKUAArlcGF+sO612Pad3jdF/jeK9yebKXPbYevDna&#10;K3zaexqph5VzHw8q/b4XI7/SwZhFD2aqhHjaYQjmMLuYjXzszB0JScUROhDY6z4lEuqBR4yAkGWQ&#10;0lDEDumDAwWIgEnhVCJiRzEZQboWU9nyn/JI6CnDgCnBEMUkr0kVbmHFoLcblHaLkkqcVHMs9mv0&#10;6HH54hzfvHyCi+4YpX2MhVxgrgwKnb52+H5KpbKM1uy0EwEJI8+qdaBLUAGM0tVGidrIYi9CyQsN&#10;AoWdRM2KxpOXW7x/PUV/9K9h/+AUn3+9xuk+MCsNiK+A3TWMmoLba1C3BpU1IBbCOipXIiEugC4I&#10;63WP7c7io7MGh3ulH0eTijy/qyJzW6RT3kn1bqs6ZxZcLHtcri1EXFLdFx5OcfewdKS9dvm551cd&#10;zleMi2Xn/YuC5UZwveowe8v1VdaVwt3DEk8venx03mG9s/jSa7MYucG3dJLQTdzsD9pc7E9Hm+Io&#10;ZPTwRjAn062KJLBFRjkTQR6WRynGrxFAUw4L06OuFBYopXQ3RjY+O/qDeeS0YKeWUaQHSpMQzXdD&#10;2c8CsrmYO8Q2InZDgC1M1wDYorA7kGjMJwvUiwqiOuzdneCy+SFcLFe4bF9ixs+wV26hqY8cZHBx&#10;aC3DxQLEu1eu/mEZytyiDpRpIH0LukvKZnClVKyPu94Knrw0uO5K6PoRju4/wsMvfhknc4Yyl+Du&#10;Ena9hWV2dX/lofeUWpCWAXKbN1QFfvPsugUALNc9No3FYlaArGRCM69dprGeLT8NxWtqhxax5dbi&#10;Gx808TVfvzfBw9MKbS/Kn+9ZAAAgAElEQVRYNxbn1y0uN4xNY6K5uShSrs12x1g1BuvG4mS/xOFc&#10;48lZB2MFB/MaZemq81Q0Q6dCJLZDV8qnok2NYwVcbyEpDCRwgX7I6WjKHraQKBcFyqMCmuQY94Ze&#10;B6cmRwGSkied1OQ5u1HSNw+tSmrE040Tw1mSiZh5mB+T33NDPCJnX0srZ6y2vvvP7nowE+rpHCdV&#10;jePpApu9Ca67z+P8+jU8WV9gYp/hsLyClq2vqPP6T0qxD5Y5WoCYb9L1+QL4Tr8vN4YqKFLoLfD0&#10;wuLJJdDRAfYPTvB9bx1gUXWwbLE320F1VzDNS3C3grW9i8Yngmjj+EAPynCmkQ3jtYuyBLadwbYx&#10;mE0KvPFg5uxaPHR1pNgLSkFbHCxMWY6P31jYJ8gpItSley1jgeP9AveP3Lj59LzFcuMaysIG6w4C&#10;vlE9ZxnY7Fyt4IvLDoaBulTYm2lYHqqRwnUFnhLTyIt2PiU/YyomwYBXVIpHJ6JkptoUaRhaemMK&#10;dAamjM3EOVmevh4niFwyzx/cCczut+jh6bA4OTulvbB6PIBnRadKDfNWkZ3QQ50kpd1aZaQwWbC1&#10;4I5hZYWi3GAmJfbmezidTrHq7uJifQ/Pr5eg/jkO+AwTtUKtJWtcoqx3I29HRqqzo48H88JmUmgF&#10;JsKqYTy5sHi5rlHO7uD0wRHunUxQYgPNL9Gvr2BkCrO7grZLcLeB2AYUXsv/DGOMYYjfB8XTIwfC&#10;tFL48uf28cHzDaaVjtk6HDbcrBOToxA/CM3lxmZiPXWmCdg0Fi+X1tNdrvfjt9/bYrm13gDuFmow&#10;EFRlBv5ICnaeVgp3Dypcby2u1j00AYYFv/PuFl9+Y4a9Saa2CqIKAIpefb78LizGnG+VgXo/aQSz&#10;QN/c+R//jhKVnDlAhpasZLZNgnSOJyl4yKsFwblzRQSrkaAXV2kextw8ViZ8Tjh1Q5uUZDIUYXGF&#10;J5YHhtVc6J1JTSO94xrT3cZhjQHB3W81dqipRFVMcXQyx+ZgiqvtF3F2/RgX23PM7QvsFxcoqXN3&#10;4uw9JvECR1AnRlwQhndxAEWhsWsFT84NPjwnbGUPh0d38Nb9OY73AOquoc0FTLsCowe6LYTYgVPc&#10;+1AwzlLNs4WuMIRuM49fAJ3qyodX8qg+XIZkfr7xCByIYu3N8Te8Rm8F3/h/mXvTEFuTND3seSPi&#10;W85+cr9596qu3qY845GHAWGPkSxZjAw2CCFG2AYjGew/BhuD/xqDMchggw3CWA1i7LElxgzyioU8&#10;jHpmpOme1nRXdVdVV1XXdvcll5N59u1bIsI/IuL7Ir7MW13dPbh94Xb2zTp5MvOceCPeeN5neb7B&#10;amP9dZjGeFFWiCcxqvSW7ZRj0IlwuJNgtsjx7KKouqBhR6DT4ugkhOP9BE/PtvjsxQaMgE7HWI2A&#10;QrNqQphj+XMtxgpY9lo9xsJ/+6bADp107BrTouqAUlXRxKSCqtCesOW8MiqRsBo23fAWtYbBlU+P&#10;ql7EWmNpd3LViOr0qGfOyU1a0rqzW9DaY4hUaJ+C0lQBIqHni65dzpSELLYAtgBtwPgSPZ6g1+/g&#10;sJtimR/jbH6E08UCLDvDgF+gxYyyXTdndBbSc5cC95IKbuRos5XEyWmB0SKCaO3h8HgXbwwE2lEO&#10;uT2H2GTIs6U5wcvMGh0Xge+Pk0SZlpRV/FvfMk3VAHE9f/MWqrSk+kAeRjX3FmTubw6iYh4yQpVD&#10;nW1lOUGWJsyonXCst2UIpFAYPXJzP8GtgxQx00gSgfmqqGRr7Vjg7mECwQmF5fKWsu6E7h4mSGKG&#10;spRXPFOvPZx+Xidjs210H6PYfL70kEzXyoSJvWRPOaqQxcDOwG9V3UlnXYRcSAwFMiy/fVaQxKqW&#10;CnZk4lBaV21kqWfBKR7QrmudoeduGvjXaGXgMJfxYRKLdQN9re/N5MjHShn1iS5Acgum1kgpQivp&#10;oL+XItvtYrToYby4h8vVBTrlOYbR1KCaqHM/oGsQjUcMpSKcXCqczSWWso/+YB9vfKWHQUsipjVk&#10;PgcVGVS2huTGzFczZkY1TATkaw0GYsYYTBOBiQhMRNA8CsyergUwAntXjb1BglbCAxeAynw5uPvW&#10;7u+cEzhRBewQGWGzZiZx2QXcaqUtv8fKz6xjPRFhrx+hnXDMlzleXG7x7DyrBMPdljkVyZohj6YF&#10;Ti5z67ELPB9l1qLSM1BmZIOY6t2CsZ9nChVqYSUFfE/T0kmlEdsTpW491ZV7j9vNfYjfHf2lrF3b&#10;GLOJTZahA93QE1JdII7NSRaIITs24IxbzaAKw7o9almYlRGyjRiM65krXEa1RX01rmG1W7ifPuUo&#10;VVJez07SuoQuJDQyCJVBaI40XqLdj3Fr0MPl+gbGyxt4Pp8hyUfo8xGGsTnZmbFJx3Ij8WwkcbGK&#10;QfExDg938fpAoCUyMHUB5CvDD803UEyDVFFFN9F1CARxEBMAi8AjQ3MinoJ4CyTaNvlXe9Q5ul7X&#10;R0ZRc7CTVog1efYV1JBIwWMJqWvkIsSA7Vbh4+dbzJeldawH9noCsQBGs7IGhhgwX5W4nEucTzLD&#10;zJE2BIkB42WBZyON128KECMsNqUJURLMWH4WdS+tvS4O1/zMPzc9Y22faDxw3AvrHMwCfR98520E&#10;wTBV5obH+qjAHg/lVAHHtU58qmwnNKBZqIwg0uFzesADBbo038DY/A6BJSPgIXy24JqqCZDXvtc/&#10;m2tNHejgHMylQuUyFhS+ktYn1rjekSa04hWOkhhH3R5mww7G6yEmsztYZAvcKlJcLiSePFeY5z20&#10;u0O8/kYfg7REzDZQxQK03RjnvTK3HYWEBr+y6fjCaXACsQiEBIy3oFkExjjAUmjehtQMoChANys/&#10;Za3hSwDIopUBu+k6ERRdL9GqvfTI60oMak0E3L+RYrrIMehwpDHD2aSwoI153LPzzJL0FUTE65mh&#10;BpjSuJgVuH9s1tVybaIhlNLopBxfu9NCEpE1j7a6TW/uTN6J+POz3fCKwgEInNXJsuRZCyqLxVM1&#10;x6Mql8+3MqitBWuzXnbNFuSnAzNWtzRS1cwc8z1Z8HZKm5iiwwnzlfbUcDzDDMQApNIhaQFBy16D&#10;Vb46pN4AammYm602LQ61jQhXynBiOSlALhHRBjtcYGeni3U/xaY8hGIdnK1T9A4GuNsTaPMNBC6h&#10;iyWgMqDMobVra1VF1Xb3QH8+SX60mSYwnpgCtKUlJYNIB5i//B7y2WNEUQziUeADw7TJwSiUSQBT&#10;iur20ipGylLVw3xNHrOoKd/yrRXrTb6UGq2YY9AV0FrhzmGK5bowan2v4H33O7L6VwsRBEP7ba7w&#10;8jLHelOYzEqr0OAMwdXDFxRruyMQ/n+QQlWzbGrRm5OFukIRrNYNKj9foroTOton1XmF8HMKDYNG&#10;qjrfUFVFWC9q8mpOwfw3xmq77Vr1EOZiBDxbb84YfK5RqP6/61kgDJOYaosREryG4RvpxLCwvHsN&#10;tB8UWt+eKqRZSmmK0nJ9hd6ipQW6aRdJ/y56wy7U9gIoV9DZAkqVxtIeXrwZebxTS9/x1f1he2j5&#10;pHHX2GpGfSwvPsX29G3oeAdR9hip3oJLAUncMxirPVT9E5+ss7rPtmIMkJKu5ItUG6pNEjMUR1TJ&#10;ygYnIJxMcoznBZTS+NGTFUoF3N5PcLkofBVWJVLutTmGnRidVoRHJytkhQ5azscnRjYnrJUmAEyX&#10;EuNFiVspv1bU7K4eTP2cizGkxekryKefYU3eCaOUNj6Uuh6g1ux338yqZsP4sXOc+61QSDR3BcUq&#10;0ybzfaS0ORsCKBzBPNRseMbCTW+b2pEO+uq90sHxdMWrz843VX0XrjajyjgqbNvdwFuqq547Vast&#10;SzMEl1tolEDRBy8F5OYUWmbQKrNeQKpiijTNllSDkOFyMnxfMbAYhQSmD38PiHrA4lOkagy9PQPn&#10;EUotoIgbLqoOB/gV+0rX+Rs+G8fdLxnzrZi9Wa6m4PEN5SWk0ng+yiqv06JU+OqdFtothsvFVavy&#10;O4cJ7h62wEiDC475KsOLyzJAmciLDHTvxa39CHt9EaQlOxG8kf7pwA/2ZzkiGXQDNPwJ/1Z3A42g&#10;zfRPOOXZD2r4BaQqjqVqpFMFoxHl3xbCO6XzoHGnkUMC3L851e2oRvPx9fC4lu/U44zQbKtetlKG&#10;rBxf7VEbOWuEwaH6Ct/V0PEabCY/UNaTUYXtmnm9ylJCSaOWN250a0DlhpuLhvhVX6M4dvmIHhhR&#10;d90EqBKzB78LvvwAdPkdxGoK4hE0BJRdkPBc36560oTMGu2dui5VKrynhj4+5rWgCslWujYqiwTh&#10;3lFqhu9K48ZOgnbC6mhyhIE2g44AZ4T5qjQx6im/An64debGVt0Wx/0bKSJRn5RK15uGs7pUCNfC&#10;T/uX/Sxf3EzodXdAM6T1rBoDjBvXoIiG31oXbb243Zsc8kr9F1wHJr0InNrCx1AjkNO8+LYZtOlP&#10;4U6JakYaUK69RTdfK2SFxnQt8eyiRFGawXopa3PiapF5Udnafm8fga7kUN7rVHuyNlQLlXWGZcM4&#10;vmo1vPMWIyOcjTcV2OHubU0jYhtXbzdNhhRjpNsfgfMYQsR2jKED8I5VM1fvBKM6G9I3FKgNnUI7&#10;jSoIp/Hc1CCTVBmT9vtluapc9CrfH2rIx+zjL+cFPniywsPTLbQFZgQnz6fWkAL6HVG9z+vMBP6G&#10;pEMEdiDOKU8q/fNvU3VzsVIY7KIDeP/qqeesFcN+xCr5vfmcRmh8HPh42kLlnDwwCOFJW1E//BP6&#10;ejFx5frmAVLwTnOCxmqrwJjGcqMxPpdop4TLuUJRMIyXAAdDLjVascbBsDZuJm/IzcnbMJT38wbK&#10;et+bNZxtElCbDVOI6Pk2/lIqPDldgzGGw50kSOH9XJjcjjaadyRHF2zKh3QNjtcnfIOSB+9awa2n&#10;TkUYsYP92j6fAtU/qxKZGZYbhSfnGbhRmleUO+abKKO+I5+ODbjTTU0SVSvlGHYjjKYKw26EvS7D&#10;3jDB49MNFmvzs6QxM98TPgBFKEvP0NguREasupf/DOLin0lb3FioZsiPhjNcFQwjTUahs/mvACBX&#10;sN67WYmJK6sOBM7k2vMZdbt6ZVxsxc2up/dRMOnZHPpkcaVDqpO5l+qKcielqnZQ41Wj8eSkQBIT&#10;1pnGJjdfP5ob0erTCwmlGXop0O9EWG0VBp3aLrKZ7+i39mRPaT8fgwIChI8s6iCl2Lffd/Kq0aLE&#10;Npd4ebHGbj+u4q995DakMoaawQBocyMsC0n69zp4EXUuhcrXNLoIuKYeUHsdR3PSQsyBNz410YiG&#10;9wcRpitTiC78dr2VWGzkteSDyo3d+qC+dtzCfp8jTQTG8wxPTre4mBXQmnC0G+H+sZFNGa4sBewe&#10;ZxfjW6n6bgo/XTH+DF9cL1BvLMHQSP7VXmJxPQJhzcc1Twddz+Z8+0dHpas5kL4A141DjImyIwsE&#10;ShJn81id1lQN6QNvGaqVGNpaGDA7Q31+USK2ibnblc+btRFyRJCFQhwBi43Cx88zyFLizfsCEbdv&#10;nESVbuwXhvOx0RqeKVdTYlnrMMl7namRq+Ha29HUhJ/mhcImk+h1eB1OQ6EoVutQARK2zJ4sKkym&#10;sx408PIkPVc5Pz1ZU/B7MC8dygd26lGRx3F1m7rW6KQCB8MI48UWALDYSHz2YoPxQmKTS+97eqMN&#10;xtBOuX2NNToJRyuK8MmLDNNlgUjw6vAQnBBz235WyHB9yHAik1kSEBLo//uh/9/6ze8SAP2f/Ftf&#10;6TZVGU4IXC0aGxLTBHECWhk1kDM/ysyje7kX1S0y4Sw9QNYxjmpUzvnwVHe2hs1jAK54aUqeIW6z&#10;rQaAWBDWW4XTtQwizSJB1uzItI6zlcL9owizVYHzmQKDxmQpIZhGt8WsWqVGNJUK+8tAqX/toFx7&#10;hHhdQf4BgUEDq42JUe+2I7x+q4NOi1uHPg/1RE1TZHT98Fo3nrdGHIEmqu/71lRwhydsDsjiAY85&#10;1M+QJ0XRjVY5KxSenG0NMYMB02VpuKOMPIG7eXwkCJ1OhINhjGHXtLKlffu3ucI2V/janTZWW43Z&#10;sgBnhDKYV+oABfbjDtxO4aiSURT99MX4k3zxf/6NbxMRJYyxtlIqUwoM18zhnGIdni2GP7Or73nO&#10;xdpvRb3gP4SO22RbUJ+ZU6XfOt24h8z6Lt9NHod2wAd4IN1xd8LAoxSmbd1kGuNl6Wn2zMf9PsPR&#10;kKOdMqsy53h8qrDYKKSRia9SSuP5qEBWKrxxk+Ggf7XN942IqTn09jSW1cxVA+S1nIyFIaClBOKI&#10;4ev3B8bugrHK1EkH9uMhmslYfZdzAFDTRIDR9fS12ve0zoxT1memOhU9jrKfWgx9lZrIWD3bUx5P&#10;o5Amwk5p8744fqpjx7g737ArcDCM0W0xJJGx7/Rj453f0HorcT6VFkFtoZ2wwGXAJ8GHYwzPjkNJ&#10;HB4dEgD8p3/7D39iLoD427/z4Rd64HQ6TRhjLQCR2bEYQKCmOLcJVTv42/EXtdemVse+cndKVI9T&#10;flQaajkTYzUgZEx/dW2qa60nqMnUaQzq3b99y8Aa26/f+Ca6yaBxOpFYbaQZDMO/59bgilQaRzsc&#10;D04VztYl9voR1plGVgBlqbHNFaSiKmek6T/jZErO2FhrDen521c5GxW/yK+q+q8hNLP6Dg/DkKml&#10;FA3WjUfUvsrICQkBzEqbqrNb48pzOZsmF/Xn3BhcWjCz7BwX0GNTDK6ctFX7ymriSBpzfOV2Gx89&#10;22K90ZX4OBIM7ZRhrxejkzIMewKMMZRFaUULXjgqAybLAutM4bMXGyhN2BuY9tdpXZ1lv9sMRaOt&#10;r69Y5hNlKQkA3njjDazX65+oIMXNmzc/9wEffvhhTEQtxlhE5g+IiIwrP1Fj3B+oOFwrRdYprg61&#10;8Vs0csnTV2h22opnmVJ1XLd3gW5uAG5ephTAyXmrwjvpQusNH0RRzirfXcRVbQfhGw3vdBmWa4nS&#10;tuSMCGcTifFCYafLsddn6KUaEQfuHAjMlho39yOst8DTkfF4vZiVmC41buxE2O/XgSuMlB396mqD&#10;qn5Wj9frNjHfaEsFIIxujBLMPYu89lE155sW1HCnfh2njgDhdVcF5rWRTt4kZR1AI4STtXn7nLuO&#10;vGKFuk1YU30SK2/YrkrLwLEn82xVYrYs67ukAnZ6Rg714iLHfF2i2+KIhPZMrSy4ZHM3Hp9tARj3&#10;N2GFyf4oqtZahqoM97O6SEJi9awSAIqioCRJdBRFdHFxgS9SlGK73V77Hx48eCAYY+1GEYKZP1Rq&#10;mP1FlzbT3vfAaRSVri/ptZNZ6Bnqy59Y4PqmwwzE4FTVFXjjFglnnmcjcA2JQAXxdRTAbTrY/Wub&#10;DvO5x+cl1rmJ3e63GWYr6+9q0dXRzFCnhl2Bgz5h0OVoRcZCsJMQvnxT4OPnEutcY73V6LU19oPC&#10;qwnvVQakB8Y4r04pw/b9ukG7Rkg5vLHXQhJxc9oK8mw1QwRUeveyyriKUXW3dfM+ZWP2/BFJGEZD&#10;lWLfydxwzUhF+cN/qpFj/4pgfawDkrm2G8zxXozpIse2MD//fGWsGp0DQqk07L5gZVbAKpN4crLB&#10;5cKIvIlp7A8Ebu23qqvN9SOZxky2EbVnfxdu1g9jRKTLstT9fh9lWeLk5ORzi1LMZrPgExcXFxxA&#10;yjmP7XOCMUbmuYmIiDHGSChwZxNpopp1RawNGCQeDay6DAcO5F7mOukgbYiT5zZnQ3OaKUB15gaq&#10;Xc0feOlrit6xX1yQpp88G0rCPDBHa0QCWC81UgG8diTw6KxAVhprwMpAWAGXC4nxXGHY09jtALt9&#10;UzRJRHj9KMKnpxKr0pAFNjmQRKiIAH5xae9S6Xul+lHdvurcz8hwTgWuBd/pxZb1oiqEszn0b3JT&#10;w/lrOGd0Meb+Xc5fqNXd3PO5edVpyOwYR5baJFzb8FKfHhgCJwSlCQf9GAdDjnc+KSyQQ9jkCgcD&#10;gTdutfH+45UhfRNDXmjkZYHLWYbpUmG9LRHHouKW9loC+4MI27y0Wsir3FqlyAMbyYskr09NZfmL&#10;thiVXeM6iiK6d++eHo1Gr2xdRbvdBgA8ffqUAUgAxMw49xBjDJxzIiLinNvnJ8Y5ZxIQSjNhIsTt&#10;myLNXYfoaruqvLtiPRD27ROloVo5Hx14WY6WOEy4ujvWAAdVJGPfFY43dZY+yOCRm4PHOEaQquVf&#10;UmkM24TJSiPLFZ5fltjmGgcDjlIBLy9LKLvxCHvyTJcKlzOJnQWw3wf2BhqtGLh/KPDJc4nJUmKx&#10;LnG8K3C8Kyp/VJ+K50jmUoWmz5WHrKcPBRnyuX/BYx4bBp5a/rqZmDshlc2dEF4RKG8zre6MHn/U&#10;bRC+dtP5terPGb9VowyXq2Ef3HQ7Z1bM6xO1OSMsthJKA7s9gfnKqP2TiJl8jUzh0ckWgueQSiEv&#10;zViLM2auLwQc7URQ2ow8pAaUJrAGl/eqXjEc8fjeTaUE/5//n+es0+JcG0aGIiItpdRKKRwcHLyy&#10;IIUtwhhAZDYiIiLSjDHinBPnnKoqZIxxW5WRpsi+X5WjG2O6nqExfdXkSde3zGrsQQokUijRg9yc&#10;mcs1q3fUQOWvdWBxCj/ZCsZ+gxgFu7EDfipXOPg+NeGJUjlya7+HMw8opMajc4lCmv8wXkpEDEgi&#10;ApW6tqKvxjGoNJ6zlcRkqXAxB27vEfZ6EQ6HDC/HhtiQl2azkd5JXBUM1d6ppUJFe+Pcta6EprOh&#10;b9/on3rO4Uwqlzx8dc6JCnALiQjMb6MRorbujqURajONYRRVrbKz23Bfo3TI2kGt+Qm4tfCtN+1m&#10;wW2bmgiGN++3sdgA40UBIRjOpwXOpoVBn0sgL5VlW9mezDqBC24sNVppjFKWNaEdTQyjjhzwyD3B&#10;tQC2QyxKJYhIEBH3fIgUq2IdFHZ3d/WjR4+uFKQA0HagnKMaubbU/nWtKuPmj2CMsdL4V3Cl/LbT&#10;vFImvKahcq+G9jVSqZRJEU54iuM/8zfx8DvfQMK2kLqs3cc8Xmp1UilVaRXdm1TB+g3hsokGsP28&#10;1J6juQU9CKGhEzOfNNb7qgYrGIGTxlYaB+zjocB+37TlJ5Mw1CeOgH5EWGyATJr2lgDMVgp5ofC1&#10;iON4l2O+llhsPNmQR9iu1e3mNHDBPeSdntel7Hpr48p8kHmQvNPoOVvLaoZrbS5IhuoF7VNsrvsG&#10;17WiXtvs0/Oq53VXwYY7d8DQ8eLoqlms95xpwgDFcTbNsdsXiAXH6dioVrj9UTmrSedSmfthKxYo&#10;lImxY2b65MkBzb3cIdkOoHHqG9ZM+PJe47xQAgShtXZ3x+p6zDnX7vmuA06F39NcA2m7SyL3CpEb&#10;CEcLrXWSRC7OuuZV6gb/VDcsFyvalZ0LSpmhv3OAL/3ZvwnOgJcPvovl0z+0Fvo6MBSuDYq9eSJR&#10;ZS7l3yNr52k77mio/oX/c3q7ulIKmrMKB5JaIyKN2/tmXJGXln/rQf5aaWiqBan3DjhKxfHiUmO5&#10;AWRp4swNp7LEGzcZbuwwLDYSo6nEaqtwZ5+j2+IemKPBuaruKG4UEkSi65C8gKaMSzdsJi3FTEmq&#10;6IPuHs1AFaHCM/oOjKjhWWqa8Nt6BupGAME4AjV400wb1pYAUJ2azpW+kfAT5ERCX3HxLpXG4TDC&#10;nf0IL8cF0phhtxfhdJKjkzKTw8gYbu4leHy6xdFujJ0uGRRVy4DI4J676jzsDqavKF5cq2zi5LQ2&#10;GwNjEKYhIG6uXDIcz5q4baRpqj/66KNg/xK4upnCFiBxzk2giP23+wgixhjEdz9Z/8nXbuAfvzaI&#10;/4KgNfPNp3zLBZ+O5lT/nLEgCiBbTdDuDCDLDW689is4h0J3sI+Xn34LTF7aouSVRMkPfWGsLkDn&#10;MFfpAxmhLHVD3hbOHt0SUlp5vqCeBMzmRFzMpRmaa08ZoD1OrC2ErNDY5hr9DuFLNzjmG4bPXubV&#10;Ar1cSOzOgZ2uQDctsc4UZivCfo+h16qJDzU1rUlC8AtRB6eNy9wgXyVoZ3vN6EZi4f1Ie8ZbCqEa&#10;wxVaSCygSpfJQSHwBJgZIvNSpGxXVL1f3gjBH3/QNXfZ5slfnY72OXttAa0l2gnDV++0wYgwW5X4&#10;6p02no9yRAK4fZAiiUx+hlYSQhCKAsH9L+A+aZ8pFFqTug2OWyJ5qXj2u9+b/f1/9sH4I86Iu8LT&#10;WptRBEDa/AN5noMxhp2dnWtVG1eTueqbKnmnJCulkoyx/HivfXdv0PvF90+6WOS3MBTPcdC+QDvO&#10;A1KzUiEBuz7k6lmj1hqqXCPLSxTbOTjTOLz7S4jbQ2QqxvrsB4CUKNdP6wUC78XTVBVhKXXF+ZSV&#10;TT/V4uAmWunJwcij0jmn7GoRkGF6lNbDs5A6CM707zyl1HhwWmJ/AOx2gd0eQ78FTNZ1xZzPJPYH&#10;HHs9htVWIhJAO6Eg2KWK1qsKpLY65BWFzmulqIa5zNzPpjNR6OPj1AeMMUCzoBtqRgU4EoDzuWVE&#10;UAi1kASqUelAXUHVYN8K9qooE61cMVPND5beHPMaWl5YtDURgKn65N4fxCAYE6kv32qhm3Jrw2hO&#10;saOdyHQw8O6sVwjlNdCnPbqgpBA8EpxhuhH49GULi+0OPnq27d7e6f0rWq+/fTHPXjCiWHAiXXmj&#10;aTOjl1JrrdHpdK4txgYVuSpAHSoyVPb68fDNf+kXb/1Hdw/7vxJx2s8Khdkyx2j5ZXx8cYDj7gj3&#10;hpcYpDlQWsNbT11xXdCnKcYtZJlBZgtIVUBhApkvsLd/A7ff+Pfw8MM/xurBZ4iiyDiLwTfp9FQi&#10;lqyuGgoHn0juW/lf63/pMWmYQ2Whce+Q49ml4UGuM3NnZXaFUGXJYJ5wm2u8uJQYTTV2+4RtYfij&#10;yt5/trlpd/NSm6F/qXE6KXFrP4JgdRFqHbKIXBKWu98hiBxAsFldxy297sTxkVcZcF8RjJo0nO9L&#10;LWvylRpXXeF08BbmhycAACAASURBVL/OTc8HfB1a7aMmbh7YDN2tCAb0CsWJB6TEESEWAkprdFrc&#10;5JPY98gBV76u1bWk5MYXyic6OKTX8FylYjifCbz3CHgxbqGV9NBrR8kvf6n7G3/260e/sS3k+YPT&#10;5T/4g/dO/8vHZ4uxsfHQOqA3euvxc0/GOgJcwl46zR+iIsuLPV1mvz5drDDotsE5odsWSBJClu/j&#10;5WqAp9MjHHZGeG3nAvu9HFKXtZM4a7RaVStYQpe5CY1RGaRS9o0ipO0hVLGpoHMhavRTKh3YdpBN&#10;BnYiUNUo/EpXqcMRAV5hzejPHwUzVvFOVPzwROHGrqhSuOpQHqq+Z1YonM8ktEVADXAFgAN5obHY&#10;KHRTwrY0VDulCa8d8hor0deXFWdUBQ7pRpydXySVYt6xi3R9T/MBCGoUqENyybuDM28aTl7HgCtt&#10;HSrUsp4lUiV54w1h83XjFX+uSVVEnm5EeCNwYtA2AbsyVbZmZb73mG7sVP7P6U6/WkNpkGfBCHFE&#10;yEuOx+cCHzxhOJ22EEUt7PQEeu0YkWBgnGGbSyxWm8NIbf/KcpP/10CVAuAwCR3HMYgI4/H41eJi&#10;766lvT/QWmullNTQWG2Ly7PLxfrF+bTd67RwtDfA7qCNThIjEhJpzLDJBEaLLk6fH+FGd4I7/TMc&#10;9TZQskQQm+2x+c3pWULrErLMTOY745BFhDJfQasiIDP7zB6/2OCNPdyJ5iO5xHQDCLBkZuW3hfbC&#10;3nAzWG41JittyerAeKWx2BriOKHW98UC2OsxLDbAagtj9+hb+0Gj3yIUpblffvVWhJNJidFModdy&#10;UL5P2QtnpaTD8FeiUGvXvJM5oAHwFqzT9kmDnjarg1hNDbxSdNcM7pt5heQT8v0xRcOpgBrGv+79&#10;cPPNKk0L5MUWhMN31xIrT/7lxhjEvIBTZjjVxBi0rIGbKurUttrOLSBihCgmlIrw8UuOHz2LcD6L&#10;IXiMWwcdRBFDxDiE4MiLAqcXM4zGM2yzApHg3VSgRcRKW2eaiLQRwXNdFAUWi8XnF6NDE4lIK6U0&#10;1fRTzTkXF7PNW2ez9n/1C3cG/9nlfItPn56inSY42u1hb6eLdhojjiTShCMvYiy2fbx9eoD+5QVe&#10;2xnh1mCNWGQoXJAqac9GjyqTYq0ktCqhyhyyzCurR5A/vNfe8na7Hnl3wJDDeXXT8finPkNHhVaK&#10;jquZRsBBnzCa1cdAIY06wq0vN1O7tcsAEnh5qXGxsGwY+zsf7nAcDkzLk0TAeCGRCHOSx6IGj+CP&#10;gLRPjdMBYONTBmu5WL27NzmV7nkFM6ghrjHirT1CTaehLNQfADTaJAAon0lYnV4UUN7IA0O05zcU&#10;qHU8NwPXI4bSrboIfVJ7AFwRKpKGa4mDMVDFKHJ31ZoI7zYewQgR58gkxwePCR8+45itW+ikCe7e&#10;aCMWDJwzcEbYZiVeXkxwOVuhKCSSSODL929Cs+QP/9EPP/hIcBYDOqgjpRRWqxXu3r2rP/fO6NzY&#10;HCTrKD3ubyF1vsnKyfFeD/1OG9PVBrNlhofPL/ByNMXBbg+HO3100hhprNGKSxSdHuarFt4+2cfD&#10;yRy3eye4PVwiEpm15bNROEyAMQHGOEp7m6/NixvubNZhLsx3pNrpu7qGN6LDlb6i+avJ0pYUgHqA&#10;76OykQDuHnDkucR0rQO9k9I1mFFI08bu9jXuHnBEEfD0TFZkb86AiJvvYWh1EutMQWngwWmB+wcm&#10;Z15WQura7rHm/obuBM66Q7NX50BoOAtGVHQv7SGIfgH5XrRm0asq6es6aorveaVVON7wCdR+AfoC&#10;gSvjS09YDG9jCV37QoRZB1mZdC0W4Di55LM9UFt+MCIsM46PnjN88lxgvkkw7Lbw2nEKzglJZCYM&#10;622O0XiOy9kSRSHRbae4e3yAm4f7GPRaeHo+y/7jv/Zn1H/x97+nCFpb0EYzxlCWJZ48efJKDxzy&#10;YVSlFDHGtDRppWSPV62U0qXUyhAKGJIY2Oct9FsxVlmJyXyNZ6cTnF0usD/s4nC3h247RaQVIs7Q&#10;SRmyooP3L4Z4NJ3j3vAcdwYTJBwQUYISCuAJSBTmBePCgOY+GdcxaRoenC6x2Nk6wtdQKg1JDRNk&#10;GMIB0dXxrblrqOBu6Wh6Umusc3saawMUlNKhJ7oqksfnGtN1iaMBcNAXOL0EpD0SRnOJfovQSQgR&#10;B+4fcnz8wiDBeQEsNhrDDiqJlmPAlDqkAHLWdKXz1heFG42fvMwapOcQsaQrbb8/gFfNKb83WHSR&#10;cOFrWmsXtapns7pKp/aH6E1DRvP40rp+a09bWalAoIM5rCOj+xuBM8yuCCH2G3JO1vrTIMvzDceH&#10;TyN89jLCpkhwuNPB/o5pQ5PIrMPFeouLyQKT2QqllOh32zi4OcD+sIdWGkPKAvN5gY2RTyHLtjpN&#10;EuVqSGuNp0+fotPp6FcVY3CHd3CNac9MQTLGFGOMl6UCtFZSScsO0UhigSQW6LdNUU4XG5xezjGa&#10;LrHTbeH4YIBuO0UcR5ClRK8tsFi38PF4iAfjKe7trXAn3kEnbUGXW+QEMC5ALAITCRiPjK94I6tR&#10;Sn3NbFEHRk6VKZLSAaNHKUArMjMC72Jfm11RbeUYWFDqgFDeTYFeyjCaK6wz30JS4XxKEAy4ewik&#10;MbDYmgVSFArLDaGTmtyPVkxox8aNbLfLcLzDrFWJs6oIW7lqO3H+s/BUBJ7fiw4MqqhSg/hUN6A5&#10;l0Tllh3iWjWZ3rXi5HmyMk6B9WLzpK10H+Se33OIo1BcrKxJsbsyuJ2GXcWLquIj8g27XmWchsCp&#10;UHACI46LOce7jwQenUYg1sagE+PGfoI44hCGhoPZcoPRZIHlJkdZFBj2O7h1tI+j/V2kSRTMcCPB&#10;sJHWwLqUquSlZvb0ePjw4SuVG690h7P3RXdB1lJKUkqVqlSsLEshGMd6swZnvFrgSRwhjgTaMcc6&#10;KzFbZRhNF7icrbDTb+Nor49hr41IcESCYdARmK9iPBjn+Af/93t48+t38frtY3TTNrL13K6uCCxq&#10;wVVNxa7RoQlvpQJXujYv9k7HeuhtWT2+Y7kOd2ZXTIALsakLNoqAL91gOJsBZ1OJ+Vqj3ybc3GXY&#10;5MDlXGFb1OlYTlERcR9YAlaZtoWpMVmoykV7uVVYbgnDLqsExRq+6qW2MwllPfbuUyn5cVXo6+6U&#10;qGeAzpDXzQmVHd4RqSqR2LeZcPF5wSiFQge1+v5WC50NpQxeAK2VSOsaNNEBoOd0l/U4QwaR6T9G&#10;IdjgmFZzSTLuByUDno853vmM4dlFCi5S7O+kaMUcrSRCJDhKqTCeLTGazLHeFtBa42B3gBsHu9jp&#10;d5HEkTU5sySWKgSJoZMmGgDWmw2ybIssy/DjdI2fa9WotVZaa27fVHuGKCaVkowztNLULlqqWgEC&#10;IYkEWmmCfifBYp1gtswwXawxWazRbSW4sd/H7qCLNIkgBEO3LbCcneOP/skJfjDcw9e+egtfuX8L&#10;w7ZGWZYQSdckIWl4yn87KpDWW9W7E5A/g6KQSnXFSVyjkSbkBNGWAypVYPvhkm87qVkkRanxbCTB&#10;mRETf/kmx3gJXM5LbIo6m9K8b6pC7FZbhW1uCvBkokxePBkngKejEr0WD3iz1EB2tXW6i7gOhvrO&#10;8Rp2VqYbJGx47WGgQtCvmD9Wao/GbM/TW9ZOdOSpMJoEdB2E/Pgk9OZd0u+yGZkwI+dPStDhsJ6u&#10;UucC93LvYXFEyHKOR+cc73wmcD5roZ2muHfcQmwPCMEZilLi7HKOi+kCpQSKIofgDG9+7XXsDXoQ&#10;gnvUOUehlNXml2clzi7GBACz2ZSUlNoip/rz3eGuzhn9lpXZtpVZKo+AzeemSsfFIKVCWRa2mzD9&#10;ElnovRUxdPe72OQlJvMtFusMHz86Q68zw9FeD/s7PYPACo5OIZHlc3zvTy7x3vt9vPnml/DPff02&#10;dgdHSFotbF4xwXYtI3NaN2XIz6G7tK6QNTc4r9QJrB6kk61gNzqoA08RuIjnhRnWcwYcDoxC/HKu&#10;MLhBuLnLsdPlmKwsrURrdGKyPqHmxN1kGg9PS7Rig8g64COJCQd9qk21PBOua0ZQQRS2Uqj4qwzw&#10;KHoAlGHOkKe+D4qPwnukj1QGFoqeMsVHMq+XRvl3Ugo0kn776y8918E4cgE1ASmPoF6ZLvtX2OZ9&#10;kYA4Jqy2HB88FXjvEWGyTNHrtHG8H6HXji0yylAUJU4mC1OEpYmhX6/XOD09w96wj6PdX/YE7+TZ&#10;tQBlWVa/mOAc3M6S5vOF1EqyL6T0f8XYCKGewaH2RjiptaKyLEy8loiQJAJlWYBzZihodpYjpQRn&#10;5kBtJxHaBzHmqzU2WYHFpsBnz0Z4eT7Djf0+9nd66LRipIlAKymRFxne//67+NGHD/FLv/KrEJsE&#10;RISEGZyc1a5StYSHUZ27aDP4GNNBFAHzLBilujryYAAKqSCI1T6b6qrh1qBNuLVLmK6MuPhwSFhs&#10;ja0GkbHdOB4S8pJshDXQSYDJ0mwURBqrTGGx0bbFqQGpYZeDEVCoEO5txif4Kc7Q1zFWvNOM/LHG&#10;1XEG8/iWQXw6GlkZ3kWPtL5yYvuAkG5YgfhJwtcZKUvdUHhcU+iEqydr0z3cbUpJzLDcEt77jOHd&#10;B4RMdtDvtPDGnRSCc0TcmBRvsgIn0ymmi41R9xQl5os5xuMxttsMSitE0S44t0weL3jX/ZxxFIHs&#10;LxQLgWG/NHwsJb+wD464pgivvULax3IAaVGCbXKJWBhybp6XSJLEtJScQwMoy8KeUhKMc8fmQbeV&#10;4O7hACCGFxcLnI6XeHwyxsuLGQ52ejjc7aOdxkiTCGkSI8u2ePePf9/Qyco3cX9nhNf2lhB8U51U&#10;VQSbHWm4YBfl2TsyLzJOKoUIoZlSfYrWhe7EyYxCsrtSGq2Y4eaOeZ3PpgrrzNxvitJIplyWBKHO&#10;F7m5y1BIQlbUkknylRcEbDPjy/raUdSY//rFYQo6UOt7yKFUteVFRZKg2pP1ig2jrhOCK0sPj0VQ&#10;qS4Q3uvUlXCghiGZdYUPbCFZeMISfJJ6rVesN1sKDMLcrLN+DgqKn2CKcLxkePsBx0fPBArVRq8d&#10;47AdoZ0YXIMIWG9ynE8WmK820CDIssRkMsF0NkWR53bNMkARODeoaikNLsE88uwVBNrccX2bNPWT&#10;noz6mnZVe49hAHIAxSYv2MOXU/S7KQ6HnXorcvYEUiKJY2RZDiGMT6fxniEQMQgRoduO0WvFuHPQ&#10;w+lkjZOLhR2LzLHTS3F8sINeO0UkOOI4QlEqrLJbeDA/wKeXY9wbjvDa7gytaGuDaByD19wjeRAn&#10;bueL3q5bveGkK5Qx2InJz0nUgSmzGyq79VJIDbk1z3cyVrh/xKrsDn9Q304IXzriWGwJ51OFrRUl&#10;c6od8AYdhsgJdr0NRZY68OSp7s3eqegzfAjs6uJtpENdUUO4kQkn6LL2UPSRUEJo6+/navq2/sDV&#10;u+OrKHDerTFARLUOhcb+6lQagWO84MazdjTn+OFjwqcvBKRu4Wi3jZ2eWUfOJmOx2poiXG4AIpRF&#10;gfl8hslkisVigSSJEccxGCPEUYTtNkNRFpBSmmQvb/OWllVmbDgYojhCkRe4HI3+tb/1W9/8tX/h&#10;y0ff+v6nZ/yLFKR4xWtDDa2oApDaglwyIiUEx2i6wni2RjdluHW4C8EYNtstuBDI88JeaiMIzgAO&#10;MM6QZznKsoCSBtZvpzHeuJng5l4Xp+MlXlwscDZeYjzfYNhr43h/gH43RRoDrVRj0BaYrSI8Xuzg&#10;yWyB270L3NsZo59uqgg0BRPD5l/2tT0tmW3ZXCqxW2hKhdo9eFEC1JCBVQNkpdFJDCtnW2isM43L&#10;pQaYxK0doCUQoLoO5ZWKcHuPo5BkQnJUPVNMIuD2vqUeKE+U7Um+pNJgqj5FdGAW5XMuUZ2QRqB7&#10;VRXiRkRAnT7sxijSclp9c6naXgNWrBtmawThpI1CdLzUgHzu+ej6x6wD4ozXq7IgHavpbtaDJok5&#10;ypLw/JLw4ZMET0cxuGjhaC9BKxFIY14RxieLNS4mSyzXW3Bhouy26yUm0xnmyzWIGNqt1ChdoMHI&#10;xIiLKAJnDEopK1YPkW0rvkcpS4zOpnj2cgSl5OBgt983jzr7PBugz21T/Y+uot1HBqB/Nl6+8/Rs&#10;9kfHe91fAxHNNxLbFxPs9BIMOrGZJ0oJzs3luI51I+O4rI1SX1nVvrYGhcc7KY6GbVwutji5XGCy&#10;WGM8W2HQbeFof4DdfhutJEIccQw6EdZZipPVAC+eHWG/dYHXdi9x0FlXgmBtrS9KpU1svTZeo46t&#10;Tx7SyKiWT/lsDeHdpapFrGq9Yb9NGHYJo5nC08x8/XihsM007uwzdJI6rZgTsCo0Xl5KxELjeNfE&#10;lBXSvtgEXC4UDvqEbiucLZKnl2zK0BwiqqRRhFyx5mch40Q33vIqYKY5cieq4wO8tVSdigyVfKo2&#10;QlaNcy7krCLwILIWGA0nO9/3ppbf1SchIwN0ARyPzhje+gS4mLeQJG3sDmP0OzEEN4P6opQ4H89w&#10;OV8jt6CMkgWy9QzL2RSAQsKA3V6KbSGxyUpkeQ5ojVa7ZcdP5lSs0HytwLmw7uEG8b8YT3EyGmM6&#10;X0Eqhd1+G0SU/xjhzBcebTS1qO7e2Jqvs0+++daDf//WQf/P/cL9g3/3cKfzq1IpOp2uMV1l2O+1&#10;0O/EgNbIsgyMMQghgsWjvFSoKIotc8YoNXZlgbKIEAmBdVZgm+d4+OwcL5MIh7sOgY0QxxzdlsA6&#10;izFb9/GdZ4fYb43x+t4F9ttLcMgKiZSWKM6VrgSpyuNS+u1QlelBOriPXOdaYBYKQVBtTgQYFs1n&#10;pxL9lsJ+nyERZkNYZxqdlKHfBp7aCDlmdYQ7XcNScuoGHzElMgnOtXePvsLpI+YjnaHqQV9DnKkJ&#10;4B4P1ZsWMISjldqIqRZgMwaQREXk1gjF3a6+uHfq+l8rlT/sp6qXq0EfCtzxIsGwzYEPn3F8/1OG&#10;8SJFmqS4fdRCtxVDcDOeyAqJk9EMl7MVstzgF1oWWC9myLZrw0EV3Fq3GKfANBZoJzGWmy3myzW0&#10;0oiTCHmWg3OOJI2rk5HZk/JsdInnpyPMV1sQCGkSAVrnz87n/8uT08kPvdrBz1KM8OUf9nTc2na1&#10;BWDxYjT/hy8v5t++czj4i2++dvg39oedX5ZK48V4hclyi91+ilQYECdJEmORkGXgwryAUkrzi3EO&#10;pSSWiyUu52ssNiU042jFHESYvv9o9K1YsDv7g9YvPXmR0dl4gf1hBwc7PbQS0wanMUfeEZgsu3jr&#10;5QH60Rj3d0a4OVgiicoqqbfK+bAOcLBASyV+tlIoG57riaP1NWOFmhbXSoC7hwwMCs/HpvVTWuNy&#10;rjBdlYiFRhqV2BYKcUQ47BPma41pDjBhqG5SAcc7pvUzSLml8llncT+U1TeO0qgJ4US1a7jSxgcG&#10;FIqkqyG889q0Z3elWrCf55ygpEUjZK38cARrf4hHxEBkyNNa+V5+/gyXGvS30IFcSmUoh6WL4qPK&#10;JCyJGWZr4KOHHO8+5JgsY+wNOrh3nKDTis19TTBsMqOeGM9XKEtT2rLMkK2XKPItoExMuN8/c86r&#10;VrmVAGnSQSeNsc0l8qKwaKpAkRdVwO1kvsCL0wtMFysAhHYSA1qtX4zm/9vv/sln/y2At3/0eMRt&#10;jX1hAIc+TxnjATmFLcjS/jsGEGuN4unZ7Pefj+b/9P7xzl/86p29v7E/bL+ZlRLPR0t0UoHdXoKu&#10;bWHiKDKoVFlWg9zNxvD9pqsMijjiJMFinV2+8+nZ7/7w0ej3x/PNaSR4+/ZB75//2r2Dv7zL6Jdf&#10;nOX85HyKg50+jg4G6LRitGKNWORQOsZ01cZ7owM8GBsJ152dJQQv4XxepbIUudLGvdlLoy+/8kWx&#10;vnUiyHdFq7MGd7vmHnU6A/KiDoVRWmOTKeSSoSyN09yDU4WirF/63S6hKBXWGUMsbOZHHVfhnZRh&#10;SrTf2nk4Wt05eiJWx2SpRiPem9scDxBrAAikw0hyrcFsUA154I6PamqPZuhOOuY3sO4eameLZaFQ&#10;lvUoSXADzMzWGt9/yPDBY4F1nmBn0MEbtyO00whpbFDn9TbHy9ECs+UWRVGCoFHmGbbrBfJsGzo8&#10;oFYJKRs0yxirhAREZnNvpzFWmxyyyFGWJTjnuJzO8fTlOeYrM/VOkwhK6dVnzy9++1vvPflv3vnk&#10;5CMAKi9lZIvwC52Krhj1jxlrUMVFsx2HPR0lgAxABwAppfXDF+NvPjmZfuf+8fDP/8Jrh//OsJN8&#10;JSs1XlyuMV3l2O+30E7NnZFAWG4KXEzXWGwyCC6Qpm1Ml5uztz8++Yfvfnb6zfkquwQo4Zy1lFJ4&#10;dDJ96+nZ/Ac393tf/8qd3b98vNv91dFkHl/Mlhj227ixN0C3HQMaiAXHtiWwKdr48HIHH52PcW/n&#10;Eq/vLxDxsooc8A166xAfqud6CEM/na9oAKfbE1TCnER7PcKwbXxFT8bGH8adP8xeVC/mCpFgiIRB&#10;Y/stQq/N6pg4qq1CmhmcJljId1XT13Ix0YiIq8EZj+Wir/cGdUp3v7hqQriZj6xpCCF2EcsHVZNV&#10;EcG9IiyVAtdU+wpZxo91RKlApMIS8TkjRIJhNCd88JTw6XMOUAe7gxSHexHarRgtS0VbrLcYTeaY&#10;ztcACEIwqGKL9XKGsijALDPoGgMCEAO43XVc61kZktkNr5MKpMkAnXYb7338COPZAkSENOIopV6+&#10;88nL3/nO+8/++/cfnr1tnzmxL63E9SZyP9XJ6G+MrsIj+zWZPSnd5we2SKVUavHgxfj/fHI6/dbr&#10;N3d+/Wv3Dv56v5O8vljnWKwz7A86aCUxpqsc08UGICCJY0wXm2fvfvbk/3r3wfk/WW/zCYCEiFqW&#10;AaQMsEaRhsazs9mHL0bzHx0M21/66r39v3Rzr/svTufr9ni2xE6vg6O9PnqdFFHEkZYK3YTjchHh&#10;yXIfz+YLHLXP8NrB2hSMUthmgRYBSikIwSpdnVLmXqS80BknRFa6jraGDajZ75lVtskJo6kpzumy&#10;tg3UMKipVMBBHyglIS810oiZe5MKu5pKj6l1Q4Vhg1U9KlwNjOgrfqrUzHisWsaw2skzOyYPdXV3&#10;z4wfgKkc8c1/FZSfQ28+BrHYi2k3rae0JArmzVZq2ZbnTu6MnWy8+emU8OFTwtPzCEonuHPURyvm&#10;SOMIScytQfQal9MVFuttBcKV+QbLyQJlkVcJxlKaE40zEVi0+PI41VD71C7mDO1uD61OD4wLjC4n&#10;6LRSbPNi9vB88dvvfnb6333y/PLj127vi/bLSW+9zUtbhKWHsZRf9GTktpKvQ1PdbNH/G3ltqrvj&#10;d+1Hd8qWAFpK6+JyvvnBw5fjf5zlcjTste6307g/X2dYrrdgZHaxyWL78FvvPfkffu97D//O49Pp&#10;D4pSgogSImKvpAaRiU9YrvPx07PZWy8vl28RUPbayY2iLJPxbI3ZYgPOCJ00RhJztNMInVRAIsJk&#10;O8STcQfbMsbFnOHlhOP+3hZlNq/uepwz67VDFRHYLCb7eUZXsGqqrBpNQRmRqsaNHYGsVNCacDgw&#10;6o1be2Yuxgi4dcCRRmgYUbFqkZiPHEqrCugCMZtwLJB0hhgOhlDF0qDHpaqLyZlMNUAdS1AzjCkL&#10;8jhqo7MnBJnfvTY+lsjFMXqv/+tI9t9Ee3Ab28uPwbYvQCw2QAh3owjzXD67SHop1qhOIo1Op4Xz&#10;eYQfPSnxbCTw3Y+ATd7DwbCPo702+p0E7TQGCJjM13h6eomL6Qp5WQJKYr2YYjOfYrNaQMky5Iza&#10;KwjjrDLMqu+o0rkfQkpZrS+pNNrdPgZ7B0jbPUSRsKRwuvzhg7Pf/J/+0ff/w4tV/j+usnL8H/zb&#10;fx6DXkqbrNAvTifcFqM7xL5wIbr13f+c0QY1VGvCOyGVbVHd6dj2wJ7YeywHUKSxGH75zt5feePW&#10;7m/cORoebbPio+/96Pn//uHj0beyQq4tKMSvMcZi3sbgPkeONwuAKa0lNOSg17rx5du7f+614+Ff&#10;iAXtlVKj127haL+H3UHXjBEKiayU2GxL0xYphUgQ7u3OcaP1DG0xgyxKEBN2VxUoLa1PQ5mP2qZF&#10;aWWAi8r1zIS2RhGHkgqcc8iyRBQLrDYlcskxaCmczRg6iUK3LbDJFNqJtUV0J4pSZsYlFeJYGGaT&#10;EHbxGDYTMQ5oBREl6B++hnt376FYnYJBoSzNIlNaQ3CHztpRgfezM8ZRlCUiIaCU+V3z3Py8Sklw&#10;IhR5jgIRxNGvgZiAiNtodQZgTECyNuZPvw0+ewsibhscgHFoJcGFATwY55b2YzcVz1s2TQUWG8LJ&#10;vI/3HwmcTxTSRBjqZCJMZxNHKKXEdLHCxWSJopQQQkDJHJvlAtl2hbIwaKdhfJleXIiodilQqjLo&#10;9jWbrjV12SsiitDu9NDq9EHMFG8ccWR5ef79T07+3h+98+gbj0+nL964d4hnJ2P2b/4bv1r+yTuP&#10;848fnbZ3h53ycrIsvTFYcCX/0yhGeIse3rxReKeq8nrl0km67F/H4Ent42Svndw82u185dnZ7EdZ&#10;IVf2v3FcL1klzy6SXfMY5n2eTIivLjutePcXv3T067/4+uFfna8yAEC3nWB/2MXuoIM44ihKhdKG&#10;wJRSYb1VKIo1jrpj3OmfY7+zRlHkAAlIadC00rY8SpqdVtvLI/OObK00GGcoS4nIFpApJLPYlSrB&#10;uEBRSEQRNxQFzQKFveH88upjWZaIosiCXgZ55kIAWoJYguHR67h37x7y5SlIS3OCEq9OKN8RADAF&#10;Wpbmd1BSVj+XEKbwGRNQqkDJBijiu+BRguHxL4DkGlpuTVGJFEr0sXz5PYj5O+BRC0VRPwfn3G5i&#10;zPjR2g0gEgTOGSYr4MFJjEenKebbGP12gm47ArMjB86MemI8W2I8XyHLCiRxDKgC2/US2/USsL9f&#10;072+7ibqMJlRFAAAIABJREFUk9BnBQXObFqDC4F2b4C03QXnApwxCE5YbfKztz9+8Vt/8PbD3zq5&#10;XHxi12nPXtG2ds2v7cet1x0WCMUnPzE3FZ9DGndFqbw7JNlvKu0PmHuIa2aLzG9dEwB8sc5OF+vs&#10;zH4N/4InuLZWd9SgWGl7nzSmrgQGomS1ySaPXk7++C/9yv2/2ooYFtsCq22G5cscLy9m2O+3cbDb&#10;R5JY20cyRO6ct3G+aeHFbBc76SXu74xw3N9UVwBnXOQLkZl3B2IeH5MRPF1lk3QdZnxIpT2UkyrZ&#10;lQFwLKggQ5I4WQkVUGczai9XnriH43kWFr4K31kzNkNejF5SQVKMwb1/GTGtILeXUOUKUNJKtDRA&#10;qU3roqvZHm50wgiyAOIYYIxjumL48JnA+48ZCtXCTi/F/kBYjSu3EeEFJvMNpvMl8ryE4Aw3DnZw&#10;5/gQ777zDtbLOSLB7S/puRt4B5EB1aRnXqWr09Pdt7mI0LInYRzHUFIijjgW6+zlWx89/7t/+P1H&#10;v3k2Xj6zXV/PruuVd+BIrwNk3hWOftJT8bpipM8Z/vuF6H4A1xOv3UnlnVpuRqm9djW3v5i2/196&#10;YxLWOIWv+7kqc+WKnGunwbYomf03ESFiRNgbdDDoKWyyEtNlhtU2x/PRHOfTFXb7HRzuGQJBJDiS&#10;WKElFYqig9U2xdsv97AzmeL1nXPcHK5ByKDqFR7MBBytzlcx0BUSta7Sb8njztb6O6qID1IicDMA&#10;hdFwCMJ7ag4sIy9Tw7NuVD65uTa1uPaVdo5sgALKBTRW0OUaKDfGDh8cWkYAL42Chnk2h9UC0DZS&#10;nSA4x8WC4YOnAh8+5VA6xf6ghV7H8D+FPd3W2xyT2QqzxbpqsY+PdnH7aB97O31EQlilhK5aT8Ol&#10;Zeb+S+YeKKVEFAmbhO0RucmANVEcI233kLa7EMKehAyYb8vn337v8d/9/e8/+u3RZPnIOwm1LUTm&#10;fdTe+v2JkdOf5GSkVxQkvELz9163Q+T27hfbz2deAS7t6Zh7p6cDjyYWkSWvBdafR2L3h/DeielO&#10;UKW11nEcGWs+ZdqlbivBJiswWWyw2OQ4u5zhfDLHbt8hsC1EHIiFRJoISBljueng+6e7+PRigtf3&#10;Rrg9XIGLrMqGqFkpyth4aF1bVsC34ajbC4fE+iLY2hKRKn2lbsT8VnNFqlUOjGpfUs4JnAhSmvuO&#10;VFSpGtxMV6NWOlBA5q4MCyu7RMYA0jmgC0DmgCpA2oJXpL3nql0GODPWhkJwcE44m3H84CHDs1EC&#10;xlq4sZcijY27WiQ4tNZYLDe4mBrOaCkVkjjC/qCL44MdDPsdcMaQZxmy7eYawrkbPdX6UyFEBX5V&#10;6nsiEBfo9IZodboVQUFwYLbaPn77o5ff+OZbD357PF+f2q4u8db12u/uvINI4ov5ReNPo03F54iP&#10;Fa5qO93O4cgBkf3F3P93I5GWfWxhP194kDCzXxP9mLELrilOLy+EKfOGoBIKM0ZoxQKt/R5WmxzT&#10;5RarbYGLyQLj2RI7/Q4Od3sY9jvGOVoqxBFDvxthvmrh3bM9fHY5xb3hGe7tLiGQWY+c0AiqUjL4&#10;SnuqCQNBu8p0JcNRHl2FvPlek9wN3y2d/EzEpqA3tOXAdaJihDKk0DhZQ2sJqNKQ/pWsT+aKahcu&#10;EcHNWPrpiPDuowjPRjE6rQ6O91PEgiESAoIzSCUxXayNr8xqCxAQRwK3jw9w62gP3VZaR6JXRANW&#10;vX6GyhYS3v3w3doPiSFOW+j0hoiSFCBCJDgEI0wW24ff/fDp3/mD7z/6X6eLzRN7iLTt/c/h27n9&#10;fG4/z64Z5v/UBfhFilF/gULQjf64iR4JW2D+nFJ7SKx73NL+sgtbhJnXFjs6EfsiBRkyk122eglt&#10;kTIpLfABWPYGRy4VZsstltsSl9MlJos1eu0ER3t97A26SISA0NqgfxEhL4/w8XgXT6Yz3O6f4+7O&#10;FAnPUZTO7l8H21NFn9OeQNjfwTzfU2f36Li0urLXMEbISmkbhopGVMKr1PY6CLVxM1EHFFHDar8p&#10;qXIKs4pIX1U6B5GAqiyijQmTVAIPThneexTh6Uhg2Ovh/s0EiTV24pxQlBKjyQKX0wVyqVAWBdqt&#10;BMeHe7ixP0S7lVQnmlPMMxvJJrhAJETDSTyUazk0lYgQJyk6/SGiOAXnHHFkiPmTxebj73747Bu/&#10;991P/95inV/YqUDXwz0cCEPe6ehmhrnXpv6pFOGPG/rTjynO6xL65DU0OninnW89UHjF5orVnY4t&#10;r73l9t/aQ12/yGmp3UzOOk5UKJsDXBgx8IgjEhqJ4BgWEsttifk6x3KVY7m+wOnFHAc7XewPu0hj&#10;w4GVpUK3JbDaxvh0MsCzxRK3+2e4O5igFeUopQunscJaqrMyQPV9iqCvqkF0bYTMHZMzJHdWra/T&#10;cPJr1PXBaVg9eWip76hz6tolRZ48yykrOIibZoV4AvAYJGLjB0McHz4nvPswxsUsRqfVwus3U7Rb&#10;RnrEGUNelBhNVhjPjdkvI6DIMty5eYjX7hyjnSaW2qetdMrcn2Wpq/cv01lFXWvarvgbcNJqo90b&#10;oNXp2dRrhTjimCy3H/zTHzz8xh+/9+R35uts5HVuPnax9sAY8gDIJpD5p/5HANh4lc9+ira1WaC6&#10;cbkV3gBUeTtP7N09S29u6d8n3Ue3SyVeYX+xX1AISCUr8+I8z8C5qJzK3GwqiQRaSYReS2C1LTBb&#10;5VhucsyWI7w8n+LGwRAHOz2kSWSMoARDry2w3MR4MOnh2XyFG+0z3Nsdm9Afz7MVHEHWI/nRYtKz&#10;0VBGAmX4RjrgmtYoZ3isujg6X9Evrai41l16qcLX3HC0vt6/xowHOaAjEI+tnpCBiRaSdh+lGOD9&#10;lxHefktgumlh2G3h9dttCEZIYgHBCOttgZeTCSaLtTVA1ijyDLP5HOfn5/ja67fR67TMbJQIXPCq&#10;RVdKopRuZqpq39VmIVqxQdruoN3tI0nbZharNdqtGCej6Q++9d6Tb/yzD579H4ZiiQSAy2NbeVjF&#10;1kP4WWOAr/60T8LrijG3f90PFHsgCr2iZf1xbazy/nvRYPGggcqSB9hsvZPUFerCY/i409PFnr/6&#10;Z9QaZVmYE1AIkCBsNhu7i5Y2QMcUKmPW3hBAmsTgjHC404FUwPPRHIt1hofPRzgZzXCw2zXWIElU&#10;uQV0Eo68TPB00cGj8T7uDse4t3uBnVYBrcraq8cX89ogHdj21LBx7AiC1XpA5aVlObRWaieerj1g&#10;Kt9Ucvc2H/S1Imrl23P48Qiofg5flWVeFyOFo0iBQSFOEhT4f9v70h/Jrvu68+59e+1Lb7P07AtJ&#10;ieIiWpYiiaYkKNoMQw6EIE5gIIgRI18SIA7gvyBAECQI4EgxJEKwIdswYjiWbDgKZJJDihQXcYaz&#10;kTOcpXt6el9rr3r7vTcf7ntVt4tNmpIobuoLFDjs7umqeVXn/bbzO6eA26scF6++gvW7G8hZ0zhR&#10;tWAZOkyDSlVuP8BOe4DeIECcJCAaQRh6aLXa6Ha7u+aqRBF34pm5aFqb6rqUcdE1PV00Vg1I5b/d&#10;sGyUKnVYjivnvBpgORZWNtsXX3xt+Vsvvrb4fS+IE2VJnipdUa5kbUQJDHysBPuln3HZjViJQvrY&#10;h578DPXk+D6kuhNJlI5U9mBja1u20rEylXTXSW8cRSUCW3vVvsMNAyKlETSNwDAMMM7BFEaLyuyT&#10;glU0ZTcITNfymCq72Gz1sd7y0OmHWNlsY6vZkx3YagGFnA0YGgzGYBkEXY9izSthrT+FCVc6cU0U&#10;QsSxfC5Z9ynbFzyjio2iVCZOTLQsVU15sFwAVCVwZ2p2u0tlVa6SkN1Lurvv7dqQNodxkaqMEUQt&#10;UEJhEBthrOG1RQ+vXruBnfU1uHqCw3UXpmnCoLLO6/Q9NDoDdPv+sDEUhQG2trbh+75cm4OAocvZ&#10;om2ZsvuZEgOIpvJWtZFfiCZ/f5LEKSPJGPJGDcsernzpBsXKVufl5y4vfHN+tfWDrXYfecd0XctM&#10;uBCwTF1EcSJOHKqHN+5uou9Fxn0nphM/jAMIJFutPrqDAADEQ2cP4ZcdDXeBMX3CvYAUA4gv3lgZ&#10;B6a+R70o3iJ1FMpdJnvbo7G8PPu+mf7XS5+LKDm8rexTivTrdIxnO6wpY8axsNHBRDmHWimlammy&#10;ZqSmORQbytyeRCapQLjcErds2ezROA5NFjFTK6DRDbDe7GOn7WFjp4vtlrQxmKgUUCo4UoeFEpRy&#10;HF6gox0V8MLSBGrONk7WGpgsBjCNBFwACRNDjw5KoAzNR5v8QqmDMmCp8v6j7Y43rmzsEp7abVO5&#10;Z8Gxy4A0vQnougbTLSFhBNfnN3Dx4nU01leRNzgO1vIwdclm4lyg3fOw0+6h74XD4Xq300an00W3&#10;2wVjCVzXlTPBVC/GDwIw6Y0wIpNnjZiU9ECy5VIKhEEA3TBQKFVQKFVgWk6q4C0Tq81G78fPXLr7&#10;rRdevfuEY5mDLzxySr98e610oF70ljbb7Mh0hX7u4yf9FGwwKKUPnD4QL6w1+cp2G8dmajiVJOLU&#10;ofo72iV922D89P1H3/IHPn3/UTViImFcf+7ygrne6Jo77YH+M7BoxqOqmgZQpa60lHGHqYxFhFJf&#10;Zrl9XkmxeRo59YyGEsYMy1sdtHoB8paGWimPzMaZ8zTlikNYlgnJqtNSGlcCLthoDpeSv6erOUyU&#10;XTS6PlZ3emj1Aux0pDRIIWdjslpAtZQDNQxQSuDaHLFbwU7HwQtLdUzmOzhelVQ7AyxNDTkYI9KW&#10;LUtDmRiORzKrs6He61jiIcZaqUNrgnHJC2DMG3Ok+4OxJpCcV1JsewaWbvVw/eo1tNbvwtEZjk/l&#10;ZCTUJeWv2Rlgs9GBH8bQ07FFFHhoNhvYbrSh61JVzTDoUIIFqb6uTnVwwcAZQ5wkyuuSNb6h6+BE&#10;AxEEO40OFlfWYTglVIsGdEozgoNY2mw/8+T529+8OrfxdBizQa2Uo7apm0IIXi/lel4Q4ehMhRRc&#10;W1ydWzc45yznWOJjp2aSowcqou+FmFvewcNnD4p3G4C7wFgv537Wv5N84/P3JwA82zT0J8/fNi7e&#10;XLF22gNDAeZbie+Isboxax8r1JZhQwljEbefPoeRgrA7xtrJCOexECIyKGEcoD0/RM8T8BOgVnRg&#10;EMA0DQjO07s4GXI4qT70SJCgVNTOeCyQsARFm6J4uAIvTLDWHGCj0Ue756PdGyDvOnIsUs7BsQxY&#10;BgelNqLYgBcWcWGtjoLRwInqFg5WPGjgI6/KvYpvxSqNp7Wi6vsxHP+LkcOSyNaWsqjKxVDyf3wB&#10;WWB3rSlAsbyt4dK8ieWGD9P8exRMgcP1HMy0oxwlDBs7Hey0eohSUrqhU0TBAP6giyQKoUNgopyD&#10;FyWIEg7O2FC+gupyA0Vo2cL2yEhS13XQ1EyUc4ZGs43VzW002n1QqkM3DZjyPeJ319vnfnzpzv/8&#10;6bXlnxyoF3t517b/xWfuJQtrTRycKCZzKw2+3ujqv/7RI9HsZBm3lrbp4noLE+Uc/+3H7mc/fOF1&#10;DRpEzjXFFz5xChvNHt7Lo/+CLyA5ebiWnDxc849MV+jTr8ybL722aHlBZEYxo28jSu5JeVOaOJpS&#10;XKvzHU9hQxAAnRSEWcTVu164/NK15W/de2zqt0s561DCOFpdH91+gHLBQbVgw7X0VFuUD515earv&#10;qmmpczIXQ8K1rst5GSHaUEHa0A24jo2EJUiSBGEYY2F1G+s7naE0iFzj4rBNhtilaPVMnF8t4+ZO&#10;BydrO5gp9KDTGCzzelSH/JmKueI1maFPUtzGTGyybX5IUWCC3fZu42mqBil7H4HizqaGC7cIVhoG&#10;im4ek2UDecdA3pUD+CCMsdnootX10i6nJAHGviRuMxbLblyaphq6gGsbCGKGvheiP/DBOEPByktb&#10;+jiGTvU0M9HSho0Bzhi2dxpY2dxBs9OHRih03YBBNRBK2d311v974uW5b1+d23iBce7Xyzmj2fXK&#10;xw/W+gXXYkemyvr515fNgxMlZh+oiQvXl43nLy/gX33p4eiR+2bxv5+4jFfn1nH/yZn3NBK+YUTx&#10;n//dl9/xXzo7VdaevXTHfObivLW00bLCmBlvMc/UxnYnMbYlQpX0NTtqJ9VSmj5QGjocADMNapw4&#10;WP3imdnaN4o5eyZJOGImt+xLroVqwQLVBOKEIZfLSaJyGCJnG5io5EfW15RCJwRRHKPrRdhs++j6&#10;ceq9IYfJa9ud1Y1mb2GmVvioaxmlmMl2/WS1KDmwlgmRps+cC3QGMfp+AIe0cby6jYOlLkwaS2l5&#10;uaudblDIzY84kZsfLEnSLRIGQk3UZk7h5InTiL0N6CRbGSLKfuHIkBZp6is4h2UZ8EOOu9sUF25y&#10;rLdMVIoFTJRt6JTAteSc0AtC7LRl9M+ibpJE8PpdBINeulepDdeUslRZG9megguBnufDDxPohqzZ&#10;Gef4+lc+j9kD01KgDECn28fy+hZanT7iRG7LGFKpPl7caP/fc6/Mf/vV+c3nEsajbBHh4ESJ1Ms5&#10;vdn1koJrkU/cNxvbpsFNk5JW1xdT1UJCiYbuIAAXQlimjvcTCIeRcavVf8d/6VarL1zHDL/yT+4J&#10;HzpzSHvu8oLx3OU79s3FLUshhY+DUm0hk7E0Vl3aNJTGT7Y5onZfE6Vjm4ti5r1+d/uvF9ZaL5w8&#10;XPvy2dmJr7q2Xo8TjmY/QGcQoJK3UbBTkVtNAyEUpmmCEjqMPICGziDA6nYPrUEIxjgcy4DQgGZn&#10;sHrt7tbTNxe3LwZh3C/mncnTh+ufPD5T+pRrm5WtZhc77QEqRQeTFdmBFZALzDmbIkxcvN6oYr7Z&#10;HrJ6CjaDH+xm8Ugz1JFT1i5/e6Kow73ZaDgdV1gmRd8nuLEgI2F7YKFcyOHEQRN514Rl6BBCYOCH&#10;aHQGaLZ7IKlddhKHGHh9+F4PPO1Ky62StAbmMrPYxY5JF7ErhRzyDoMXxvASIZs3aaOm1e5idbOB&#10;RrsLLgBD15F3DTAuwtsrjb/70U9v/cmNxZ3nhRBe+hnKbr5xzwu0Yt5O7jk6xc4eneB/88xr5OuP&#10;fiTJ2SabrORx5siEeD+C7w3v0F//l999V5/w2p1N4+lX5uwL15edQRAbQoi9KHlkLFqqy82mAjhd&#10;iYJQwOoq4HaVDRLuWMbMqYOVL548XPtK3rXLccLAuIBlUNSKNsp5Wy555mwUHR2cC/SCGFudAB0v&#10;knOtdN9ubbu9dG1h68nbyzuXopj5GmCBECrk7k6Sc6zKyUO1j586VP1M3jamMi3XSsnFVLWIYs6R&#10;Q3rGEEQJ+j5Dux/C1LqYLe/gSLmJkssQRnLZOYkTECKnQpRQRAmDbliozZzC6VOnEfsb0DXZFc68&#10;7LTUCYYQwDQpej5wfRG4sqCh69molXOoFW04plzmFakXYaMzQK/vp1IhBCyOEPg9hN4g7fiSXdzU&#10;TFQxm2UOo6OmyjuOZPATJhlPn/nUr4EQio3tpiQr6DosnYIL4d9a2v6bJ16ee/zm0vaVhHFN6SeE&#10;ykyKP3D6IHnk3sPx1dtrOD07kfT9iExV88K1zXdtRviOgPE//s6j79mTl3K28dSF29arc+tOq+fv&#10;RXcbVxsgCvhUwkD2d0wFkFCYPlltmZHVWc42jtxzdPKrx2bKX3JsIx8lTBLDdYKpSh6HJkqwTB3r&#10;zQGa3QBMcFiGAUI0rDc6d67cWn9ybqVxKWE8WzKl2tgKhOy7iNgyjcKxmfIDZ2YnPlspWIelEjdH&#10;Me3AlosuKCEIY9kw8kKGnbYPjXdxpNLAkXITlVyCMIoBZGkrRRwzUMNCbeY0zpw5jWSwAaKN0lQh&#10;pCyhrmvoeBquLgCvL1H0AwvVooNS3oRjSYU1xjm6qSHowJMjBA1A6A/gpU0ZaftGdlmra6r/t8DY&#10;Ui/24GKkfpWmBSdfhG7aw/RWOv/y3pXba3/39MU7351baZxPe1e5lCnmY6QuwTJa5QOnD+j1Uo4/&#10;+tAJvrDWFD+5soBSzsY//+IDH4iIOPyw/7f/8Jvvixdimzp98eqi/fzVu+7d9aaDN25tqIBUAaqS&#10;yVV1rkQhpRtKF3ZXClxwrUP3HJn4zaMHyp83depKwjdQzFmwTBMxY5IClzBsNvs3r8ytPzG/0rzK&#10;OI8Uet4udQRNUxRKNY1wuSWcGIbuzE6WPnLvsclH62X3BGccUcKQc0xM10uol/Og6Ra+H8UYeAl6&#10;QQKR9HCgsIPjtSbKTgTOYkDTkSQMVLdQnTmFM2fPSDCCgyUMpqmDEKDZJ7h4m+HWqoGYO6iXHJQL&#10;FkydwrYMRHEy3J4IwjgVb9IQ+R58r4ckDnf5Koq0tstAOBJyErst3DFKrzP3JqJp0E0b+WIJlu0O&#10;MWyaOuKE9y7fXvs/z15a+Nb8avOaQvbIGnpsjKY23Ck8eaiufe6RUzzvmPz28g76XogPEgiHH/DH&#10;Hj75vntRv/NPHyTPXJy3n7t8J7e+03PihJkKZW48UpKxJpChMH0MhZCgK0T0jFrnZKOVUt46dM+R&#10;iX927ED1s5oGixIN9XIRXAixvNm+fvnW6j/c3Wi/xrlIFBACb5QI2XXz0EbhIV2AEDGlxDo0UTx9&#10;Zrb+2Zl64R7BBQmjGLmcLZs9laKc4zGGKGYIE4FGJwBP+pgptHCssoWJQupZolmoTJ3G2bNnkHgb&#10;MKls1my2CS7NcdxcodCIi+laDpWCpKxRQhAlckul0e4jiuUyLqVENmW8HpIolGCndLg2RSlNifaZ&#10;krrcbaSKtgyU7rTKIzUtG26+BNN2hl93bRNeEHVeu7P5l0+en/vu4kb7avqeWQrxROU8Z1tAvjJG&#10;E7//9V9HZxCK1NjmAwfC4QfmX37poff1C3z0wePas5cW7PPXl3MbzW6u0w9UzRzxFvWlhd0Me5WY&#10;ntWpjkL9CwGQct6+5yPHJ792anbiE91BdOuVG6s/Wtxo3RBiFwi1PUYy2pt0ibNgqY3SVwEAiUY0&#10;Ml0tnLjnSP0z09X8AwIgQgjYpuzkTtaKmUguEsYx8BP0vAQDr4OZQgvHq9uYKCaoTp3E6bNnkXhb&#10;2GgwvHQjwfy6Dl13MVlxUS3aQ+X1IEzQ6PTR6krZe12n0IRA4PcRDHqIo3CXuJPsvIoUdBRjCgvI&#10;5BezSDi0X0/pa4ZlI1eQkTAbX1iGDi+IW1fmNr735Pnbf7G63b0+xrLKVCG48v6qtEk2Rh75wAJw&#10;r9neB+J8/7/+a+3la0vWuVfmchdvrOTjhDlKfTheY0KJkppC51PvsplVQZb2xAAsTYMouvaBQRD1&#10;E8aT9OfMt4iAe11L7a3S1+xDJoSIAYh/87WH/rCUd2YbXQ9xzMAFYBoU9XIO07USHNuEgEAQJggT&#10;js4ghuf1MZFr41P3l3Hi+FG8eGkbc2uArts4PCnNZ02DgmoaBkGErUYHPS8Eh4BOCFgSIwp8BF4P&#10;LIlT8oNqRjpS3s7ie0bUzkSfMoU1jZCsSAY0wHZyUlvGGtWElkHhBdHWpVtrf37ulTt/trLVuZkx&#10;rr72ufujS9eXo1TukCsMrBC71SWYciP+UIDwAwnG8fOHv/uY+cwr8/lby9uF3iB0E8ZNJXKJPf5s&#10;KHfWrIbMhIVU/dgMtKoiQUFpCOFtgnG8O6ypoTL7fyEE+/3f+vgfHJ4oHO0OAvT8GEEs56GMcRAN&#10;qJcLmJ2pYqpaANE0xIyh58Xo+wx5R0sV7zQ4JoXrSFNQAOh7AbaaXfT9UKq3UQrHNtHrtBAMeru8&#10;6OXalEiFtmRkE5yneq1y5KN2RYWygqZpGjRC4Lg5OLkCbCc3FH2mBAjCeP3S7Y3vPXtp4c+WNtt3&#10;AOiTtaKpAXGr54lPP3xSm1vcDpfWGiZ2772q63gfShB+KMConj/6g68bz1ycy/3w+ddLQZTkx+o6&#10;oaSjOnaT1y2MFAZICjZTAaipRE6iNIH0vaLfm1xb7U0id3bY733twf90ZKp8NE7rtIRz9P0Y7X6A&#10;IEzkpoOhY6ZWxL3HpzFTKwGahjiWI9cwSVJbbNlF7fR9qbg98CFV0RMUC3nMHpiArgHPPf/CLr8J&#10;KeqkjbkPjytsa2+oBTlLAI3AyRXg5oswTLmpL7jUfA3CZOXCjZXv/fjSwp+ubHVW1BuUYVCiASyK&#10;WazMhrP3huON60sfWiACb18D531//v1//34MoJ0+MhJ5CXLdylGiJFOaP1mU85U3O1TAFmBEvcuA&#10;HSpNBl35EL3dI/YAq9ApFZZlgRpc6qQSilrRQClnozsI0PVCeGGMu+tNLG22MFXJ4+yxaRyZrsIy&#10;dVicIowTtDp9bLf78IIIggvoOkEx7+DgVB0T1TIc10Fjp6HcEVIaYKohm6l8q4crUXAk+itZRG6+&#10;CCdfhOPmIFL1cdOg6PajxWcu3fnTF15d+qvNZn9FIWdkNaEWxywbTxjp19X6b7wW/NCC8EMHxvFI&#10;A8lX7WBkQVACUIYkAVDsFptV5T+09INhKjXKXkT27IOURVsDu6VF3g4oR2lrKjPBWeqKRGk6SBeo&#10;llzkbB1+zNDq+ghjjo2dLjYbXdQrBZw5MolizsJOq48wYVJEmGiYqJUxM1lDrZxPVcM5kihCnMRD&#10;hyuijZKHcY8PbdzdB5kWKYGbLyFXKIMaRsrhZbANHT0/nH/+6uJ3nrl052+3WoO76VwQ2K0zmt0M&#10;I+VmaIw1abRfFRB+2MG468YOud3RBbCSgrEMKbuQH2vMqHflZAx4KiUvUr4XYbQdbuLNtV/fKkoK&#10;qWsjNT+1zCMNAqZppJvyGkquBdfU4QUx2j0fERPYbkmH53uPTYNqANU0VKslHJisolIsQEAgjmPE&#10;cSSV0AlBGARD5bmEyV1yTRsRvIcXLm3QIK0hQQhyqbYMIZIyZ1ACagDNbnD7qQt3Hn/xtaW/2mkP&#10;1tJrkSltQ+lsJ8pnj2L3hr0Ye99+pY7+K/bvFZCaJwMAa2n6WlHSWUtJYzPpSGssCmbAyxadqfI9&#10;loLfhgRsAAAJx0lEQVRTx96khbc8skMZQ9dlgJUNk1TzU89WvTjyjoFCzoYfxGh0+uAaBdWAiWoR&#10;h2YmUCkWRgN4lbwNbbgilnVNpRX2yP47G1GoVDZCDTi5PPLFMiiVIJSaowSbjd6Nl64tf/d5KfLU&#10;Ta+xi9GaWxYVw7ESgStZx4e+HtwH4z8OTC99rKWgKwOopgDNuqq+EvGyBecw/VpGhctSW1UJT023&#10;KP4xuRIh9V5M0xx2KhlLUiCNNiEI19IupYDr6LCMIgAN9589hsl6BRo0xHGsOGXJZgoy1hrbvXgs&#10;I7E25k2YigEbxrAxk8nkUyIFijcb/dd+cuXud154dfGHfT/aURpfTSVjIEo6qtpDsLGa8FceiL/q&#10;YBwHZgBgI31YKSizOtNUUi11tzJRoqKbRlw3BbhKUNexex76xlxayHRS6tIQJEmCIAhgWRYYi6TM&#10;JKFDVkzmnSEERz7nolYupmMIKKyZFHCcpV1RgiQJ4Hm+koLuJnTL1NiSnVHLgW6YqWGN9MLYag0u&#10;P3Vh7tsvX1/+gRfEfaW2VjVGsxmhUJpjJnYP7cdLA+yDcf9gj5FECGA9fZgAaikwq5DzRlO502fE&#10;9cFYapZp92QSIkKpk/Z8UumIxWBQKofkljmMXNJDUJZVI1VvOfvLakLbtoYSkcOCVEjVgoxTKuUu&#10;6DCNHRK6hYBuWtIIxs2Dpm5SmdDUVmtw4dkri9/86bWlHw38aJCm+G760iOMxKdVCwdfqaHjPerA&#10;fSDug/FtNVWy7n8CYBPAFkait3UAUxgJLGvKHV8oqVlG5zLTn02UGspU09Zmzye1oo1SIY8kSWQ+&#10;THVoGk9V0WQTh6WpZVbbUSpTW8MwpV0cmGIdLoFrGPowDdV1HX4QKB1TwDBtWG4erlsYsmwMSmHq&#10;FMubrZ++8OrS/3jp2vI5P4yz8YSd3nxUYkWC3TzgzJFMVQHcB+A+GH9uUKpAyyJAAKnluqw0gOpp&#10;1HSx2zqaKk2dDIRZ6jrASKMWg4CJxa0eioMYZVeHZVAYqYqddFUyRkJNpok4jndbXxMCDSIVttKG&#10;6WcG2lFpytPoyWHZLvLFMnTTgkZoqrQmI+HyVuu5H19a+F8Xbqw+HUaJp9ycfAV0GTspwe7F8L28&#10;KPZBuA/GdyxSsrEPW6ykp4tp+loHMJF2Zt2sHFTSNq4AVFMiqSCaBFSzG6DZYagWbExWydCIVUZH&#10;Kb9BCJEyINnsMEmksath7LJKY4wN3Zik14SBKI6x3WihMjEDx80PbcQNnYAQIla2OueeOj/3+Pkb&#10;q+cY46FpUKFTYlXyRj+MuRkzHgcR1yeKFpss254GkLYX8b6faK5J4ViUeSETXS/Gsan8Pgh/FjB+&#10;9Eh5/yr8bIe/utjW9gBoCGAJwF2MjFRmFWDqCgCzFHZIFOh5wXqt7B41DALONTR6EdqDJqpFG7Wi&#10;A0K0Yac1qyNVoKmsGHVrIvMfjOIIm9sNrG+30PcCuLkCWJLANHQAYIsb7XPPXVn85svXl59jjPsF&#10;x3A0kHzRNQdhwsKJok1nJ3LxlYUW5Q540dVj26D0/qPl5PsvLRsx43yilGNdP8bx6X0Q/lzNik/f&#10;O7F/FX6O85Pr26qtgPrQlWhopBHTADADYBIj0kHmcRIBsCgl5rGZyq/dc6T+1VLOOpQ5GnMBGERD&#10;rWihlLdBIBDFCWzbHlp265Tg0U98DIZOZaQjJK0hBaIoxk6rjbXNJgZ+ONzMMKiGJGHJwnr7hz++&#10;vPDHl26uXeRCtC2dkNnJnJm3DZ4wHnUGkcYFiBAQx2fyfKsdaIwLGsaMz1QddvpAMbm+1NaqBWMf&#10;gL8oGL/wscn9q/ALnievbKl1JRlLZ7PuYg4ja4KptDtbw0i0mQFghk6LJw5WP3Vmtv7lUt6eYlxI&#10;pXMABgVqBRuOocF1HJiWhTAMYVsmHvvkgzAMfejSlLAEG9tNrKxvo90byOG+ELBNHRqh0Y27W0+c&#10;e2X+j16/u/0C45xVC6YZxdyEpnn3HymJkmtE8xs9q160NcYFM3TCvJCh4Ogib+vcNKgAwLuDeH88&#10;8U6B8fP3T+9fhXfoPHV1Y3xfUQVpNvjPFOwyxs+k0gDKpT/bN3U6c3q2/smTh6tfzJn6pECqLC44&#10;HFNHvWijXHDBOUM+5+KTD94DXadgjKHZ6WNts4HuwAeE3PYg0lUquLG0/fdPXZh//Mbi9ssAeo5J&#10;p8o5c8CFiCaKFllr+dbxyZzv2rroeQm5tdaz7j2U781OuOLG2oDkbZ0fqDoijJm4udrb746+k2A8&#10;MZ3fvwrv4Jnf6I+vVI0zcDJ+ZsbcERjN7CZSYNbSTmtiW0b59OHaZ08dqn3ZtY1ywvhQ8sI2NNRL&#10;Lg5MVvCZRz6KdreP5fUdtDq9tMFDpYkp496rc+s/OPfKnT+ZW22+LISg9YIZ7PQic7bu0o4Xh65F&#10;SdE1g0rOMByTxNWCzbc6IVnZGWB2wuWMQ2v2I7He8sWBir2fkv4ywHjf4eL+VfglnmvLXfomH9xs&#10;1phRxLIRgYsRwWACcqaXcyxj5sxs7bGTh2qPOZZRTFKJSQFgqpLHx04fQs/zoEFarBkGRcK4d3Nx&#10;569/9NNbfzy/2rwihMjrlBBKSZIzSaRTTbNNGrqWoSVcI6ZBY8aYHoSx6PgJjk7mGKDxasEWAPjy&#10;Tm8/Jf1lgvHUwX0wvhvn9mp3l9xGerLRUhYpKQBCCYGhE8I49x3LcPt+VOVcTAPI5RzjvnuPTn7+&#10;yHT5N1zLcOOEQwiOB88cgmtLmY2BH3ZvLG7/5ZPn5//izlrzagp2q1p0en0/sifK+cCxDI1ooAnj&#10;/MyRery02YFOiXbqYCWxbQuVgst+8Ow1cmiyyPcB+C6B8ZMfnd2/Cu/SefHVpb30c8QYMHXXNjBZ&#10;yfHV7Z5rGjSIYmbGCctAPAXALrjWx+45Wv/G7GTpC+ViznzwzEEwzrrX5rf+/ImXbz1+Z611W9NA&#10;hIBZL7tJpeCwB08fiH/44k33YL0YVIuuNr/axGMPH0+WNzsijBMNAtp9xyfjdt8HAD5dLexHwncT&#10;jP/2tx7ZvwrvwfnO354fl+wY6vPolPAj02Xa7ge6BgidEqPdD/ScY8a9QUhixjQhZEpbztsff/js&#10;wd87UC+uP3PpzuPLm52bmqYRy6B2vZxLjh+ohFfmNtwTB6r+ocmi8IJYbLb61kyt6P/Dy7fNxx46&#10;Hk9W86zvhRqA5O5Gm0xV9+eE7wkYP/fxE/tX4T065y7Mjzd7sp1IOJacxpfyNqI4EUGU2Bo0KoQg&#10;fhTHChfcg+zCZoRTjRCtVMzZURAlxLH0sNX1zZlagQGImj0f9ZLLk4RzL4x5zjGJaxkcALdMfT8S&#10;vofn/wOHq0RjY1LEhQAAAABJRU5ErkJggg==&#10;"
       id="image1"
       x="21.166668"
       y="4.2333336" /></g></svg>
