<?xml version="1.0" encoding="UTF-8" standalone="no"?>
<svg
   xmlns:dc="http://purl.org/dc/elements/1.1/"
   xmlns:cc="http://creativecommons.org/ns#"
   xmlns:rdf="http://www.w3.org/1999/02/22-rdf-syntax-ns#"
   xmlns:svg="http://www.w3.org/2000/svg"
   xmlns="http://www.w3.org/2000/svg"
   xmlns:sodipodi="http://sodipodi.sourceforge.net/DTD/sodipodi-0.dtd"
   xmlns:inkscape="http://www.inkscape.org/namespaces/inkscape"
   inkscape:version="1.0.1 (3bc2e813f5, 2020-09-07, custom)"
   id="svg8"
   version="1.1"
   viewBox="0 0 67.733332 33.866668"
   height="128"
   width="256"
   sodipodi:docname="digitalocean.svg">
  <defs
     id="defs2">
	
	

	
	

	
	
	
	
	
	
	
	
	
	
<style
   id="style2155">.cls-1{fill:#e00;}</style>

	
	
</defs>
  <sodipodi:namedview
     units="px"
     showgrid="false"
     inkscape:document-rotation="0"
     inkscape:current-layer="layer1"
     inkscape:document-units="px"
     inkscape:cy="199.20477"
     inkscape:cx="181.63433"
     inkscape:zoom="1.979899"
     inkscape:pageshadow="2"
     inkscape:pageopacity="0"
     borderopacity="1.0"
     bordercolor="#666666"
     pagecolor="#ffffff"
     id="base"
     inkscape:window-width="2560"
     inkscape:window-height="1376"
     inkscape:window-x="0"
     inkscape:window-y="0"
     inkscape:window-maximized="1"
     inkscape:snap-global="true"
     inkscape:snap-bbox="true"
     inkscape:snap-bbox-midpoints="true"
     inkscape:bbox-nodes="true" />
  <metadata
     id="metadata5">
    <rdf:RDF>
      <cc:Work
         rdf:about="">
        <dc:format>image/svg+xml</dc:format>
        <dc:type
           rdf:resource="http://purl.org/dc/dcmitype/StillImage" />
        <dc:title></dc:title>
      </cc:Work>
    </rdf:RDF>
  </metadata>
  <g
     id="layer1"
     inkscape:groupmode="layer"
     inkscape:label="Layer 1">
    <rect
       style="fill:#015bff;stroke-width:3.47907;stroke-linecap:round;paint-order:markers stroke fill;fill-opacity:1"
       id="rect848"
       width="67.733337"
       height="33.866669"
       x="-1.7011719e-06"
       y="-8.5058593e-07" />
    <g
       id="XMLID_690_"
       transform="matrix(0.14401138,0,0,0.14401138,8.3784563,-2.265187)"
       style="fill:#ffffff">
		<g
   id="XMLID_691_"
   style="fill:#ffffff">
			<g
   id="g2362"
   style="fill:#ffffff">
				<g
   id="XMLID_44_"
   style="fill:#ffffff">
					<g
   id="XMLID_48_"
   style="fill:#ffffff">
						<path
   id="XMLID_49_"
   class="st0"
   d="m 177,221.5 v -34.2 c 36.2,0 64.3,-35.9 50.4,-74 -5.1,-14 -16.4,-25.3 -30.5,-30.4 -38.1,-13.8 -74,14.2 -74,50.4 0,0 0,0 0,0 H 88.8 c 0,-57.7 55.8,-102.7 116.3,-83.8 26.4,8.3 47.5,29.3 55.7,55.7 18.9,60.5 -26.1,116.3 -83.8,116.3 z"
   style="fill:#ffffff" />

					</g>

					<polygon
   id="XMLID_47_"
   class="st1"
   points="143,153.4 177.1,153.4 177.1,187.5 143,187.5 "
   style="fill:#ffffff" />

					<polygon
   id="XMLID_46_"
   class="st1"
   points="143,187.5 143,213.6 116.9,213.6 116.9,187.5 "
   style="fill:#ffffff" />

					<path
   id="XMLID_45_"
   class="st1"
   d="M 116.9,187.5 H 95 c 0,0 0,0 0,0 v -21.9 c 0,0 0,0 0,0 h 21.9 c 0,0 0,0 0,0 z"
   style="fill:#ffffff" />

				</g>

			</g>

		</g>

	</g>
  </g>
  <style
     type="text/css"
     id="style2354">
	.st0{fill:#0080FF;}
	.st1{fill-rule:evenodd;clip-rule:evenodd;fill:#0080FF;}
</style>
</svg>
