<?xml version="1.0" encoding="UTF-8" standalone="no"?>
<svg
   xmlns:dc="http://purl.org/dc/elements/1.1/"
   xmlns:cc="http://creativecommons.org/ns#"
   xmlns:rdf="http://www.w3.org/1999/02/22-rdf-syntax-ns#"
   xmlns:svg="http://www.w3.org/2000/svg"
   xmlns="http://www.w3.org/2000/svg"
   xmlns:sodipodi="http://sodipodi.sourceforge.net/DTD/sodipodi-0.dtd"
   xmlns:inkscape="http://www.inkscape.org/namespaces/inkscape"
   inkscape:version="1.0.1 (3bc2e813f5, 2020-09-07)"
   id="svg8"
   version="1.1"
   viewBox="0 0 67.733332 33.866668"
   height="128"
   width="256"
   sodipodi:docname="dln.svg">
  <defs
     id="defs2" />
  <sodipodi:namedview
     units="px"
     showgrid="false"
     inkscape:document-rotation="0"
     inkscape:current-layer="layer1"
     inkscape:document-units="px"
     inkscape:cy="67.956566"
     inkscape:cx="94.6731"
     inkscape:zoom="2.8"
     inkscape:pageshadow="2"
     inkscape:pageopacity="0"
     borderopacity="1.0"
     bordercolor="#666666"
     pagecolor="#ffffff"
     id="base"
     inkscape:window-width="2560"
     inkscape:window-height="1376"
     inkscape:window-x="0"
     inkscape:window-y="0"
     inkscape:window-maximized="1" />
  <metadata
     id="metadata5">
    <rdf:RDF>
      <cc:Work
         rdf:about="">
        <dc:format>image/svg+xml</dc:format>
        <dc:type
           rdf:resource="http://purl.org/dc/dcmitype/StillImage" />
        <dc:title></dc:title>
      </cc:Work>
    </rdf:RDF>
  </metadata>
  <g
     id="layer1"
     inkscape:groupmode="layer"
     inkscape:label="Layer 1">
    <rect
       style="fill:#656565;stroke-width:3.47907;stroke-linecap:round;paint-order:markers stroke fill;fill-opacity:1"
       id="rect848"
       width="67.733337"
       height="33.866669"
       x="-1.7011719e-06"
       y="-8.5058593e-07" />
    <g
       id="g1446"
       transform="matrix(0.5634648,0,0,0.5634648,131.03776,105.89317)">
      <path
         id="path844"
         style="opacity:1;fill:#333333;fill-opacity:1;stroke:#dddddd;stroke-width:2.64583;stroke-linecap:butt;stroke-linejoin:round;stroke-miterlimit:4;stroke-dasharray:none;stroke-dashoffset:10.175;stroke-opacity:1;paint-order:markers stroke fill"
         d="m -172.44978,-177.48265 a 21.183645,18.071251 0 0 0 -21.15426,18.07126 21.183645,18.071251 0 0 0 4.92011,11.57913 c -0.79714,4.43907 -4.98523,9.55136 -4.98523,9.55136 7.02172,0.15244 12.10572,-4.74028 12.10572,-4.74028 l 0.13695,-0.0336 a 21.183645,18.071251 0 0 0 9.00616,1.71462 21.183645,18.071251 0 0 0 21.18372,-18.07124 21.183645,18.071251 0 0 0 -21.18372,-18.07126 21.183645,18.071251 0 0 0 -0.0294,0 z" />
      <path
         id="path852"
         style="opacity:1;fill:#dddddd;fill-opacity:1;stroke:none;stroke-width:0.264583px;stroke-linecap:butt;stroke-linejoin:miter;stroke-opacity:1"
         d="m -167.57618,-172.85347 -13.20798,0.092 h -3.09231 v 27.07484 h 3.09231 v -23.15363 h 12.91446 c 0,0 5.98527,0.27289 6.4885,9.06146 v 1.15652 c -0.50323,8.78857 -6.4885,9.06198 -6.4885,9.06198 h -11.26546 v 3.93206 l 11.55898,0.0806 c 9.11305,-1.0016 9.27024,-14.03429 9.27024,-14.03429 0,0 -0.15719,-12.26994 -9.27024,-13.27154 z"
         sodipodi:nodetypes="ccccccccccccccc" />
      <path
         id="path867"
         style="color:#000000;font-style:normal;font-variant:normal;font-weight:normal;font-stretch:normal;font-size:medium;line-height:normal;font-family:sans-serif;font-variant-ligatures:normal;font-variant-position:normal;font-variant-caps:normal;font-variant-numeric:normal;font-variant-alternates:normal;font-variant-east-asian:normal;font-feature-settings:normal;font-variation-settings:normal;text-indent:0;text-align:start;text-decoration:none;text-decoration-line:none;text-decoration-style:solid;text-decoration-color:#000000;letter-spacing:normal;word-spacing:normal;text-transform:none;writing-mode:lr-tb;direction:ltr;text-orientation:mixed;dominant-baseline:auto;baseline-shift:baseline;text-anchor:start;white-space:normal;shape-padding:0;shape-margin:0;inline-size:0;clip-rule:nonzero;display:inline;overflow:visible;visibility:visible;opacity:1;isolation:auto;mix-blend-mode:normal;color-interpolation:sRGB;color-interpolation-filters:linearRGB;solid-color:#000000;solid-opacity:1;vector-effect:none;fill:#c79600;fill-opacity:1;fill-rule:nonzero;stroke:none;stroke-width:3.38619;stroke-linecap:butt;stroke-linejoin:round;stroke-miterlimit:4;stroke-dasharray:none;stroke-dashoffset:10.175;stroke-opacity:1;paint-order:markers stroke fill;color-rendering:auto;image-rendering:auto;shape-rendering:auto;text-rendering:auto;enable-background:accumulate;stop-color:#000000"
         d="m -175.47854,-165.93916 a 1.6932593,1.6932593 0 0 0 -1.70325,1.69343 v 9.91361 a 1.6932593,1.6932593 0 0 0 2.53886,1.46709 l 8.58604,-4.95731 a 1.6932593,1.6932593 0 0 0 0,-2.93316 l -8.58604,-4.95732 a 1.6932593,1.6932593 0 0 0 -0.83561,-0.22634 z" />
    </g>
  </g>
</svg>
