<?xml version="1.0" encoding="UTF-8" standalone="no"?>
<svg
   inkscape:version="1.3.2 (091e20ef0f, 2023-11-25)"
   id="svg8"
   version="1.1"
   viewBox="0 0 67.733332 33.866668"
   height="128"
   width="256"
   sodipodi:docname="docs.rs.svg"
   xml:space="preserve"
   xmlns:inkscape="http://www.inkscape.org/namespaces/inkscape"
   xmlns:sodipodi="http://sodipodi.sourceforge.net/DTD/sodipodi-0.dtd"
   xmlns="http://www.w3.org/2000/svg"
   xmlns:svg="http://www.w3.org/2000/svg"
   xmlns:rdf="http://www.w3.org/1999/02/22-rdf-syntax-ns#"
   xmlns:cc="http://creativecommons.org/ns#"
   xmlns:dc="http://purl.org/dc/elements/1.1/"><defs
     id="defs2" /><sodipodi:namedview
     units="px"
     showgrid="false"
     inkscape:document-rotation="0"
     inkscape:current-layer="layer1"
     inkscape:document-units="px"
     inkscape:cy="126.1428"
     inkscape:cx="104.92959"
     inkscape:zoom="3.959798"
     inkscape:pageshadow="2"
     inkscape:pageopacity="0"
     borderopacity="1.0"
     bordercolor="#666666"
     pagecolor="#ffffff"
     id="base"
     inkscape:window-width="2560"
     inkscape:window-height="1372"
     inkscape:window-x="0"
     inkscape:window-y="32"
     inkscape:window-maximized="1"
     inkscape:showpageshadow="2"
     inkscape:pagecheckerboard="0"
     inkscape:deskcolor="#d1d1d1" /><metadata
     id="metadata5"><rdf:RDF><cc:Work
         rdf:about=""><dc:format>image/svg+xml</dc:format><dc:type
           rdf:resource="http://purl.org/dc/dcmitype/StillImage" /></cc:Work></rdf:RDF></metadata><g
     id="layer1"
     inkscape:groupmode="layer"
     inkscape:label="Layer 1"><rect
       style="fill:#353535;stroke-width:3.47907;stroke-linecap:round;paint-order:markers stroke fill;fill-opacity:1"
       id="rect848"
       width="67.733337"
       height="33.866669"
       x="-1.7011719e-06"
       y="-8.5058593e-07" /><path
       d="m 33.987907,7.784196 3.45663,1.30946 -3.58008,1.375594 -3.58007,-1.375594 3.45662,-1.30946 c 0.0794,-0.03086 0.16754,-0.03086 0.25131,0 z m -6.82506,1.935532 v 4.946849 c -0.0573,0.01763 -0.11463,0.03527 -0.17195,0.05732 l -4.2326,1.60486 c -0.95674,0.361534 -1.59163,1.283006 -1.59163,2.305884 v 5.255475 c 0,0.978788 0.57757,1.86499 1.477,2.261796 l 4.2326,1.860578 c 0.63489,0.277765 1.35354,0.277765 1.98843,0 l 4.99976,-2.200068 5.00417,2.200068 c 0.63489,0.277765 1.35355,0.277765 1.98844,0 l 4.23259,-1.860578 c 0.89502,-0.392397 1.47701,-1.283008 1.47701,-2.261796 v -5.255475 c 0,-1.027287 -0.63489,-1.94435 -1.59164,-2.310293 l -4.23259,-1.60486 c -0.0573,-0.02204 -0.11464,-0.03968 -0.17195,-0.05732 V 9.719729 c 0,-1.027287 -0.63489,-1.94435 -1.59164,-2.310294 l -4.2326,-1.60486 c -0.56434,-0.211629 -1.18601,-0.211629 -1.75035,0 l -4.2326,1.60486 c -0.96556,0.365944 -1.60045,1.287416 -1.60045,2.310293 z m 11.28693,5.206977 -3.63298,1.375594 V 12.36951 l 3.63298,-1.39323 z m -10.45804,1.776809 3.45661,1.309461 -3.58006,1.371185 -3.58008,-1.371185 3.45662,-1.309461 c 0.0794,-0.03086 0.16754,-0.03086 0.25132,0 z m 0.82888,9.011906 v -4.431 l 3.63298,-1.39323 v 4.228189 z m 10.91657,-9.011906 c 0.0794,-0.03086 0.16755,-0.03086 0.25132,0 l 3.45661,1.309461 -3.58447,1.371185 -3.58008,-1.371185 z m 4.49714,7.508452 -3.42135,1.503454 v -4.431 l 3.63298,-1.39323 v 3.998922 c 0,0.141088 -0.0838,0.264538 -0.21163,0.321854 z"
       id="path1"
       style="stroke-width:0.0440895;fill:#ffffff" /></g></svg>
