<?xml version="1.0" encoding="UTF-8" standalone="no"?>
<svg
   inkscape:version="1.1.1 (3bf5ae0d25, 2021-09-20, custom)"
   id="svg8"
   version="1.1"
   viewBox="0 0 67.733332 33.866668"
   height="128"
   width="256"
   sodipodi:docname="inoreader.svg"
   xmlns:inkscape="http://www.inkscape.org/namespaces/inkscape"
   xmlns:sodipodi="http://sodipodi.sourceforge.net/DTD/sodipodi-0.dtd"
   xmlns:xlink="http://www.w3.org/1999/xlink"
   xmlns="http://www.w3.org/2000/svg"
   xmlns:svg="http://www.w3.org/2000/svg"
   xmlns:rdf="http://www.w3.org/1999/02/22-rdf-syntax-ns#"
   xmlns:cc="http://creativecommons.org/ns#"
   xmlns:dc="http://purl.org/dc/elements/1.1/">
  <defs
     id="defs2">
    <linearGradient
       inkscape:collect="always"
       id="linearGradient177">
      <stop
         style="stop-color:#d0f0ff;stop-opacity:1"
         offset="0"
         id="stop173" />
      <stop
         style="stop-color:#fffefa;stop-opacity:1"
         offset="1"
         id="stop175" />
    </linearGradient>
    <linearGradient
       inkscape:collect="always"
       xlink:href="#linearGradient177"
       id="linearGradient179"
       x1="67.733337"
       y1="6.6056819"
       x2="-1.7011719e-06"
       y2="26.064035"
       gradientUnits="userSpaceOnUse" />
  </defs>
  <sodipodi:namedview
     units="px"
     showgrid="false"
     inkscape:document-rotation="0"
     inkscape:current-layer="layer1"
     inkscape:document-units="px"
     inkscape:cy="234.56343"
     inkscape:cx="2.7530919"
     inkscape:zoom="0.90806995"
     inkscape:pageshadow="2"
     inkscape:pageopacity="0"
     borderopacity="1.0"
     bordercolor="#666666"
     pagecolor="#ffffff"
     id="base"
     inkscape:window-width="1920"
     inkscape:window-height="1011"
     inkscape:window-x="0"
     inkscape:window-y="0"
     inkscape:window-maximized="1"
     inkscape:pagecheckerboard="0"
     inkscape:snap-bbox="true"
     inkscape:bbox-paths="true" />
  <metadata
     id="metadata5">
    <rdf:RDF>
      <cc:Work
         rdf:about="">
        <dc:format>image/svg+xml</dc:format>
        <dc:type
           rdf:resource="http://purl.org/dc/dcmitype/StillImage" />
      </cc:Work>
    </rdf:RDF>
  </metadata>
  <g
     id="layer1"
     inkscape:groupmode="layer"
     inkscape:label="Layer 1">
    <rect
       style="fill:url(#linearGradient179);stroke-width:3.47907;stroke-linecap:round;paint-order:markers stroke fill;fill-opacity:1"
       id="rect848"
       width="67.733337"
       height="33.866669"
       x="-1.7011719e-06"
       y="-8.5058593e-07" />
    <path
       d="m 33.866667,4.2333335 c 7.01402,0 12.7,5.685984 12.7,12.7000015 0,7.014016 -5.68598,12.699998 -12.7,12.699998 -7.01402,0 -12.7,-5.685982 -12.7,-12.699998 0,-7.0140175 5.68598,-12.7000015 12.7,-12.7000015 z m -2.8186,10.9291075 c -2.53468,0 -4.58974,2.054524 -4.58974,4.589146 0,2.53509 2.05506,4.59008 4.58974,4.59008 2.534,0 4.58904,-2.05499 4.58904,-4.59008 0,-2.534622 -2.05504,-4.589146 -4.58904,-4.589146 z m 1.29428,1.962998 c 0.72566,0 1.31416,0.589414 1.31416,1.314362 0,0.727052 -0.5885,1.315296 -1.31416,1.315296 -0.72662,0 -1.31558,-0.588244 -1.31558,-1.315296 0,-0.724948 0.58896,-1.314362 1.31558,-1.314362 z m -1.29436,-5.206086 v 1.653542 c 3.40642,0 6.17918,2.77198 6.17918,6.178784 v 0 h 1.65406 c 0,-4.318548 -3.51388,-7.832326 -7.83324,-7.832326 z m 2e-5,-3.4526855 v 1.6535435 c 2.57238,0 4.99096,1.002098 6.81076,2.82137 1.81956,1.819272 2.82028,4.238492 2.82028,6.810098 v 0 h 1.65428 c 0,-3.014018 -1.17418,-5.848028 -3.30578,-7.980032 -2.13182,-2.1312995 -4.96498,-3.3049795 -7.97954,-3.3049795 z"
       id="Combined-Shape"
       style="fill:#007bc7;fill-rule:nonzero;stroke:none;stroke-width:0.529166" />
  </g>
</svg>
