<?xml version="1.0" encoding="UTF-8" standalone="no"?>
<svg
   inkscape:version="1.4 (e7c3feb100, 2024-10-09)"
   id="svg8"
   version="1.1"
   viewBox="0 0 67.733332 33.866668"
   height="128"
   width="256"
   sodipodi:docname="kickstarter.svg"
   xml:space="preserve"
   xmlns:inkscape="http://www.inkscape.org/namespaces/inkscape"
   xmlns:sodipodi="http://sodipodi.sourceforge.net/DTD/sodipodi-0.dtd"
   xmlns="http://www.w3.org/2000/svg"
   xmlns:svg="http://www.w3.org/2000/svg"
   xmlns:rdf="http://www.w3.org/1999/02/22-rdf-syntax-ns#"
   xmlns:cc="http://creativecommons.org/ns#"
   xmlns:dc="http://purl.org/dc/elements/1.1/"><defs
     id="defs2" /><sodipodi:namedview
     units="px"
     showgrid="false"
     inkscape:document-rotation="0"
     inkscape:current-layer="layer1"
     inkscape:document-units="px"
     inkscape:cy="68.185296"
     inkscape:cx="91.923881"
     inkscape:zoom="3.959798"
     inkscape:pageshadow="2"
     inkscape:pageopacity="0"
     borderopacity="1.0"
     bordercolor="#666666"
     pagecolor="#ffffff"
     id="base"
     inkscape:window-width="2560"
     inkscape:window-height="1371"
     inkscape:window-x="0"
     inkscape:window-y="0"
     inkscape:window-maximized="1"
     inkscape:showpageshadow="2"
     inkscape:pagecheckerboard="0"
     inkscape:deskcolor="#d1d1d1" /><metadata
     id="metadata5"><rdf:RDF><cc:Work
         rdf:about=""><dc:format>image/svg+xml</dc:format><dc:type
           rdf:resource="http://purl.org/dc/dcmitype/StillImage" /></cc:Work></rdf:RDF></metadata><g
     id="layer1"
     inkscape:groupmode="layer"
     inkscape:label="Layer 1"><rect
       style="fill:#ffffff;stroke-width:3.47907;stroke-linecap:round;paint-order:markers stroke fill;fill-opacity:1"
       id="rect848"
       width="67.733337"
       height="33.866669"
       x="-1.7011719e-06"
       y="-8.5058593e-07" /><g
       style="fill:#05ce78;fill-opacity:1"
       id="g1"
       transform="matrix(0.14093338,0,0,0.14093338,21.166667,15.526163)"><path
         class="fill-ksr10-green"
         fill-rule="evenodd"
         clip-rule="evenodd"
         d="m 16.9257,15.2442 c 0,-0.9121 -0.2526,-1.7915 -0.7895,-2.5733 L 14.1153,9.77192 16.1362,6.87291 c 0.5369,-0.74918 0.7895,-1.66122 0.7895,-2.57327 0,-2.4104 -1.9263,-4.2670669 -4.1999,-4.2670669 -1.3262,0 -2.6525,0.6840339 -3.47352,1.8566669 L 8.24179,3.32245 C 7.86286,1.40064 6.2524,0 4.19984,0 1.83151,0 0,1.95438 0,4.36479 V 15.2768 c 0,2.4104 1.86309,4.3648 4.19984,4.3648 2.02098,0 3.59987,-1.303 4.01038,-3.1922 l 0.88417,1.3029 c 0.82102,1.2378 2.17891,1.8893 3.50511,1.8893 2.3999,0.0325 4.3262,-1.987 4.3262,-4.3974 z M 18.1794,4.6984 C 18.1794,2.15344 20.2063,0 22.7399,0 c 2.5336,0 4.5605,2.15344 4.5289,4.6984 v 10.2451 c 0,2.545 -1.9953,4.6984 -4.5606,4.6984 -2.5019,0 -4.5288,-2.1208 -4.5288,-4.6984 z m 26.6425,9.5453 c 0,-2.0813 -0.9972,-3.5447 -2.9915,-4.42273 1.9943,-0.87803 2.9915,-2.3089 2.9915,-4.42269 C 44.8219,2.24386 42.2979,0 38.247,0 c -5.422,0 -9.4105,4.19505 -9.4105,9.82097 0,5.62593 3.9885,9.82093 9.4105,9.82093 4.0509,0 6.5749,-2.2438 6.5749,-5.3982 z m 17.7017,-1.5728 c 0.5378,0.7818 0.7909,1.6612 0.7909,2.5733 0,2.4104 -1.9299,4.4299 -4.3026,4.3974 -1.3288,0 -2.6891,-0.6515 -3.5117,-1.8893 l -0.8858,-1.3029 c -0.4113,1.8892 -1.9931,3.1922 -4.0179,3.1922 -2.3411,0 -4.2077,-1.9544 -4.2077,-4.3648 V 4.36479 C 46.3888,1.95438 48.2237,0 50.5965,0 c 2.0564,0 3.6699,1.40064 4.0495,3.32245 l 0.9808,-1.43321 c 0.8225,-1.172633 2.1513,-1.8566669 3.48,-1.8566669 2.2778,0 4.2077,1.8566669 4.2077,4.2670669 0,0.91205 -0.2531,1.82409 -0.7909,2.57327 l -2.0248,2.89901 z m 16.7765,0.9266 c 0,-1.9706 -0.9423,-3.3501 -2.3557,-4.66386 L 75.7822,7.84978 C 77.4783,7.58702 78.6091,6.40463 78.6091,4.66389 78.6091,1.74075 76.379,0 71.6676,0 c -4.6172,0 -7.3183,2.43048 -7.3183,6.27325 0,1.97066 0.9736,3.31727 2.3871,4.66385 l 1.1307,1.0839 h -0.0314 c -2.1044,0 -3.5807,1.2809 -3.5807,3.2844 0,2.8903 2.3243,4.6639 7.287,4.6639 4.8684,0 7.7581,-2.4633 7.7581,-6.3718 z m 23.7959,2.6299 c 1.07,2.3089 2.579,3.4145 4.435,3.4145 3.334,0 5.693,-3.1544 4.246,-6.699 L 107.908,3.57717 C 106.965,1.26827 105.55,0 103.128,0 c -2.39,0 -3.8058,1.26827 -4.7808,3.57717 l -3.8685,9.36573 c -1.4782,3.5446 0.9121,6.699 4.2145,6.699 1.8238,0 3.3338,-1.1056 4.4028,-3.4145 z M 113.465,5.2049 c 0,-3.20819 1.642,-4.877752 4.58,-4.877752 h 5.464 c 3.317,0 5.907,2.618922 5.907,5.990792 0,1.83325 -0.726,3.33913 -1.927,4.28846 l 1.643,2.7172 c 0.442,0.7202 0.632,1.5059 0.632,2.3243 0,2.4225 -1.833,4.3212 -4.138,4.3212 -1.422,0 -2.812,-0.7529 -3.601,-2.1279 l -0.442,-0.8184 c -0.537,1.735 -2.022,2.9463 -3.917,2.9463 -2.306,0 -4.201,-2.0297 -4.201,-4.4849 z m 24.855,14.7642 c 2.602,0 4.545,-1.9969 4.545,-4.4194 V 8.77318 c 2.1,-0.0982 3.824,-1.93145 3.824,-4.22301 0,-2.35704 -1.818,-4.223022 -4.043,-4.223022 h -8.526 c -2.225,0 -4.043,1.833252 -4.043,4.223022 0,2.29156 1.724,4.09207 3.824,4.22301 v 6.77652 c 0,2.4225 1.974,4.4194 4.419,4.4194 z m 21.614,-7.3949 c 1.588,0.3301 2.741,1.7496 2.741,3.6312 0,2.1127 -1.62,3.7962 -3.582,3.7632 h -6.541 c -2.99,0 -4.609,-1.6505 -4.609,-4.8856 V 5.21276 c 0,-3.20206 1.619,-4.885612 4.609,-4.885612 h 6.541 c 1.962,0 3.582,1.683552 3.582,3.796252 0,1.91463 -1.122,3.30109 -2.741,3.63119 0.747,0.49517 1.152,1.32044 1.152,2.40981 0,1.0893 -0.436,1.9146 -1.152,2.4098 z m 8.196,7.3949 c -2.306,0 -4.201,-2.0297 -4.201,-4.4849 V 5.2049 c 0,-3.20819 1.611,-4.877752 4.58,-4.877752 h 5.464 c 3.317,0 5.907,2.618922 5.907,5.990792 0,1.83325 -0.727,3.33913 -1.927,4.28846 l 1.643,2.7172 c 0.442,0.7202 0.631,1.5059 0.631,2.3243 0,2.4225 -1.832,4.3212 -4.137,4.3212 -1.422,0 -2.812,-0.7529 -3.601,-2.1279 l -0.443,-0.8184 c -0.537,1.735 -2.021,2.9463 -3.916,2.9463 z M 92.0807,15.5497 c 0,2.4225 -1.9784,4.4194 -4.522,4.4194 -2.4495,0 -4.4279,-1.9969 -4.4279,-4.4194 V 8.77318 c -2.104,-0.13094 -3.8311,-1.93145 -3.8311,-4.22301 0,-2.38977 1.8213,-4.223022 4.051,-4.223022 h 8.5102 c 2.2296,0 4.051,1.865982 4.051,4.223022 0,2.29156 -1.7272,4.12481 -3.8312,4.22301 z"
         id="path1"
         style="fill:#05ce78;fill-opacity:1" /></g><path
       style="fill:none;stroke:#05ce78;stroke-width:0.350837;stroke-dasharray:none;stroke-opacity:1;stroke-linecap:round"
       d="m 54.011009,24.715078 c -0.335357,-0.185881 -0.737297,-0.283812 -1.149251,-0.163552 -0.243469,0.07107 -0.565506,0.354474 -0.31589,0.614154 0.390365,0.406099 1.055993,-0.02311 1.362467,-0.303362 0.751089,-0.6868 1.403333,-1.855011 2.094985,-2.661959 2.321049,-2.707958 5.436378,-3.691647 8.856869,-4.197946 0.929108,-0.137526 1.908806,-0.327084 2.873145,-0.349445 m -13.43493,6.990256 c 0.587136,0.431799 1.462942,1.060145 1.611667,1.868071 0.111091,0.60348 -0.379249,1.24108 -0.821605,1.593704 -0.998135,0.79566 -2.341942,1.146585 -3.592169,1.268055 -2.655038,0.257957 -5.308825,-0.39877 -7.975226,-0.119292 -2.989481,0.313326 -5.604775,2.129568 -8.550016,2.685021 -2.713733,0.511792 -5.457505,-0.363249 -8.190774,-0.176077 -1.865561,0.127756 -3.652201,0.700007 -5.31682,1.510158 -0.302517,0.147231 -0.659721,0.374034 -1.015701,0.593803"
       id="path2"
       sodipodi:nodetypes="csscssccssscsssc" /></g></svg>
