<?xml version="1.0" encoding="UTF-8" standalone="no"?>
<svg
   xmlns:dc="http://purl.org/dc/elements/1.1/"
   xmlns:cc="http://creativecommons.org/ns#"
   xmlns:rdf="http://www.w3.org/1999/02/22-rdf-syntax-ns#"
   xmlns:svg="http://www.w3.org/2000/svg"
   xmlns="http://www.w3.org/2000/svg"
   xmlns:xlink="http://www.w3.org/1999/xlink"
   xmlns:sodipodi="http://sodipodi.sourceforge.net/DTD/sodipodi-0.dtd"
   xmlns:inkscape="http://www.inkscape.org/namespaces/inkscape"
   inkscape:version="1.0.1 (3bc2e813f5, 2020-09-07)"
   id="svg8"
   version="1.1"
   viewBox="0 0 67.733332 33.866668"
   height="128"
   width="256"
   sodipodi:docname="lbry.svg">
  <defs
     id="defs2">
	
	
<linearGradient
   x1="112.49854"
   y1="6.1372099"
   x2="112.49853"
   y2="129.3468"
   id="path1082_2_"
   gradientUnits="userSpaceOnUse"
   gradientTransform="translate(287,-83)">
  <stop
     id="stop193"
     style="stop-color:#ffffff;stop-opacity:0"
     offset="0" />
  <stop
     id="stop195"
     style="stop-color:#ffffff;stop-opacity:0.27450982"
     offset="1" />
  <midPointStop
     offset="0"
     style="stop-color:#FFFFFF"
     id="midPointStop197" />
  <midPointStop
     offset="0.5"
     style="stop-color:#FFFFFF"
     id="midPointStop199" />
  <midPointStop
     offset="1"
     style="stop-color:#000000"
     id="midPointStop201" />
</linearGradient>
<linearGradient
   x1="541.33502"
   y1="104.50665"
   x2="606.91248"
   y2="303.14029"
   id="linearGradient2544"
   xlink:href="#path1082_2_"
   gradientUnits="userSpaceOnUse"
   gradientTransform="matrix(-0.3937741,0,0,0.393752,357.51969,122.00151)" />
<linearGradient
   id="linearGradient3388">
  <stop
     id="stop3390"
     style="stop-color:#000000;stop-opacity:0"
     offset="0" />
  <stop
     id="stop3392"
     style="stop-color:#000000;stop-opacity:0.37113401"
     offset="1" />
</linearGradient>
<linearGradient
   x1="490.72305"
   y1="237.72447"
   x2="490.72305"
   y2="183.9644"
   id="linearGradient4416"
   xlink:href="#linearGradient3388"
   gradientUnits="userSpaceOnUse"
   gradientTransform="matrix(0.749107,0,0,0.749107,-35.459862,91.44108)" />
<clipPath
   clipPathUnits="userSpaceOnUse"
   id="clipPath3083">
  <path
     d="M 0,551.986 H 530.973 V 0 H 0 Z"
     id="path3081" />
</clipPath>
<linearGradient
   id="linear-gradient"
   x1="110.25"
   y1="213.3"
   x2="496.14"
   y2="436.09"
   gradientUnits="userSpaceOnUse">
  <stop
     offset="0"
     stop-color="#aa5cc3"
     id="stop4243" />
  <stop
     offset="1"
     stop-color="#00a4dc"
     id="stop4245" />
</linearGradient>
</defs>
  <sodipodi:namedview
     units="px"
     showgrid="false"
     inkscape:document-rotation="0"
     inkscape:current-layer="layer1"
     inkscape:document-units="px"
     inkscape:cy="51.945665"
     inkscape:cx="184.04576"
     inkscape:zoom="3.6203867"
     inkscape:pageshadow="2"
     inkscape:pageopacity="0"
     borderopacity="1.0"
     bordercolor="#666666"
     pagecolor="#ffffff"
     id="base"
     inkscape:window-width="2560"
     inkscape:window-height="1376"
     inkscape:window-x="0"
     inkscape:window-y="0"
     inkscape:window-maximized="1"
     inkscape:snap-page="false"
     inkscape:snap-bbox="true"
     inkscape:object-paths="true"
     inkscape:snap-intersection-paths="false"
     inkscape:snap-smooth-nodes="true" />
  <metadata
     id="metadata5">
    <rdf:RDF>
      <cc:Work
         rdf:about="">
        <dc:format>image/svg+xml</dc:format>
        <dc:type
           rdf:resource="http://purl.org/dc/dcmitype/StillImage" />
        <dc:title></dc:title>
      </cc:Work>
    </rdf:RDF>
  </metadata>
  <g
     id="layer1"
     inkscape:groupmode="layer"
     inkscape:label="Layer 1">
    <rect
       style="fill:#57e389;stroke-width:3.47906;stroke-linecap:round;paint-order:markers stroke fill"
       id="rect848"
       width="67.733337"
       height="33.866669"
       x="-1.7011719e-06"
       y="-8.5058593e-07" />
    <text
       xml:space="preserve"
       style="font-size:1.41111px;line-height:1.25;font-family:sans-serif;letter-spacing:0px;word-spacing:0px;stroke-width:0.264583"
       x="16.085501"
       y="-6.6101427"
       id="text4216"><tspan
         sodipodi:role="line"
         id="tspan4214"
         x="16.085501"
         y="-6.6101427"
         style="stroke-width:0.264583" /></text>
    <g
       style="fill:#ffffff;stroke:none"
       id="g4407"
       transform="matrix(0.08913157,0,0,0.08913157,19.597951,5.791845)">
      <path
         d="M 296,85.9 V 100 L 157.2,185.3 52.6,134 l 0.2,-7.9 104,51.2 L 289,96.1 V 90.3 L 164.2,30.1 25,116.2 v 38.5 l 131.8,65.2 137.6,-84.4 3.9,6 L 157.2,227.9 18.1,159.1 V 112.3 L 163.9,22.1 c 0,0 132.1,63.8 132.1,63.8 z"
         id="path4393"
         style="fill:#ffffff;stroke:none" />
      <path
         d="m 294.3,150.9 2,-12.6 -12.2,-2.1 0.8,-4.9 17.1,2.9 -2.8,17.5 z"
         id="path4395"
         style="fill:#ffffff;stroke:none" />
    </g>
  </g>
</svg>
