<?xml version="1.0" encoding="UTF-8" standalone="no"?>
<svg
   inkscape:version="1.1.1 (3bf5ae0d25, 2021-09-20, custom)"
   id="svg8"
   version="1.1"
   viewBox="0 0 67.733332 33.866668"
   height="128"
   width="256"
   sodipodi:docname="matrix.svg"
   xmlns:inkscape="http://www.inkscape.org/namespaces/inkscape"
   xmlns:sodipodi="http://sodipodi.sourceforge.net/DTD/sodipodi-0.dtd"
   xmlns:xlink="http://www.w3.org/1999/xlink"
   xmlns="http://www.w3.org/2000/svg"
   xmlns:svg="http://www.w3.org/2000/svg"
   xmlns:rdf="http://www.w3.org/1999/02/22-rdf-syntax-ns#"
   xmlns:cc="http://creativecommons.org/ns#"
   xmlns:dc="http://purl.org/dc/elements/1.1/">
  <defs
     id="defs2">
    <linearGradient
       inkscape:collect="always"
       id="linearGradient15348">
      <stop
         style="stop-color:#ec6361;stop-opacity:1"
         offset="0"
         id="stop15344" />
      <stop
         style="stop-color:#af3459;stop-opacity:1"
         offset="1"
         id="stop15346" />
    </linearGradient>
    <clipPath
       clipPathUnits="userSpaceOnUse"
       id="clipPath32">
      <path
         d="M 0,0 H 792 V 612 H 0 Z"
         id="path30" />
    </clipPath>
    <clipPath
       clipPathUnits="userSpaceOnUse"
       id="clipPath60">
      <path
         d="M 0,0 H 792 V 612 H 0 Z"
         id="path58" />
    </clipPath>
    <clipPath
       clipPathUnits="userSpaceOnUse"
       id="clipPath82">
      <path
         d="M 0,0 H 792 V 612 H 0 Z"
         id="path80" />
    </clipPath>
    <clipPath
       clipPathUnits="userSpaceOnUse"
       id="clipPath106">
      <path
         d="M 0,0 H 792 V 612 H 0 Z"
         id="path104" />
    </clipPath>
    <clipPath
       clipPathUnits="userSpaceOnUse"
       id="clipPath126">
      <path
         d="M 0,0 H 792 V 612 H 0 Z"
         id="path124" />
    </clipPath>
    <clipPath
       clipPathUnits="userSpaceOnUse"
       id="clipPath146">
      <path
         d="M 0,0 H 792 V 612 H 0 Z"
         id="path144" />
    </clipPath>
    <clipPath
       clipPathUnits="userSpaceOnUse"
       id="clipPath166">
      <path
         d="M 0,0 H 792 V 612 H 0 Z"
         id="path164" />
    </clipPath>
    <linearGradient
       inkscape:collect="always"
       xlink:href="#linearGradient15348"
       id="linearGradient15350"
       x1="66.65313"
       y1="17.715954"
       x2="1.3680223"
       y2="17.715954"
       gradientUnits="userSpaceOnUse" />
  </defs>
  <sodipodi:namedview
     units="px"
     showgrid="false"
     inkscape:document-rotation="0"
     inkscape:current-layer="layer1"
     inkscape:document-units="px"
     inkscape:cy="10.606602"
     inkscape:cx="156.82618"
     inkscape:zoom="1.979899"
     inkscape:pageshadow="2"
     inkscape:pageopacity="0"
     borderopacity="1.0"
     bordercolor="#666666"
     pagecolor="#ffffff"
     id="base"
     inkscape:window-width="1280"
     inkscape:window-height="1371"
     inkscape:window-x="1280"
     inkscape:window-y="32"
     inkscape:window-maximized="0"
     inkscape:pagecheckerboard="0"
     inkscape:object-nodes="false"
     inkscape:snap-bbox="true"
     inkscape:bbox-nodes="true" />
  <metadata
     id="metadata5">
    <rdf:RDF>
      <cc:Work
         rdf:about="">
        <dc:format>image/svg+xml</dc:format>
        <dc:type
           rdf:resource="http://purl.org/dc/dcmitype/StillImage" />
      </cc:Work>
    </rdf:RDF>
  </metadata>
  <g
     id="layer1"
     inkscape:groupmode="layer"
     inkscape:label="Layer 1">
    <rect
       style="fill:url(#linearGradient15350);stroke-width:3.47907;stroke-linecap:round;paint-order:markers stroke fill;fill-opacity:1"
       id="rect848"
       width="67.733337"
       height="33.866669"
       x="-1.7011719e-06"
       y="-8.5058593e-07" />
    <path
       id="path23385"
       style="stroke-width:0.479399"
       d="M 0 0 L 0 2.1523438 C 0.3024999 3.5651209 0.84918492 5.2158511 1.3535156 6.7460938 C 1.5054889 7.2058291 1.6475265 7.6406341 1.7832031 8.0625 C 2.5933881 10.670444 3.5791584 13.506395 4.53125 16.25 C 6.048547 20.619239 7.6168614 25.135684 8.5742188 28.980469 C 9.1873738 31.445541 9.4987181 33.549374 9.7988281 35.582031 C 10.125777 37.793501 10.462239 40.080451 11.191406 42.841797 C 12.166982 46.456469 14.035709 51.015665 16.595703 56.025391 C 18.963458 60.671734 22.314434 66.323095 26.556641 72.824219 C 29.855872 77.888105 33.140192 82.549648 36.595703 87.074219 C 40.153327 91.748372 47.207497 100.54417 54.480469 106.93555 C 60.397217 112.1356 64.044175 113.72636 66.560547 114.5332 L 66.523438 114.66211 C 63.995085 113.85242 60.330974 112.25296 54.396484 107.03711 C 47.114881 100.63903 40.055118 91.835712 36.494141 87.158203 C 33.036714 82.630768 29.751839 77.966201 26.451172 72.900391 C 22.206568 66.394936 18.852095 60.738078 16.482422 56.087891 C 13.918112 51.070024 12.044382 46.503167 11.066406 42.878906 C 10.3358 40.1099 9.9993106 37.81882 9.671875 35.603516 C 9.3717688 33.573734 9.0609341 31.474945 8.4492188 29.015625 C 7.494255 25.176592 5.9264959 20.663238 4.4101562 16.296875 C 3.4580645 13.552314 2.4727731 10.713853 1.6621094 8.1035156 C 1.5269219 7.6826104 1.3834378 7.2502755 1.2324219 6.7910156 C 0.78897618 5.4506051 0.31495994 4.0181006 0 2.7285156 L 0 8.6777344 C 0.55610309 10.429462 1.157387 12.239304 1.7460938 14.007812 C 3.2518881 18.52951 4.8095215 23.205985 5.703125 27.181641 C 6.2438854 29.594941 6.5017042 31.680907 6.7519531 33.697266 C 7.0256892 35.909696 7.3080647 38.195336 7.9648438 40.9375 C 8.9639104 45.014318 10.981841 50.064888 13.796875 55.542969 C 18.69874 65.122344 25.557908 75.938331 33.111328 86 C 39.418303 94.448918 46.253347 102.09889 51.863281 106.98828 C 57.84379 112.20462 61.501082 113.7207 64.017578 114.45898 L 63.982422 114.58203 C 61.454065 113.8404 57.782413 112.31957 51.783203 107.08789 C 46.167037 102.19322 39.325923 94.535743 33.013672 86.080078 C 25.45594 76.013171 18.59272 65.189108 13.6875 55.603516 C 10.867672 50.116768 8.8476453 45.057106 7.8457031 40.970703 C 7.1865267 38.221823 6.9016605 35.928674 6.6269531 33.712891 C 6.3776653 31.699412 6.1198812 29.617521 5.5800781 27.210938 C 4.6879142 23.241995 3.133778 18.570556 1.6308594 14.050781 A 438.03609 438.03609 0 0 1 0 9.0878906 L 0 15.125 C 1.1198793 18.701808 2.1661999 22.253166 2.8085938 25.402344 C 3.3014148 27.814684 3.50954 29.913066 3.7089844 31.941406 C 3.9458087 34.340322 4.1895503 36.819606 4.90625 39.865234 C 5.8056052 43.58921 7.5266517 48.092608 10.019531 53.25 C 12.279419 57.934671 15.468761 63.593612 19.501953 70.070312 C 23.052866 75.779459 26.614359 81.015671 30.388672 86.078125 C 36.705717 94.58267 43.563465 102.26136 49.203125 107.14258 C 55.342317 112.46059 59.151942 113.90413 61.484375 114.52734 L 61.455078 114.64453 C 59.112251 114.0194 55.284843 112.57209 49.126953 107.23828 C 43.481065 102.35081 36.617719 94.665555 30.294922 86.154297 C 26.518212 81.08849 22.955175 75.848311 19.402344 70.136719 C 15.367237 63.655721 12.173916 57.993237 9.9121094 53.304688 C 7.4158754 48.139653 5.6922855 43.629093 4.7910156 39.896484 C 4.0719155 36.842231 3.8286283 34.355873 3.5917969 31.953125 C 3.3923665 29.927661 3.1852231 27.834319 2.6933594 25.427734 C 2.0734956 22.391213 1.075773 18.976106 0 15.525391 L 0 24.1875 C 0.38495065 26.421024 0.53193192 28.405183 0.67382812 30.324219 C 0.8502497 32.710193 1.0313262 35.17831 1.6679688 38.1875 C 2.534727 42.182336 4.4393335 47.300708 7.1738281 52.990234 C 12.081441 63.258016 19.57801 75.435532 27.742188 86.398438 C 34.051079 94.917836 40.913362 102.58751 46.568359 107.44141 C 52.781857 112.78 56.616312 114.15162 58.958984 114.71875 L 58.931641 114.83398 C 56.577789 114.26448 52.728293 112.88714 46.496094 107.5332 C 40.834864 102.67355 33.966994 94.996319 27.652344 86.470703 C 19.483375 75.502034 11.983237 63.317954 7.0722656 53.042969 C 4.333456 47.345308 2.4272633 42.215362 1.5585938 38.210938 C 0.9200329 35.193599 0.73745409 32.723311 0.56054688 30.333984 C 0.4339829 28.615335 0.30203169 26.845649 0 24.892578 L 0 42.431641 C 0.97078518 45.332488 2.2816495 48.546915 3.8847656 51.949219 C 8.7832695 62.40013 16.179911 74.666437 24.177734 85.601562 C 27.908423 90.727297 35.344484 100.35578 43.238281 107.25195 C 48.330941 111.70269 52.522636 114.17354 56.427734 115.02539 L 56.40625 115.13477 C 52.482843 114.27905 48.276003 111.8011 43.169922 107.33789 C 35.267978 100.43453 27.824883 90.797513 24.091797 85.667969 C 15.971725 74.566979 8.7613588 62.610038 3.7871094 51.998047 C 2.2376875 48.708403 0.96119731 45.595594 0 42.769531 L 0 49.724609 C 0.18169074 50.13496 0.3687896 50.551236 0.56054688 50.970703 C 5.2931781 61.386639 12.594522 73.751365 20.595703 84.894531 C 24.332147 90.124774 31.805818 99.970888 39.878906 107.14844 C 45.247702 111.92424 49.828996 114.63239 53.884766 115.42773 L 53.865234 115.53125 C 49.791301 114.73256 45.193724 112.01679 39.810547 107.22852 C 31.730267 100.04475 24.252512 90.191117 20.513672 84.957031 C 12.509137 73.808589 5.2013496 61.437782 0.46679688 51.015625 C 0.30764672 50.667576 0.15195925 50.324144 0 49.982422 L 0 55.955078 C 4.7939983 65.60685 11.017795 75.906935 17.855469 85.458984 C 21.588554 90.695448 29.059747 100.54902 37.160156 107.70117 C 42.596549 112.50381 47.229223 115.1872 51.322266 115.9082 L 51.304688 116.00781 C 47.193835 115.2839 42.547475 112.59193 37.097656 107.77734 C 28.990053 100.61845 21.512823 90.759873 17.777344 85.519531 C 10.978018 76.021186 4.784889 65.783487 0 56.177734 L 0 61.849609 C 4.3313771 69.933255 9.5406132 78.323743 15.080078 86.072266 C 18.809806 91.313548 26.280021 101.1697 34.410156 108.30078 C 39.912703 113.13074 44.599103 115.79825 48.734375 116.45312 L 48.71875 116.54688 C 44.565714 115.88963 39.865582 113.216 34.349609 108.375 C 26.212284 101.23725 18.737506 91.373545 15.005859 86.128906 C 9.4980371 78.424967 4.317474 70.087858 0 62.046875 L 0 67.5 A 226.47702 226.47702 0 0 0 11.382812 85.460938 C 15.279853 91.034932 23.091172 101.49668 31.623047 108.93359 C 37.191749 113.79136 41.932028 116.44313 46.113281 117.03906 L 46.101562 117.12695 C 41.90298 116.5282 37.148533 113.87167 31.566406 109.00195 C 23.02734 101.55927 15.211459 91.090497 11.3125 85.513672 A 226.68939 226.68939 0 0 1 0 67.677734 L 0 72.970703 A 227.31981 227.31981 0 0 0 7.6679688 84.871094 C 17.076664 98.583382 24.946408 106.23422 28.800781 109.57422 C 34.358458 114.39411 39.290577 117.11001 43.460938 117.64648 L 43.451172 117.73047 C 39.265534 117.19213 34.317709 114.46961 28.748047 109.63867 C 25.196652 106.56095 21.417973 102.64787 17.517578 98.005859 C 14.170889 94.024448 10.742591 89.500149 7.6015625 84.921875 A 228.00726 228.00726 0 0 1 0 73.130859 L 0 78.257812 A 223.53447 223.53447 0 0 0 4.6953125 85.382812 C 14.1112 99.147829 22.026471 106.82279 25.90625 110.17188 C 31.543031 115.04306 36.544718 117.76208 40.773438 118.25586 L 40.763672 118.33594 C 36.520029 117.84023 31.503755 115.11367 25.855469 110.23242 C 22.285859 107.15134 18.496437 103.23221 14.587891 98.582031 C 11.225384 94.581439 7.7824678 90.033855 4.6328125 85.429688 A 223.05362 223.05362 0 0 1 0 78.402344 L 0 83.353516 A 214.83048 214.83048 0 0 0 1.7949219 86.013672 C 11.197391 99.769111 19.12725 107.43159 23.017578 110.77539 C 28.713807 115.67628 33.770765 118.39276 38.048828 118.84961 L 38.041016 118.92383 C 33.747995 118.4655 28.679427 115.74399 22.972656 110.83398 C 19.398731 107.76244 15.607426 103.85561 11.707031 99.224609 C 8.3378092 95.224017 4.8907772 90.671323 1.7363281 86.056641 A 216.1076 216.1076 0 0 1 0 83.484375 L 0 88.226562 C 4.445474 94.564721 11.161777 103.28707 18.628906 110.0332 C 22.046546 113.12246 25.297128 115.49124 28.289062 117.07422 C 30.820773 118.41369 33.176954 119.19815 35.291016 119.4043 L 35.285156 119.4707 C 33.162857 119.26458 30.797674 118.48045 28.257812 117.13672 C 25.260609 115.55179 22.007411 113.17903 18.585938 110.08594 C 11.143736 103.36286 4.447871 94.679005 0 88.34375 L 0 92.816406 C 4.2268676 98.496828 9.7107878 105.13827 15.685547 110.51953 C 20.104651 114.50332 26.60965 119.36435 32.503906 119.89648 L 32.498047 119.96094 C 30.349379 119.76631 27.951739 118.98173 25.373047 117.62695 C 22.352349 116.03965 19.07895 113.66478 15.644531 110.56836 C 9.6889479 105.20388 4.2225525 98.588816 0 92.919922 L 0 97.09375 C 3.6894617 101.75686 8.0348562 106.70056 12.683594 110.88477 C 17.1492 114.90741 23.725263 119.80918 29.689453 120.31445 L 29.685547 120.37109 C 23.705515 119.86389 17.120274 114.95663 12.648438 110.92773 C 8.0150391 106.75796 3.6822708 101.8343 0 97.185547 L 0 101.03125 C 2.9641279 104.53616 6.237155 108.04961 9.6816406 111.14844 C 14.189914 115.20801 20.83041 120.14914 26.859375 120.63281 L 26.855469 120.68359 C 20.813116 120.19896 14.162466 115.25281 9.6484375 111.1875 C 6.2168941 108.10017 2.9550188 104.60279 0 101.11133 L 0 104.59766 C 2.1266189 106.93715 4.3676492 109.20956 6.6855469 111.29492 C 11.232172 115.38996 17.929561 120.37042 24.015625 120.83594 L 24.011719 120.88281 C 17.913275 120.4168 11.206198 115.43137 6.6542969 111.33203 C 4.3479052 109.25624 2.1175098 106.99495 0 104.66797 L 0 107.76562 C 1.2080883 108.99004 2.4442531 110.1812 3.7050781 111.31641 C 8.2847822 115.44356 15.033585 120.4561 21.169922 120.90625 L 21.166016 120.94727 C 17.773306 120.69845 11.985283 118.83202 3.6796875 111.34766 A 86.961176 86.961176 0 0 1 0 107.82422 L 0 110.50391 C 0.25120624 110.7369 0.50372012 110.96875 0.7578125 111.19727 C 9.1065567 118.72576 14.923542 120.59228 18.332031 120.83203 L 18.330078 120.86914 C 14.915314 120.62846 9.0912712 118.75933 0.734375 111.22461 C 0.48892356 111.00312 0.24354011 110.7781 0 110.55273 L 0 112.79297 C 7.2466079 118.8147 12.387543 120.38849 15.515625 120.59961 L 15.513672 120.63086 C 12.383671 120.41947 7.2427717 118.84611 0 112.83203 L 0 114.59375 C 1.7315913 115.856 3.4148176 116.91607 5.0371094 117.76367 C 6.5357094 118.54604 7.9715674 119.14377 9.3359375 119.55273 C 9.5555012 119.57666 9.7739858 119.59734 9.9882812 119.61133 L 9.9863281 119.63086 C 9.8060715 119.61994 9.6235908 119.60137 9.4414062 119.58398 L 9.3359375 119.55273 C 9.292738 119.54957 9.2497797 119.54695 9.2070312 119.54102 C 9.2505678 119.54424 9.293553 119.54836 9.3359375 119.55469 C 9.3714008 119.56527 9.4064456 119.57535 9.4414062 119.58594 C 10.591964 119.92447 11.689176 120.13052 12.728516 120.19727 L 12.728516 120.22266 C 11.647949 120.15267 10.502671 119.93273 9.3027344 119.57031 C 7.4167762 119.35312 5.3654856 118.72002 3.1914062 117.68164 A 33.047894 33.047894 0 0 1 0 115.92188 L 0 128 L 100.26367 128 C 99.824004 127.72113 99.384259 127.44202 98.890625 127.10938 C 98.967803 127.1548 99.043399 127.19887 99.119141 127.24219 L 99.205078 127.08398 L 99.142578 127.04102 A 99.936608 99.936608 0 0 1 99.060547 126.98633 L 99.208984 127.07227 L 99.205078 127.08203 A 99.936608 99.936608 0 0 1 99.205078 127.08398 A 99.936608 99.936608 0 0 0 99.730469 127.42969 C 98.281247 126.34913 96.638978 125.04474 94.757812 123.42773 C 89.180477 118.63471 83.585042 112.82229 79.873047 108.79102 C 76.340353 104.95964 72.906225 101.02454 69.373047 96.761719 C 64.882031 91.353623 61.503714 87.014837 59.332031 83.861328 C 56.81854 80.219825 54.923014 77.030415 53.535156 74.113281 C 53.062466 73.114696 52.677017 72.218744 52.269531 71.269531 C 51.80595 70.190896 51.327926 69.074103 50.710938 67.802734 C 49.650028 65.611886 48.083384 62.774411 46.548828 60.033203 C 45.383883 57.977053 44.10578 55.787097 42.751953 53.46875 C 39.698178 48.236561 36.53906 42.824255 34.140625 38.029297 C 33.925373 37.605512 33.695326 37.160951 33.458984 36.703125 C 32.284936 34.43125 30.953424 31.855489 30.521484 30.169922 C 30.149459 28.733161 30.413817 28.113223 30.769531 27.503906 C 31.00827 27.108881 31.281764 26.768732 31.572266 26.408203 C 32.431829 25.340101 33.321864 24.235047 33.324219 21.609375 C 33.296895 18.027298 32.23658 11.79258 30.748047 6.4472656 C 30.164616 4.4194187 29.478902 2.4600441 28.814453 0.56640625 L 28.615234 0 L 27.773438 0 C 28.246316 1.3509524 28.713989 2.7248218 29.125 4.1523438 C 30.645655 9.608876 31.667835 15.973007 31.607422 19.628906 C 31.535991 22.260803 30.525011 23.384076 29.634766 24.375 C 29.373971 24.665513 29.128716 24.940187 28.908203 25.244141 C 28.587957 25.697174 28.223753 26.211165 28.519531 27.59375 C 28.657598 28.234705 28.943913 29.055191 29.369141 30.03125 C 29.993319 31.464651 30.753363 32.998678 31.488281 34.482422 C 31.703533 34.917239 31.919497 35.352774 32.132812 35.787109 C 34.342843 40.337568 37.216536 45.43656 39.996094 50.367188 C 41.3969 52.851924 42.721245 55.197794 43.910156 57.386719 C 45.263019 59.908355 46.778238 62.780154 47.775391 64.960938 C 48.307045 66.122035 48.730226 67.158739 49.138672 68.162109 C 49.55335 69.177956 49.945226 70.138224 50.441406 71.220703 C 51.792833 74.153178 53.680702 77.39543 56.212891 81.134766 C 58.374504 84.336184 61.849841 88.884814 66.263672 94.289062 C 69.784385 98.607517 73.207806 102.58674 76.728516 106.45312 C 80.432358 110.52849 86.018475 116.39739 91.601562 121.2168 C 94.684408 123.8769 97.098069 125.66707 99.058594 126.98438 A 76.655523 76.655523 0 0 1 99.058594 126.98633 C 98.377844 126.59128 97.626325 126.15224 96.775391 125.61914 A 63.128307 63.128307 0 0 0 98.882812 127.10352 C 97.938284 126.55581 96.855355 125.92098 95.566406 125.07031 L 95.550781 125.10156 C 94.476443 124.49516 93.386036 123.86365 92.189453 123.0918 L 92.146484 123.17383 C 91.15604 122.6321 90.119236 122.048 88.964844 121.31836 L 88.896484 121.45703 C 86.192191 120.0308 83.129045 118.26901 78.076172 113.86719 C 71.503604 108.14123 64.884031 100.60739 61.523438 96.625 C 58.325844 92.848764 55.245542 88.988298 52.105469 84.824219 C 47.965378 79.341802 44.560369 74.485576 42.257812 70.78125 C 39.683436 66.645925 37.741912 62.910873 36.488281 59.681641 C 35.88999 58.109671 35.404841 56.676957 34.933594 55.291016 C 34.08266 52.786606 33.201676 50.197304 31.621094 46.640625 C 30.425473 43.953109 28.993419 40.985735 27.478516 37.84375 C 25.377785 33.486965 23.206449 28.982033 21.541016 24.955078 C 21.373228 24.556217 21.191917 24.138568 21.007812 23.710938 C 20.023607 21.426126 18.9068 18.837021 18.777344 17.289062 C 18.661332 15.952962 19.181327 15.497439 19.638672 15.095703 L 19.695312 15.044922 C 19.888513 14.87904 20.09304 14.719731 20.291016 14.564453 C 21.477053 13.636338 22.704063 12.675961 22.859375 9.734375 C 22.972056 7.1260066 22.644304 3.5125659 22.035156 0 L 20.480469 0 C 20.844182 2.849834 20.993965 5.6078311 20.84375 7.6445312 C 20.598299 10.530513 19.254396 11.501726 18.068359 12.359375 C 17.855026 12.514227 17.652116 12.659654 17.455078 12.816406 L 17.427734 12.839844 C 16.953607 13.225759 16.462715 13.626085 16.558594 14.896484 C 16.597906 15.406573 16.741355 16.058763 16.986328 16.832031 C 17.484422 18.409255 18.25453 20.254264 19 22.039062 C 19.187446 22.488743 19.373451 22.933361 19.552734 23.369141 C 21.014905 26.971821 22.864148 30.950206 24.650391 34.798828 C 26.122627 37.969574 27.511587 40.964989 28.664062 43.6875 C 30.160748 47.218282 30.986477 49.823058 31.785156 52.34375 C 32.242984 53.787204 32.715065 55.280378 33.306641 56.919922 C 34.464393 60.062882 36.319695 63.774654 38.816406 67.951172 C 41.829434 73.004997 46.171457 79.039722 49.285156 83.212891 C 52.443919 87.456045 55.500826 91.33482 58.628906 95.070312 C 61.976079 99.078558 68.569759 106.65703 75.128906 112.36523 C 80.19472 116.77572 83.319359 118.50907 85.849609 119.78906 L 85.777344 119.94336 C 83.237962 118.65906 80.104117 116.91905 75.023438 112.49609 C 68.455666 106.77975 61.853955 99.19376 58.503906 95.181641 C 55.373429 91.443771 52.314976 87.562426 49.154297 83.316406 C 46.038677 79.139851 41.692165 73.101062 38.675781 68.041016 C 36.172836 63.855378 34.313926 60.134435 33.152344 56.980469 C 32.559325 55.337081 32.086734 53.841405 31.628906 52.396484 C 30.831667 49.880578 30.007006 47.279445 28.513672 43.755859 C 27.362636 41.036225 25.971758 38.042833 24.5 34.873047 C 22.7128 31.023465 20.865471 27.041594 19.402344 23.435547 C 19.224009 23.000742 19.03707 22.556611 18.849609 22.107422 C 18.103185 20.318783 17.330572 18.468716 16.830078 16.884766 C 16.580793 16.098076 16.434783 15.434141 16.394531 14.910156 C 16.290501 13.547697 16.841017 13.100564 17.326172 12.705078 L 17.353516 12.681641 C 17.554864 12.52153 17.768455 12.367319 17.974609 12.21875 C 19.187013 11.341443 20.441422 10.433877 20.679688 7.6289062 C 20.829707 5.5978508 20.678473 2.8444178 20.314453 0 L 18.623047 0 C 18.775859 1.9627601 18.805436 3.8007404 18.683594 5.2832031 C 18.412254 8.2137562 17.017214 9.16994 15.785156 10.013672 C 15.546896 10.176656 15.322588 10.331185 15.103516 10.498047 L 15.089844 10.507812 C 14.622428 10.874562 14.138211 11.256178 14.164062 12.40625 C 14.190908 13.95711 15.314727 16.732903 16.304688 19.183594 C 16.479685 19.616006 16.648947 20.037716 16.808594 20.439453 C 18.196458 24.031108 19.968268 28.009248 21.681641 31.855469 C 23.226265 35.322967 24.684701 38.598494 25.851562 41.542969 C 27.13012 44.776517 27.851779 47.236954 28.548828 49.617188 C 28.983643 51.102818 29.434078 52.639397 30.013672 54.337891 C 31.169506 57.660621 33.103006 61.636956 35.763672 66.15625 C 37.967949 69.910927 41.213494 74.74882 45.410156 80.537109 C 48.830194 85.263012 52.186637 89.60424 55.671875 93.808594 C 59.012815 97.850904 65.59721 105.48408 72.162109 111.1875 C 77.264358 115.62147 80.353338 117.27528 82.847656 118.47852 L 82.779297 118.62891 C 80.276346 117.42085 77.175704 115.76086 72.058594 111.31445 C 65.485066 105.60335 58.894594 97.96217 55.550781 93.916016 C 52.063627 89.708816 48.703204 85.36552 45.28125 80.636719 C 41.081231 74.844623 37.833635 70.002628 35.626953 66.244141 C 32.961497 61.71573 31.020999 57.728305 29.861328 54.394531 C 29.280295 52.691707 28.829825 51.153112 28.394531 49.666016 C 27.698443 47.28915 26.978329 44.833785 25.703125 41.607422 C 24.537704 38.666307 23.080777 35.391843 21.537109 31.925781 C 19.822776 28.077644 18.050414 24.098913 16.660156 20.503906 C 16.501937 20.102641 16.331235 19.682431 16.15625 19.25 C 15.160059 16.785881 14.03277 13.992634 14.005859 12.410156 C 13.979493 11.175216 14.516153 10.750877 14.992188 10.376953 L 15.007812 10.367188 C 15.230255 10.196506 15.46812 10.034223 15.697266 9.8769531 C 16.95713 9.0140348 18.259283 8.1224799 18.523438 5.2714844 C 18.644802 3.7931392 18.61793 1.9588611 18.464844 0 L 16.605469 0 C 16.624336 1.071167 16.604845 2.0840325 16.525391 2.9667969 C 16.22193 5.9803 14.747878 6.9335316 13.447266 7.7734375 C 13.238248 7.9081569 13.040334 8.0361786 12.845703 8.171875 L 12.810547 8.1972656 C 12.322041 8.5462759 11.817193 8.9073439 11.78125 9.9941406 C 11.763032 10.585709 11.898334 11.370278 12.183594 12.328125 C 12.612658 13.775415 13.238268 15.398195 13.84375 16.966797 C 14.017785 17.418375 14.192108 17.869606 14.361328 18.316406 C 15.622628 21.689955 17.218052 25.419351 18.761719 29.025391 C 20.26847 32.547064 21.694203 35.871456 22.820312 38.869141 C 24.018813 42.058106 24.676853 44.508757 25.314453 46.878906 C 25.76509 48.553929 26.230317 50.284911 26.880859 52.248047 C 28.039569 55.670466 30.071701 59.917442 32.755859 64.529297 C 34.834536 68.107519 37.727571 72.521353 41.603516 78.023438 C 45.254146 83.211958 48.905528 88.019745 52.767578 92.722656 C 58.447509 99.661487 64.464098 106.0313 69.273438 110.19727 C 74.426502 114.6624 77.485103 116.23962 79.949219 117.36719 L 79.886719 117.51367 C 77.413498 116.38179 74.341758 114.79935 69.173828 110.32031 C 64.358257 106.14956 58.334113 99.772169 52.648438 92.826172 C 48.783999 88.120362 45.131539 83.309064 41.478516 78.117188 C 37.600173 72.611293 34.702163 68.195351 32.621094 64.613281 C 29.931662 59.992344 27.896439 55.733303 26.734375 52.300781 C 26.08239 50.333348 25.615178 48.599301 25.164062 46.921875 C 24.527423 44.556034 23.86945 42.109511 22.673828 38.927734 C 21.548676 35.933406 20.125413 32.61059 18.619141 29.091797 C 17.074995 25.484313 15.479054 21.75237 14.216797 18.375 C 14.047582 17.928676 13.873716 17.47746 13.699219 17.025391 C 13.092297 15.453433 12.464664 13.830009 12.033203 12.376953 C 11.743162 11.40186 11.6058 10.597118 11.625 9.9882812 C 11.66383 8.8209451 12.226956 8.4192071 12.722656 8.0644531 L 12.757812 8.0390625 C 12.956285 7.9005383 13.161916 7.7660693 13.363281 7.6367188 C 14.695533 6.7762114 16.074307 5.8850966 16.369141 2.9511719 C 16.448299 2.0732552 16.467862 1.0653148 16.449219 0 L 14.412109 0 C 14.399473 0.19669892 14.395769 0.40893194 14.378906 0.59765625 C 14.068255 3.7497017 12.578274 4.673285 11.136719 5.5664062 C 10.937288 5.6900951 10.730769 5.8173481 10.535156 5.9472656 L 10.503906 5.96875 C 9.9943065 6.3158384 9.4683933 6.6745802 9.3964844 7.7421875 C 9.2857416 9.2710011 10.360342 12.127251 11.308594 14.646484 C 11.467758 15.069329 11.623271 15.480931 11.767578 15.875 C 12.939712 19.143546 14.423537 22.754634 15.857422 26.246094 C 17.398213 29.997872 18.853116 33.540259 19.964844 36.714844 C 21.012331 39.709173 21.591447 42.07065 22.152344 44.355469 C 22.584283 46.115829 23.031203 47.936517 23.6875 50.017578 C 24.810255 53.503312 26.782694 57.776109 29.390625 62.375 C 34.089699 70.710328 41.462029 81.34597 49.111328 90.822266 C 52.48247 95.024223 59.141548 102.95335 65.859375 108.86914 C 71.152429 113.53033 74.411967 115.26597 77.144531 116.44531 L 77.085938 116.58789 C 74.341373 115.40426 71.070591 113.66341 65.761719 108.98828 C 59.03526 103.06435 52.370108 95.12621 48.996094 90.921875 C 41.341519 81.439324 33.964622 70.795616 29.261719 62.453125 C 26.648512 57.845605 24.672984 53.562171 23.546875 50.066406 C 22.88866 47.97957 22.440709 46.15728 22.007812 44.394531 C 21.447873 42.113549 20.86931 39.754711 19.824219 36.767578 C 18.714406 33.597306 17.258584 30.056023 15.71875 26.306641 C 14.283429 22.812769 12.800044 19.20063 11.626953 15.929688 C 11.482665 15.536579 11.32859 15.123038 11.169922 14.701172 C 10.262898 12.290273 9.2402344 9.5737702 9.2402344 7.96875 A 3.4229134 3.4229134 0 0 1 9.2480469 7.7304688 C 9.3252286 6.5866129 9.9074866 6.189828 10.421875 5.8398438 L 10.453125 5.8164062 C 10.651116 5.6841099 10.86016 5.5563121 11.060547 5.4316406 C 12.469984 4.5586627 13.927982 3.6559445 14.230469 0.58203125 C 14.246883 0.39818364 14.249334 0.19146427 14.261719 0 L 11.886719 0 C 11.278133 1.938264 10.051816 2.697077 8.8476562 3.4140625 C 8.6410317 3.5367728 8.4274037 3.6634179 8.2246094 3.7929688 L 8.1972656 3.8105469 C 7.6665682 4.1590677 7.1172054 4.5190228 7.0117188 5.5722656 C 6.8386549 7.159078 8.0264657 10.391373 8.9804688 12.988281 C 9.1405763 13.422143 9.2956353 13.843837 9.4394531 14.244141 C 10.481672 17.23224 11.774604 20.507404 13.023438 23.673828 C 14.511496 27.44718 16.050184 31.349123 17.125 34.669922 C 18.037779 37.492629 18.541266 39.770328 19.029297 41.974609 C 19.436306 43.813108 19.856865 45.715412 20.511719 47.908203 C 21.554413 51.329696 23.466087 55.624306 26.037109 60.330078 C 28.424997 64.714186 31.960515 70.316819 36.259766 76.53125 C 39.368195 81.031851 42.39065 85.13952 45.501953 89.087891 C 48.891312 93.401522 55.605169 101.55708 62.494141 107.7207 C 68.184616 112.81146 71.714598 114.614 74.416016 115.70703 L 74.363281 115.84766 C 71.650359 114.75078 68.10569 112.93959 62.398438 107.83398 C 55.501314 101.66361 48.782377 93.499569 45.390625 89.181641 C 42.277882 85.231853 39.251449 81.1202 36.140625 76.617188 C 31.838974 70.399366 28.300924 64.792703 25.910156 60.404297 C 23.297429 55.62228 21.434952 51.43359 20.375 47.953125 C 19.718221 45.75412 19.296642 43.848707 18.888672 42.007812 C 18.401602 39.807368 17.898182 37.532791 16.988281 34.716797 C 15.914423 31.400309 14.376248 27.501425 12.888672 23.730469 C 11.638874 20.56259 10.346386 17.285417 9.3027344 14.294922 C 9.1589215 13.895579 9.004859 13.474388 8.8457031 13.041016 C 7.8360878 10.293102 6.6912581 7.1789287 6.8671875 5.5566406 C 6.9803269 4.4319742 7.5855639 4.0354895 8.1191406 3.6855469 L 8.1464844 3.6660156 C 8.3511874 3.5346392 8.5658507 3.4069638 8.7734375 3.2832031 C 9.9412577 2.5875765 11.131257 1.8535865 11.732422 0 L 8.4433594 0 C 7.8663158 0.56549673 7.2058246 0.96122944 6.5488281 1.3398438 C 6.3374093 1.4621039 6.1167234 1.5878092 5.9082031 1.7167969 L 5.890625 1.7285156 C 5.3359582 2.0799157 4.7630213 2.4431939 4.6230469 3.4882812 C 4.4015651 5.0482589 5.4656331 8.056025 6.4042969 10.710938 C 6.559149 11.14815 6.7115881 11.575413 6.8515625 11.982422 C 7.8175538 14.864562 9.0111394 18.022409 10.166016 21.076172 C 11.636813 24.965551 13.158474 28.986603 14.201172 32.427734 C 15.045872 35.211131 15.490414 37.482088 15.921875 39.677734 C 16.322172 41.713743 16.736673 43.818699 17.466797 46.314453 C 18.541134 49.901799 20.512057 54.386614 23.166016 59.283203 C 25.426386 63.463077 28.61919 68.621769 32.654297 74.615234 C 36.008654 79.60288 39.325471 84.180717 42.792969 88.611328 C 46.178488 92.950362 52.887109 101.14556 59.787109 107.28906 C 65.540866 112.41095 69.06248 114.13694 71.75 115.14844 L 71.703125 115.2832 C 69.004584 114.26736 65.465846 112.53616 59.695312 107.39844 C 52.787164 101.24725 46.071989 93.043558 42.683594 88.701172 C 39.214176 84.268145 35.895337 79.687814 32.539062 74.697266 C 28.501083 68.700448 25.30721 63.537233 23.044922 59.353516 C 20.385694 54.447806 18.411197 49.952895 17.333984 46.355469 C 16.601463 43.852998 16.186414 41.744443 15.785156 39.705078 C 15.354656 37.512788 14.908713 35.247383 14.066406 32.470703 C 13.025634 29.03436 11.506949 25.013925 10.037109 21.126953 C 8.8817577 18.071742 7.6856987 14.913376 6.71875 12.029297 C 6.5787718 11.622777 6.4278085 11.196978 6.2734375 10.759766 C 5.3290224 8.0895071 4.2590736 5.0622326 4.484375 3.4667969 C 4.6334694 2.3550693 5.2622213 1.957339 5.8164062 1.6054688 L 5.8359375 1.5917969 C 6.0468737 1.4613831 6.2680971 1.3351848 6.4804688 1.2128906 C 7.0857967 0.86410229 7.6951944 0.50080854 8.2363281 0 L 3.1601562 0 C 2.7209078 0.31468537 2.3400239 0.74136278 2.2167969 1.5722656 C 1.9737424 3.1346331 3.0115626 6.1548548 3.9257812 8.8203125 C 4.082056 9.2766935 4.2301096 9.7074107 4.3691406 10.123047 C 5.2435649 12.824953 6.314585 15.775031 7.3496094 18.628906 C 8.8117797 22.660177 10.322234 26.829342 11.322266 30.400391 C 12.087866 33.132966 12.479652 35.392541 12.857422 37.578125 C 13.207861 39.606463 13.571331 41.701457 14.232422 44.167969 C 15.264092 47.925983 17.233988 52.59652 19.927734 57.675781 C 24.87322 67.052846 32.25779 78.257526 40.189453 88.416016 C 43.562511 92.759381 50.250768 100.95427 57.144531 107.05078 C 62.982665 112.2139 66.61986 113.88344 69.136719 114.75977 L 69.09375 114.89062 C 66.566353 114.00997 62.914461 112.33666 57.058594 107.1582 C 50.156678 101.05447 43.462348 92.849649 40.085938 88.501953 C 32.14948 78.337734 24.757434 67.125961 19.808594 57.742188 C 17.11005 52.655272 15.136584 47.975111 14.101562 44.207031 C 13.438554 41.733807 13.075531 39.632777 12.724609 37.601562 C 12.346843 35.419335 11.956562 33.162883 11.193359 30.4375 C 10.19381 26.872204 8.6838654 22.7071 7.2226562 18.677734 C 6.1876315 15.823383 5.1170907 12.871294 4.2421875 10.167969 C 4.1036527 9.7537688 3.9551191 9.3226073 3.7988281 8.8671875 C 2.9728253 6.4591659 2.046875 3.7632792 2.046875 2.0820312 A 3.4948232 3.4948232 0 0 1 2.0839844 1.5507812 C 2.2011755 0.75988664 2.5528625 0.32141811 2.953125 0 L 0 0 z M 95.566406 125.07031 C 95.063994 124.73903 94.532896 124.37337 93.962891 123.96875 C 92.306566 122.79183 90.346306 121.27255 87.980469 119.22266 C 82.068993 114.09836 76.126141 107.72183 72.181641 103.27539 A 282.13676 282.13676 0 0 1 61.654297 90.716797 C 57.606245 85.608323 54.553253 81.505285 52.578125 78.521484 C 50.057445 74.720334 48.11684 71.301423 46.806641 68.359375 C 46.282174 67.175253 45.866581 66.094374 45.464844 65.048828 C 45.074615 64.036792 44.671198 62.988085 44.160156 61.818359 C 43.276624 59.790023 41.985359 57.225226 40.720703 54.753906 C 39.516455 52.430737 38.151462 49.918051 36.707031 47.259766 C 34.189226 42.625407 31.586934 37.834236 29.558594 33.525391 C 29.377861 33.143791 29.194357 32.76099 29.011719 32.378906 C 28.25331 30.793531 27.468426 29.153631 26.818359 27.615234 C 26.349029 26.504469 26.05256 25.593232 25.9375 24.90625 C 25.713143 23.556743 26.131821 23.04188 26.5 22.587891 L 26.529297 22.552734 C 26.747903 22.290027 26.978694 22.054439 27.224609 21.804688 C 28.202107 20.812796 29.212951 19.786338 29.294922 17.109375 C 29.371625 13.450599 28.441127 7.279044 27.029297 2.0996094 C 26.828985 1.3879984 26.609078 0.69050989 26.384766 0 L 25.269531 0 C 26.605255 5.0425974 27.467909 11.174834 27.330078 14.787109 C 27.196806 17.517284 26.062971 18.563961 25.060547 19.486328 C 24.786811 19.738003 24.527848 19.976143 24.291016 20.242188 C 23.93291 20.654953 23.525185 21.12233 23.751953 22.455078 C 23.845438 23.001114 24.053723 23.699929 24.371094 24.529297 C 24.945415 26.032215 25.722912 27.711731 26.474609 29.335938 C 26.681231 29.781778 26.887014 30.223941 27.087891 30.662109 C 28.970012 34.827135 31.396491 39.470881 33.742188 43.960938 C 35.184224 46.720839 36.544949 49.329656 37.732422 51.730469 C 38.897367 54.115974 40.203007 56.838445 41.058594 58.953125 C 41.475192 59.982876 41.815675 60.925094 42.144531 61.835938 C 42.538592 62.925617 42.91055 63.953475 43.40625 65.132812 C 46.786977 73.234173 56.565895 87.000147 68.925781 101.05664 C 72.1368 104.72641 78.449978 111.68742 84.658203 117.08594 C 88.728301 120.62342 91.498779 122.50471 93.962891 123.9707 C 94.53242 124.37581 95.064409 124.73907 95.566406 125.07031 z M 96.775391 125.61914 A 76.655523 76.655523 0 0 0 99.058594 126.98438 A 77.282577 77.282577 0 0 1 96.775391 125.61719 L 96.775391 125.61914 z M 9.3027344 119.57031 L 9.2070312 119.54102 C 9.2037672 119.54077 9.2005435 119.54125 9.1972656 119.54102 L 9.3027344 119.57031 z M 22.208984 0 C 22.816762 3.5165099 23.14228 7.1315718 23.029297 9.7441406 C 22.870133 12.769169 21.55468 13.796607 20.394531 14.705078 C 20.188871 14.865654 19.995534 15.019654 19.806641 15.181641 L 19.75 15.230469 C 19.303201 15.622127 18.841355 16.027482 18.949219 17.273438 C 19.075779 18.791212 20.185126 21.366329 21.164062 23.638672 A 195.20675 195.20675 0 0 1 21.697266 24.884766 C 23.360781 28.908368 25.53256 33.410754 27.632812 37.765625 C 29.149152 40.908089 30.580287 43.875538 31.777344 46.566406 C 33.360323 50.129775 34.241378 52.724203 35.09375 55.232422 C 35.564041 56.616439 36.051582 58.048608 36.648438 59.617188 C 37.897275 62.834922 39.833724 66.559342 42.402344 70.685547 C 44.702028 74.385542 48.103016 79.236729 52.240234 84.714844 C 55.378384 88.876024 58.457143 92.733047 61.652344 96.507812 C 65.010053 100.48587 71.623561 108.01367 78.1875 113.73242 C 83.08169 117.99668 86.101138 119.77446 88.740234 121.17578 C 86.725315 119.88617 84.346601 118.14699 81.232422 115.43359 C 75.012688 110.01303 68.705746 102.98008 65.5 99.269531 C 61.975451 95.199895 58.579892 91.023596 55.117188 86.498047 C 51.118035 81.279789 48.013408 76.950757 45.890625 73.634766 C 43.134556 69.336929 41.066842 65.479201 39.746094 62.169922 C 39.237932 60.867875 38.793301 59.64802 38.363281 58.466797 C 37.375715 55.75194 36.354371 52.944822 34.476562 48.964844 C 33.307304 46.486373 31.950911 43.784409 30.513672 40.923828 C 28.327611 36.571364 26.066146 32.068749 24.3125 28.03125 C 24.12889 27.611295 23.941821 27.190409 23.753906 26.767578 C 23.091375 25.274725 22.405002 23.729932 21.863281 22.304688 C 21.457693 21.237058 21.218977 20.366322 21.152344 19.712891 C 21.024344 18.440082 21.49349 17.978331 21.90625 17.572266 L 21.945312 17.533203 C 22.157685 17.329471 22.377365 17.143801 22.609375 16.947266 C 23.728293 15.999492 24.885132 15.019103 25.009766 12.150391 C 25.117505 9.0350091 24.551266 4.2694191 23.621094 0 L 22.208984 0 z M 23.800781 0 C 24.728859 4.2747207 25.293367 9.0402501 25.185547 12.160156 C 25.057068 15.110875 23.814177 16.1622 22.71875 17.089844 C 22.48912 17.284474 22.27204 17.467061 22.064453 17.666016 L 22.025391 17.705078 C 21.62415 18.101539 21.206814 18.509718 21.326172 19.693359 C 21.390411 20.330478 21.628001 21.188441 22.027344 22.240234 C 22.566668 23.661186 23.252011 25.201433 23.914062 26.691406 C 24.101507 27.114237 24.288098 27.537077 24.472656 27.957031 C 26.224381 31.990698 28.484818 36.489292 30.669922 40.839844 C 32.107162 43.701381 33.464071 46.405803 34.634766 48.886719 C 36.515449 52.873406 37.539818 55.683673 38.529297 58.402344 C 38.95836 59.582622 39.401991 60.802868 39.910156 62.101562 C 41.225628 65.399835 43.287261 69.246935 46.037109 73.535156 C 48.157492 76.84685 51.25763 81.170352 55.253906 86.384766 C 58.714215 90.906471 62.10823 95.081704 65.630859 99.148438 C 68.832773 102.85518 75.133132 109.88155 81.34375 115.29492 C 85.786346 119.16512 88.72987 121.0479 91.253906 122.47266 C 89.397958 121.2158 87.258601 119.59144 84.541016 117.22852 C 81.872681 114.90776 76.279239 109.73797 68.791016 101.18164 C 56.419144 87.110331 46.62767 73.325687 43.240234 65.207031 C 42.742614 64.023397 42.352373 62.944538 41.974609 61.900391 C 41.646225 60.990976 41.306263 60.049836 40.890625 59.023438 C 40.037295 56.914563 38.733336 54.194124 37.570312 51.8125 C 36.383797 49.413577 35.023585 46.808254 33.582031 44.048828 C 31.234891 39.555896 28.806876 34.910532 26.921875 30.740234 C 26.721966 30.303022 26.516701 29.859903 26.310547 29.414062 C 25.55741 27.7865 24.779843 26.104374 24.203125 24.595703 C 23.880974 23.754358 23.670098 23.044833 23.574219 22.486328 C 23.332122 21.064421 23.789031 20.537068 24.15625 20.113281 C 24.400744 19.839538 24.662368 19.598793 24.939453 19.34375 C 25.962493 18.401722 27.019015 17.428413 27.148438 14.777344 C 27.286707 11.170678 26.42145 5.0340598 25.082031 0 L 23.800781 0 z M 26.583984 0 C 26.801764 0.67270269 27.013755 1.3514893 27.208984 2.0449219 C 28.62513 7.2411354 29.559116 13.436764 29.482422 17.113281 C 29.397571 19.86839 28.311857 20.969841 27.355469 21.941406 C 27.112415 22.188293 26.884247 22.420739 26.671875 22.675781 L 26.642578 22.710938 C 26.283491 23.152934 25.913539 23.611747 26.123047 24.873047 C 26.235707 25.544208 26.526656 26.440245 26.990234 27.537109 C 27.637904 29.070709 28.422236 30.709037 29.179688 32.292969 L 29.726562 33.439453 C 31.752023 37.743981 34.35325 42.53306 36.869141 47.164062 C 38.314048 49.823773 39.679557 52.336075 40.884766 54.662109 C 42.151338 57.136785 43.444629 59.705648 44.330078 61.738281 C 44.842559 62.913321 45.246006 63.961695 45.636719 64.976562 C 46.05619 66.067671 46.452067 67.09801 46.974609 68.277344 C 48.279537 71.209331 50.21701 74.619558 52.732422 78.412109 C 54.703714 81.390604 57.754133 85.48912 61.798828 90.59375 A 281.7144 281.7144 0 0 0 72.318359 103.14453 C 76.259023 107.58713 82.196278 113.9576 88.099609 119.07422 C 91.897411 122.36533 94.644978 124.28446 96.773438 125.61719 C 95.257844 124.50369 93.513538 123.12474 91.478516 121.36914 C 85.888715 116.54254 80.295086 110.66707 76.587891 106.58789 C 73.064301 102.71913 69.640301 98.737297 66.117188 94.416016 C 61.699525 89.007886 58.220134 84.455262 56.054688 81.25 C 53.517222 77.502032 51.623801 74.250159 50.267578 71.306641 C 49.769002 70.219342 49.378053 69.258492 48.962891 68.240234 C 48.554445 67.239242 48.133734 66.202663 47.603516 65.044922 C 46.609243 62.869414 45.093138 60.002202 43.742188 57.484375 C 42.554717 55.29737 41.230884 52.951046 39.830078 50.466797 C 37.048601 45.533296 34.173844 40.432684 31.960938 35.876953 C 31.748565 35.444057 31.532134 35.009036 31.316406 34.574219 C 30.580527 33.088562 29.819932 31.551482 29.193359 30.113281 C 28.762856 29.125721 28.472985 28.293532 28.332031 27.638672 C 28.018025 26.168833 28.424518 25.591011 28.751953 25.126953 C 28.97919 24.813906 29.229986 24.536537 29.494141 24.242188 C 30.403559 23.229701 31.345018 22.181635 31.414062 19.625 C 31.47159 15.986842 30.45631 9.647777 28.941406 4.2089844 C 28.524933 2.7632087 28.048653 1.3700976 27.568359 0 L 26.583984 0 z M 28.828125 0 L 29 0.49414062 C 29.665406 2.3911328 30.354107 4.3521488 30.939453 6.3867188 C 32.433263 11.748323 33.495135 18.008095 33.523438 21.607422 C 33.521522 24.307399 32.567912 25.491024 31.726562 26.535156 C 31.440842 26.890394 31.169577 27.225818 30.939453 27.607422 C 30.669568 28.069084 30.333719 28.646868 30.714844 30.117188 C 31.141029 31.780225 32.465514 34.342702 33.634766 36.605469 C 33.871111 37.063294 34.102632 37.510322 34.318359 37.935547 C 36.713915 42.724749 39.870016 48.131543 42.921875 53.361328 C 44.275218 55.680654 45.553333 57.870152 46.71875 59.927734 C 48.25571 62.672295 49.824406 65.513805 50.888672 67.708984 C 51.507097 68.985142 51.98711 70.104012 52.451172 71.185547 C 52.858182 72.132836 53.24308 73.028205 53.712891 74.023438 C 55.09596 76.930053 56.986885 80.107817 59.494141 83.740234 C 61.661031 86.88795 65.036254 91.22586 69.523438 96.628906 C 73.054212 100.88932 76.4868 104.82042 80.017578 108.64844 C 83.724777 112.67586 89.313626 118.48273 94.882812 123.26953 C 97.211018 125.27009 99.171687 126.79211 100.85156 128 L 101.13867 128 C 100.26881 127.30645 99.347677 126.55154 98.357422 125.70508 C 92.760429 120.92117 87.131932 115.1436 83.394531 111.13867 C 80.221864 107.74455 77.094859 104.23479 73.833984 100.4082 C 70.717885 96.758563 66.367803 91.525134 63.34375 87.322266 C 60.63658 83.565181 58.636678 80.312305 57.052734 77.085938 C 56.756949 76.472301 56.471796 75.872774 56.1875 75.277344 C 54.518714 71.778193 52.942997 68.474477 49.734375 63.039062 C 48.544504 61.021279 47.249987 58.88486 45.878906 56.623047 C 42.801638 51.546197 39.619083 46.296115 37.138672 41.589844 C 36.946432 41.227421 36.752763 40.863402 36.558594 40.5 C 35.596918 38.698893 34.602053 36.837502 33.785156 35.103516 C 33.302402 34.079032 32.980554 33.248079 32.800781 32.564453 C 32.411491 31.07688 32.74026 30.45222 33.03125 29.902344 L 33.041016 29.884766 C 33.257703 29.487821 33.509312 29.138678 33.775391 28.769531 C 34.547703 27.696157 35.345894 26.585848 35.357422 24.15625 C 35.339207 21.287528 34.462161 15.183488 32.578125 8.5625 C 32.018664 6.6640785 31.375688 4.8165073 30.753906 3.0292969 L 30.478516 2.2402344 C 30.366354 1.9166475 30.257763 1.5981956 30.150391 1.2851562 C 29.999365 0.84543178 29.843913 0.42896721 29.693359 0 L 28.828125 0 z M 29.910156 0 C 30.052167 0.40580551 30.199229 0.79949659 30.341797 1.2148438 C 30.44966 1.5283782 30.557761 1.8448328 30.669922 2.1679688 L 30.943359 2.9550781 C 31.566574 4.7456395 32.212544 6.5968263 32.773438 8.5019531 C 34.142601 13.313211 35.535724 20.018367 35.560547 24.154297 C 35.548562 26.653404 34.69108 27.84269 33.935547 28.892578 C 33.673795 29.255965 33.428257 29.599419 33.21875 29.984375 L 33.208984 30 C 32.923235 30.54124 32.625962 31.101734 32.994141 32.507812 C 33.17008 33.178973 33.489315 33.996311 33.966797 35.009766 C 34.780815 36.737996 35.773656 38.597777 36.734375 40.396484 L 37.316406 41.488281 C 39.793939 46.189756 42.972996 51.43578 46.048828 56.509766 C 47.419912 58.77252 48.717376 60.908518 49.908203 62.927734 C 53.121618 68.37084 54.698434 71.681607 56.369141 75.185547 C 56.653425 75.78049 56.939054 76.377577 57.234375 76.990234 C 58.812558 80.205104 60.805398 83.448323 63.505859 87.195312 C 66.526076 91.392448 70.870676 96.62223 73.984375 100.26953 C 77.242853 104.09367 80.370264 107.60045 83.541016 110.99219 C 87.274097 114.99376 92.897499 120.76678 98.486328 125.54492 C 99.564742 126.46639 100.54293 127.25883 101.47852 128 L 102.04688 128 C 96.542129 123.30033 91.022987 117.71783 87.335938 113.82812 C 84.146969 110.46898 81.003221 107.00237 77.724609 103.22852 C 74.580704 99.616716 70.207468 94.458038 67.226562 90.402344 C 64.539046 86.750254 62.52991 83.559911 60.902344 80.363281 L 60.367188 79.291016 C 58.502319 75.54787 56.741059 72.010977 53.042969 66.013672 C 51.879948 64.125798 50.632288 62.145718 49.3125 60.048828 C 45.926981 54.669978 42.425473 49.108234 39.720703 44.144531 C 39.497783 43.737525 39.274643 43.331355 39.050781 42.925781 C 38.176357 41.343766 37.272613 39.70741 36.490234 38.146484 C 35.954743 37.078384 35.586238 36.210845 35.365234 35.494141 C 34.904049 33.987865 35.109951 33.304856 35.404297 32.628906 C 35.615233 32.162448 35.872235 31.756708 36.144531 31.328125 C 36.874177 30.179485 37.628675 28.990833 37.564453 26.466797 C 37.431663 22.535717 36.044948 16.094223 34.728516 11.455078 C 34.136458 9.4315251 33.448606 7.4558102 32.783203 5.5449219 C 32.636506 5.123545 32.489522 4.7051666 32.345703 4.2890625 L 32.128906 3.6542969 C 31.680982 2.3496713 31.263177 1.1602903 30.800781 0 L 29.910156 0 z M 31.027344 0 C 31.477694 1.1378203 31.885828 2.3045205 32.324219 3.5800781 L 32.541016 4.2128906 C 32.684847 4.6290124 32.829879 5.0478274 32.976562 5.46875 C 33.642926 7.3820319 34.333759 9.3623199 34.927734 11.392578 C 36.248479 16.045147 37.638219 22.508251 37.771484 26.458984 C 37.836686 29.052058 37.030747 30.322045 36.318359 31.443359 C 36.050374 31.86571 35.797981 32.263247 35.59375 32.714844 C 35.369427 33.230677 35.087898 33.875883 35.5625 35.425781 C 35.779667 36.130981 36.14361 36.98785 36.673828 38.044922 C 37.45381 39.602015 38.357961 41.235823 39.230469 42.816406 C 39.454349 43.22198 39.678479 43.627666 39.902344 44.035156 C 42.604241 48.99263 46.104104 54.553079 49.488281 59.929688 C 50.80807 62.026577 52.054765 64.007635 53.21875 65.896484 C 56.921632 71.902388 58.683997 75.441976 60.550781 79.189453 L 61.085938 80.261719 C 62.707748 83.447305 64.712258 86.627053 67.392578 90.269531 C 70.368695 94.319987 74.737401 99.472186 77.878906 103.08203 C 81.155605 106.85302 84.29637 110.31902 87.484375 113.67578 C 91.211744 117.60723 96.812811 123.27203 102.375 128 L 103.18359 128 C 99.596729 124.78212 95.711639 121.00642 91.585938 116.72852 C 88.38642 113.41536 85.223877 109.99288 81.916016 106.26172 C 78.904428 102.87047 74.726401 98.058438 71.923828 94.388672 C 68.980793 90.539548 66.85698 87.289781 65.041016 83.849609 L 64.859375 83.498047 C 62.838704 79.602416 60.930363 75.922341 56.855469 69.570312 C 55.648337 67.687715 54.358032 65.718208 52.994141 63.632812 C 49.282153 57.958642 45.445501 52.092309 42.503906 46.875 C 42.235919 46.40375 41.965209 45.932705 41.695312 45.462891 C 40.850131 43.988739 39.976275 42.463854 39.222656 41.013672 C 38.731269 40.068295 38.363376 39.256385 38.130859 38.599609 C 37.569002 37.006567 37.72886 36.252284 37.958984 35.558594 C 38.159379 34.980916 38.430573 34.495859 38.716797 33.982422 C 39.360152 32.828986 40.026811 31.634283 39.943359 29.236328 C 39.762146 25.040141 38.143826 18.295528 36.814453 13.794922 C 36.24828 11.935818 35.607663 10.111331 34.988281 8.3457031 C 34.813284 7.8456913 34.639891 7.347818 34.46875 6.8554688 C 34.343156 6.4920906 34.221411 6.1360665 34.101562 5.7851562 C 33.479784 3.9682315 32.892251 2.252798 32.083984 0.55859375 C 31.995757 0.3726399 31.898952 0.18613718 31.806641 0 L 31.027344 0 z M 32.044922 0 C 32.120647 0.15364105 32.200452 0.30740704 32.273438 0.4609375 C 33.087459 2.1661587 33.675201 3.8878004 34.298828 5.7109375 C 34.418666 6.0618693 34.540402 6.4183439 34.666016 6.78125 C 34.837169 7.2735996 35.012515 7.7699911 35.1875 8.2695312 C 35.807843 10.037552 36.448016 11.866092 37.015625 13.730469 C 38.349316 18.244991 39.972086 25.009297 40.154297 29.226562 C 40.239151 31.689242 39.55813 32.910555 38.900391 34.091797 C 38.618986 34.595646 38.353328 35.071365 38.160156 35.628906 C 37.943449 36.28281 37.792194 36.997512 38.330078 38.523438 C 38.558751 39.169669 38.921612 39.971935 39.408203 40.908203 C 40.159902 42.354553 41.034201 43.877374 41.878906 45.349609 C 42.148326 45.819424 42.41904 46.292425 42.6875 46.763672 C 45.625739 51.974748 49.460811 57.83846 53.169922 63.509766 C 54.534297 65.596103 55.825115 67.566133 57.033203 69.449219 C 61.113853 75.810855 63.023807 79.494902 65.046875 83.394531 L 65.228516 83.744141 C 67.038252 87.171874 69.154477 90.41342 72.089844 94.251953 C 74.888576 97.916027 79.063074 102.7244 82.072266 106.11328 C 85.378207 109.84157 88.538734 113.26347 91.736328 116.57422 C 95.933853 120.92674 99.876518 124.74787 103.51367 128 L 104.51172 128 C 101.84889 125.52666 99.053669 122.80742 96.125 119.82422 C 92.908225 116.55233 89.724405 113.17254 86.392578 109.49219 C 81.941833 104.58313 78.574182 100.67164 76.384766 97.865234 C 73.540486 94.222753 71.460943 91.135539 69.642578 87.855469 C 69.222143 87.093716 68.850107 86.3845 68.455078 85.632812 C 67.752283 84.293866 67.027742 82.909261 66.021484 81.226562 C 64.607733 78.861217 62.521509 75.697543 60.677734 72.917969 C 59.464378 71.10536 58.180881 69.220801 56.822266 67.224609 C 52.984669 61.586847 49.018265 55.756305 45.945312 50.560547 C 45.676849 50.110401 45.405644 49.659621 45.134766 49.208984 C 44.104534 47.49128 43.039093 45.715735 42.144531 44.050781 C 41.623905 43.081434 41.254289 42.294562 41.011719 41.642578 C 40.415838 40.035149 40.546195 39.24822 40.746094 38.519531 C 40.922038 37.908299 41.174383 37.391702 41.441406 36.84375 C 42.012368 35.671136 42.602602 34.458606 42.501953 32.171875 C 42.287178 28.154986 40.628822 21.512665 39.148438 16.634766 C 38.565963 14.77135 37.912617 12.935366 37.28125 11.160156 C 37.091408 10.627058 36.903308 10.097212 36.71875 9.5722656 C 36.587386 9.1983422 36.459109 8.8321582 36.333984 8.4707031 C 35.647006 6.4936602 34.998323 4.6252045 34.117188 2.7910156 C 33.716409 1.9544603 33.274764 1.1138382 32.845703 0.30078125 C 32.793303 0.20146237 32.741955 0.099646272 32.689453 0 L 32.044922 0 z M 32.9375 0 C 32.970651 0.062847787 33.004009 0.12673669 33.037109 0.18945312 C 33.466649 1.0053893 33.911759 1.8466296 34.314453 2.6875 C 35.201339 4.534156 35.850434 6.4073523 36.539062 8.390625 A 292.64664 292.64664 0 0 0 37.486328 11.080078 C 38.118654 12.85721 38.771101 14.695746 39.355469 16.564453 C 40.839689 21.455762 42.502523 28.119264 42.71875 32.158203 C 42.821341 34.505343 42.217712 35.743867 41.634766 36.941406 C 41.372051 37.480253 41.124779 37.989455 40.955078 38.580078 C 40.76479 39.268496 40.642438 40.015405 41.214844 41.558594 C 41.452625 42.200032 41.82106 42.979695 42.335938 43.939453 C 43.228099 45.599134 44.291521 47.372579 45.320312 49.087891 C 45.591652 49.538527 45.8624 49.988816 46.130859 50.439453 C 49.199976 55.628952 53.164913 61.456937 57 67.091797 A 892.05248 892.05248 0 0 1 60.857422 72.787109 C 62.702633 75.56857 64.788931 78.734818 66.205078 81.103516 C 67.214216 82.79149 67.942245 84.179639 68.646484 85.521484 C 69.040549 86.272684 69.413513 86.981347 69.832031 87.740234 C 71.644644 91.009261 73.718084 94.086333 76.554688 97.71875 C 78.740271 100.52082 82.103566 104.43092 86.550781 109.33594 A 341.36993 341.36993 0 0 0 96.277344 119.66211 C 99.27378 122.71439 102.12846 125.48266 104.8457 128 L 256 128 L 256 126.74219 L 256 126.73828 C 254.91559 126.35571 253.84058 125.96679 252.77344 125.57227 C 251.39373 125.07082 250.01139 124.57509 248.67578 124.0957 C 242.65835 121.93504 236.97616 119.89566 231.78906 117.45312 C 225.97109 114.71335 221.55774 111.83321 217.90039 108.39062 C 208.90206 99.87696 206.58962 92.535281 204.67969 84.503906 C 202.63122 75.647468 199.58184 67.526531 195.61914 60.367188 C 189.57102 49.486706 180.48519 38.691825 171.56836 28.646484 C 167.50928 24.092671 163.59223 20.18198 160.29492 16.958984 C 158.50197 15.210131 156.85293 13.45252 156.37305 11.179688 C 156.01685 9.4931671 155.79633 7.7818381 155.58203 6.1269531 C 155.33466 4.210792 155.07724 2.2312999 154.60742 0.22070312 C 154.59033 0.14714567 154.56997 0.073553148 154.55273 0 L 32.9375 0 z M 155.01367 0 C 155.0228 0.039096835 155.03388 0.07808869 155.04297 0.1171875 C 155.51854 2.1507967 155.77609 4.142645 156.02539 6.0703125 C 156.23825 7.715141 156.45769 9.4176284 156.81055 11.085938 C 157.2631 13.229816 158.86329 14.93088 160.60352 16.628906 C 163.9061 19.857666 167.83073 23.773049 171.89844 28.337891 C 180.8335 38.403361 189.93862 49.222302 196.00781 60.142578 C 199.9921 67.340745 203.05474 75.502755 205.11328 84.400391 C 207.00498 92.356047 209.29779 99.626841 218.20312 108.05273 C 226.1324 115.51701 236.64647 119.2924 248.82227 123.66406 C 250.15835 124.14395 251.54071 124.6402 252.92188 125.14258 A 238.11493 238.11493 0 0 0 256 126.25391 L 256 125.15039 C 244.61427 121.25864 234.02977 117.2162 226.17578 110.14844 C 221.63634 106.04718 218.27688 101.82577 215.90625 97.244141 C 213.71442 93.008152 212.57811 88.920366 211.60156 85.095703 C 209.25731 75.665914 206.14046 67.598672 202.07227 60.431641 C 195.87315 49.547353 186.4804 38.624333 177.25195 28.441406 C 173.34868 24.14982 169.21407 19.930407 164.61328 15.541016 C 163.1444 14.141176 161.13142 12.223511 160.47656 9.765625 C 159.9847 7.92138 159.64081 6.0335578 159.30859 4.2070312 C 159.05803 2.8302681 158.79833 1.4200199 158.47461 0 L 155.01367 0 z M 158.93945 0 C 159.25386 1.3928533 159.50855 2.7729822 159.75391 4.1210938 C 160.08421 5.9380185 160.42795 7.8175017 160.91406 9.6425781 C 161.48838 11.796043 163.06657 13.431114 164.91992 15.195312 C 169.52887 19.592366 173.67109 23.820872 177.58203 28.121094 C 186.82823 38.324154 196.24123 49.271227 202.46289 60.195312 C 206.55265 67.400222 209.6852 75.505543 212.03906 84.976562 C 214.17719 93.351686 216.73942 101.00131 226.47266 109.79492 C 234.22932 116.77499 244.71255 120.79469 256 124.65625 L 256 123.32227 C 254.05891 122.60702 252.16103 121.86528 250.31055 121.07617 C 243.8348 118.31292 238.87181 115.38282 234.69336 111.85156 C 229.7033 107.61847 225.98186 103.22294 223.31641 98.416016 C 220.88585 94.032852 219.55728 89.706232 218.48438 85.683594 C 214.98764 72.222531 211.00779 64.542088 208.31836 59.935547 C 201.49505 48.281808 191.02338 36.640941 181.74219 26.642578 C 177.48559 22.07342 173.33167 17.914463 169.04297 13.929688 C 167.28165 12.295427 165.28573 10.443338 164.5 7.8847656 C 163.93239 6.037638 163.49359 4.1413011 163.06836 2.3066406 C 162.89275 1.5482342 162.70646 0.77381995 162.51758 0 L 158.93945 0 z M 162.98828 0 C 163.16733 0.73712826 163.34627 1.474583 163.51367 2.1972656 C 163.93651 4.0228137 164.37321 5.9108775 164.93555 7.7421875 C 165.68293 10.178019 167.63192 11.984123 169.34961 13.578125 C 173.64599 17.570564 177.80753 21.736666 182.07227 26.314453 C 191.3707 36.331026 201.86368 47.996943 208.71094 59.691406 C 214.35587 69.360893 217.24406 79.085284 218.92578 85.558594 C 219.99102 89.550104 221.30922 93.844039 223.71484 98.181641 C 226.35202 102.93776 230.03842 107.28916 234.98438 111.48438 C 239.12686 114.98545 244.05083 117.89456 250.48438 120.63867 A 120.55511 120.55511 0 0 0 256 122.82031 L 256 120.79102 C 250.26687 118.20467 245.68916 115.40612 241.77344 112.10547 C 236.78383 107.88723 233.01873 103.52475 230.26172 98.771484 C 227.59866 94.181717 226.18648 89.761137 225.15625 86.041016 C 223.04881 78.247418 220.18087 69.052171 214.89453 59.929688 C 207.92262 47.935572 197.13891 36.136475 186.68945 25.080078 C 181.9084 20.03967 177.48502 15.679181 173.17188 11.751953 C 171.29597 10.045775 169.35537 8.2820617 168.45312 5.7695312 C 167.7704 3.8694037 167.21793 1.9091958 166.68359 0 L 162.98828 0 z M 167.16602 0 C 167.68673 1.8589556 168.22721 3.7628439 168.88867 5.6035156 C 169.75016 8.0024245 171.64724 9.725698 173.48047 11.392578 C 177.80226 15.327958 182.22986 19.697053 187.01953 24.746094 C 197.48866 35.823104 208.29565 47.643449 215.29297 59.681641 C 220.60759 68.852585 223.48745 78.087313 225.60352 85.910156 C 227.68556 93.429046 230.84653 102.24801 242.06641 111.73438 C 245.90639 114.97032 250.39343 117.72337 256 120.26758 L 256 117.1875 C 253.68834 115.83702 251.49162 114.35367 249.43164 112.70312 C 244.01635 108.35592 239.91169 103.81724 236.88477 98.828125 C 233.90627 93.919551 232.3378 89.115268 231.30469 85.478516 C 229.09516 77.515697 226.28174 68.239168 220.82617 58.876953 C 213.70325 46.684379 202.88855 35.016835 191.49609 23.142578 C 185.84493 17.273297 181.46423 12.997084 177.29297 9.28125 L 177.11719 9.125 C 175.20869 7.4279339 173.23341 5.6736032 172.23242 3.2109375 C 171.803 2.1559178 171.41066 1.0791639 171.03906 0 L 167.16602 0 z M 171.53711 0 C 171.88947 1.0174436 172.26024 2.0312297 172.66406 3.0234375 C 173.62286 5.3811223 175.55413 7.0976339 177.42188 8.7578125 L 177.59766 8.9160156 C 181.7785 12.639985 186.16738 16.923865 191.82812 22.802734 C 203.24167 34.698561 214.07876 46.388371 221.22852 58.626953 C 226.71333 68.039485 229.53719 77.353118 231.75391 85.34375 C 232.77886 88.949332 234.3339 93.71352 237.28125 98.572266 C 240.27894 103.51152 244.3466 108.00812 249.71875 112.32031 C 251.69052 113.89945 253.79189 115.32641 256 116.62891 L 256 112.26367 C 255.71955 112.047 255.44217 111.82699 255.16797 111.60547 C 249.68938 107.17391 245.53547 102.56763 242.46875 97.519531 C 239.42551 92.509348 237.81379 87.598599 236.75 83.880859 C 234.34725 75.271802 231.53407 66.080275 225.94141 56.65625 C 218.04377 43.37976 205.50768 30.479823 195.43359 20.113281 C 191.14583 15.717185 186.06979 10.614228 180.92773 6.1054688 L 180.64062 5.8554688 C 178.76807 4.2183233 176.83062 2.5248234 175.75195 0.1484375 C 175.7297 0.099421763 175.70961 0.049122022 175.6875 0 L 171.53711 0 z M 176.21289 0 C 177.25292 2.248251 179.12942 3.8921467 180.94727 5.4804688 L 181.23438 5.7304688 C 186.38888 10.250245 191.47359 15.362337 195.76758 19.765625 C 205.85941 30.1499 218.41835 43.074026 226.3457 56.400391 C 231.96904 65.876653 234.79564 75.104405 237.20703 83.744141 C 239.21428 90.762568 241.28859 94.652773 242.87109 97.257812 C 245.90808 102.25699 250.02404 106.82458 255.45898 111.2207 C 255.63781 111.36499 255.81881 111.50854 256 111.65039 L 256 106.48438 C 252.6768 103.35871 249.93929 100.08359 247.7168 96.583984 C 245.08201 92.43381 243.17471 88.038804 241.53516 82.332031 C 239.24746 74.158727 236.40312 63.987661 230.33203 53.886719 C 222.32749 40.596297 209.93267 27.94157 198.99805 16.775391 L 198.8125 16.583984 C 193.34926 11.023906 188.75618 6.4926658 184.10938 2.4589844 L 183.71484 2.1191406 C 182.93111 1.4427294 182.14577 0.74439884 181.4043 0 L 176.21289 0 z M 182.10352 0 C 182.7286 0.60006948 183.37293 1.180057 184.02148 1.7402344 L 184.41797 2.0820312 C 189.07677 6.1257685 193.6766 10.661764 199.14844 16.230469 L 199.33594 16.423828 C 210.28926 27.609174 222.70355 40.28671 230.73828 53.626953 C 236.84487 63.786384 239.70025 73.99273 241.99609 82.193359 C 243.62079 87.850756 245.50924 92.205023 248.11719 96.3125 C 250.24572 99.66448 252.85178 102.80811 256 105.81445 L 256 98.931641 A 48.893967 48.893967 0 0 1 252.53516 94.128906 C 249.92099 89.993128 247.96671 85.475972 246.38086 79.910156 C 243.97476 71.257948 241.24714 61.453376 235.45312 51.636719 C 227.34744 37.940747 214.49649 24.943802 203.1582 13.476562 L 202.3457 12.65625 C 197.93679 8.212599 193.60248 3.8947057 189.22461 0 L 182.10352 0 z M 189.96094 0 C 194.20615 3.8045139 198.40939 7.9910165 202.68359 12.298828 L 203.49609 13.119141 C 214.855 24.606512 227.72987 37.62779 235.86719 51.376953 C 241.69572 61.251649 244.42998 71.090031 246.84375 79.771484 C 248.4157 85.286987 250.35408 89.764341 252.94141 93.857422 A 48.264997 48.264997 0 0 0 256 98.150391 L 256 88.240234 C 254.29333 85.034972 252.92278 81.586431 251.78516 77.660156 C 251.63224 77.11892 251.48052 76.575355 251.32812 76.03125 C 248.79211 67.022852 246.17047 57.70928 240.40234 48.052734 C 232.08092 34.152065 218.9539 21.047005 207.37305 9.484375 L 206.01758 8.1289062 C 203.18586 5.3103622 200.43739 2.5904493 197.70508 0 L 189.96094 0 z M 198.43945 0 C 201.04305 2.4802646 203.66181 5.0827684 206.35742 7.765625 L 206.38086 7.7890625 L 207.71289 9.1210938 C 219.31437 20.70387 232.46483 33.831787 240.81836 47.787109 C 246.62149 57.502143 249.25271 66.849133 251.79688 75.890625 A 1350.5071 1350.5071 0 0 0 252.25586 77.517578 C 253.28562 81.072322 254.50715 84.229759 256 87.169922 L 256 69.572266 C 253.65574 61.378378 251.01371 52.929915 245.77148 44.21875 C 237.20125 30.006469 223.6635 16.69949 211.7207 4.9589844 C 211.14397 4.391861 210.57149 3.8284717 210.00195 3.2675781 L 209.00391 2.2890625 C 208.21398 1.514084 207.44014 0.76013015 206.66211 0 L 198.43945 0 z M 207.38086 0 C 208.03456 0.63953268 208.68151 1.2701369 209.34375 1.9199219 L 210.3418 2.8984375 C 210.91181 3.4593485 211.48532 4.0232094 212.0625 4.5898438 C 224.02688 16.350968 237.58713 29.681325 246.19141 43.949219 C 251.11674 52.133064 253.75641 60.070568 256 67.78125 L 256 48.830078 C 254.71138 45.905257 253.20761 42.950103 251.39453 39.966797 C 242.53943 25.427339 228.56206 11.921536 216.2168 0 L 207.38086 0 z M 216.94727 0 C 229.21939 11.852005 243.01882 25.248422 251.81641 39.693359 A 75.838147 75.838147 0 0 1 256 47.601562 L 256 33.414062 C 248.18354 21.410428 237.08646 10.203107 226.42773 0 L 216.94727 0 z M 227.17188 0 C 237.54036 9.9400002 248.27874 20.824603 256 32.484375 L 256 20.283203 C 250.35256 13.183813 243.80727 6.4119272 237.17969 0 L 227.17188 0 z M 237.91797 0 C 244.27071 6.162057 250.53898 12.650847 256 19.451172 L 256 8.0996094 C 253.49417 5.341424 250.88013 2.645573 248.22266 0 L 237.91797 0 z M 248.9707 0 C 251.36728 2.3951097 253.72601 4.8322984 256 7.3203125 L 256 0 L 248.9707 0 z M 0 114.62695 L 0 115.89844 A 33.013855 33.013855 0 0 0 3.1992188 117.66406 C 5.3296709 118.68183 7.3429459 119.30977 9.1972656 119.53906 C 7.8712475 119.13011 6.4789688 118.54506 5.0273438 117.78711 C 3.40841 116.94146 1.727276 115.8854 0 114.62695 z M 99.734375 127.43359 A 69.579102 69.579102 0 0 0 100.5293 128 A 68.966433 68.966433 0 0 1 99.740234 127.43555 L 99.734375 127.43359 z "
       transform="scale(0.26458334)" />
    <g
       transform="matrix(0.7936508,0,0,0.7936508,22.74127,4.2619048)"
       fill="#040404"
       id="g23275"
       style="fill:#ffffff">
      <path
         d="M 27.1,31.2 V 0.7 h -2.19 v -0.732 h 3.04 v 32 h -3.04 v -0.732 z"
         id="path23269"
         style="fill:#ffffff" />
      <path
         d="m 8.23,10.4 v 1.54 h 0.044 c 0.385,-0.564 0.893,-1.03 1.49,-1.37 0.58,-0.323 1.25,-0.485 1.99,-0.485 0.72,0 1.38,0.14 1.97,0.42 0.595,0.279 1.05,0.771 1.36,1.48 0.338,-0.5 0.796,-0.941 1.38,-1.32 0.58,-0.383 1.27,-0.574 2.06,-0.574 0.602,0 1.16,0.074 1.67,0.22 0.514,0.148 0.954,0.383 1.32,0.707 0.366,0.323 0.653,0.746 0.859,1.27 0.205,0.522 0.308,1.15 0.308,1.89 v 7.63 h -3.13 v -6.46 c 0,-0.383 -0.015,-0.743 -0.044,-1.08 -0.0209,-0.307 -0.103,-0.607 -0.242,-0.882 -0.133,-0.251 -0.336,-0.458 -0.584,-0.596 -0.257,-0.146 -0.606,-0.22 -1.05,-0.22 -0.44,0 -0.796,0.085 -1.07,0.253 -0.272,0.17 -0.485,0.39 -0.639,0.662 -0.159,0.287 -0.264,0.602 -0.308,0.927 -0.052,0.347 -0.078,0.697 -0.078,1.05 v 6.35 h -3.13 v -6.4 c 0,-0.338 -0.007,-0.673 -0.021,-1 -0.0114,-0.314 -0.0749,-0.623 -0.188,-0.916 -0.108,-0.277 -0.3,-0.512 -0.55,-0.673 -0.258,-0.168 -0.636,-0.253 -1.14,-0.253 -0.198,0.0083 -0.394,0.042 -0.584,0.1 -0.258,0.0745 -0.498,0.202 -0.705,0.374 -0.228,0.184 -0.422,0.449 -0.584,0.794 -0.161,0.346 -0.242,0.798 -0.242,1.36 v 6.62 h -3.13 v -11.4 z"
         id="path23271"
         style="fill:#ffffff" />
      <path
         d="m 0.936,0.732 v 30.5 h 2.19 v 0.732 h -3.04 v -32 h 3.03 v 0.732 z"
         id="path23273"
         style="fill:#ffffff" />
    </g>
  </g>
  <style
     id="style827">
		tspan { white-space:pre }
		.shp0 { fill: #3498db } 
		.shp1 { fill: #ffffff } 
		.shp2 { fill: #8a9595 } 
	</style>
</svg>
