<?xml version="1.0" encoding="UTF-8" standalone="no"?>
<svg
   xmlns:dc="http://purl.org/dc/elements/1.1/"
   xmlns:cc="http://creativecommons.org/ns#"
   xmlns:rdf="http://www.w3.org/1999/02/22-rdf-syntax-ns#"
   xmlns:svg="http://www.w3.org/2000/svg"
   xmlns="http://www.w3.org/2000/svg"
   xmlns:xlink="http://www.w3.org/1999/xlink"
   xmlns:sodipodi="http://sodipodi.sourceforge.net/DTD/sodipodi-0.dtd"
   xmlns:inkscape="http://www.inkscape.org/namespaces/inkscape"
   inkscape:version="1.0.1 (3bc2e813f5, 2020-09-07)"
   id="svg8"
   version="1.1"
   viewBox="0 0 67.733332 33.866668"
   height="128"
   width="256"
   sodipodi:docname="nextcloud.svg">
  <defs
     id="defs2">
	
	
<linearGradient
   x1="112.49854"
   y1="6.1372099"
   x2="112.49853"
   y2="129.3468"
   id="path1082_2_"
   gradientUnits="userSpaceOnUse"
   gradientTransform="translate(287,-83)">
  <stop
     id="stop193"
     style="stop-color:#ffffff;stop-opacity:0"
     offset="0" />
  <stop
     id="stop195"
     style="stop-color:#ffffff;stop-opacity:0.27450982"
     offset="1" />
  <midPointStop
     offset="0"
     style="stop-color:#FFFFFF"
     id="midPointStop197" />
  <midPointStop
     offset="0.5"
     style="stop-color:#FFFFFF"
     id="midPointStop199" />
  <midPointStop
     offset="1"
     style="stop-color:#000000"
     id="midPointStop201" />
</linearGradient>
<linearGradient
   x1="541.33502"
   y1="104.50665"
   x2="606.91248"
   y2="303.14029"
   id="linearGradient2544"
   xlink:href="#path1082_2_"
   gradientUnits="userSpaceOnUse"
   gradientTransform="matrix(-0.3937741,0,0,0.393752,357.51969,122.00151)" />
<linearGradient
   id="linearGradient3388">
  <stop
     id="stop3390"
     style="stop-color:#000000;stop-opacity:0"
     offset="0" />
  <stop
     id="stop3392"
     style="stop-color:#000000;stop-opacity:0.37113401"
     offset="1" />
</linearGradient>
<linearGradient
   x1="490.72305"
   y1="237.72447"
   x2="490.72305"
   y2="183.9644"
   id="linearGradient4416"
   xlink:href="#linearGradient3388"
   gradientUnits="userSpaceOnUse"
   gradientTransform="matrix(0.749107,0,0,0.749107,-35.459862,91.44108)" />
<clipPath
   clipPathUnits="userSpaceOnUse"
   id="clipPath3083">
  <path
     d="M 0,551.986 H 530.973 V 0 H 0 Z"
     id="path3081" />
</clipPath>
</defs>
  <sodipodi:namedview
     units="px"
     showgrid="false"
     inkscape:document-rotation="0"
     inkscape:current-layer="layer1"
     inkscape:document-units="px"
     inkscape:cy="66.247212"
     inkscape:cx="150.96432"
     inkscape:zoom="5.12"
     inkscape:pageshadow="2"
     inkscape:pageopacity="0"
     borderopacity="1.0"
     bordercolor="#666666"
     pagecolor="#ffffff"
     id="base"
     inkscape:window-width="2560"
     inkscape:window-height="1376"
     inkscape:window-x="0"
     inkscape:window-y="0"
     inkscape:window-maximized="1" />
  <metadata
     id="metadata5">
    <rdf:RDF>
      <cc:Work
         rdf:about="">
        <dc:format>image/svg+xml</dc:format>
        <dc:type
           rdf:resource="http://purl.org/dc/dcmitype/StillImage" />
        <dc:title></dc:title>
      </cc:Work>
    </rdf:RDF>
  </metadata>
  <g
     id="layer1"
     inkscape:groupmode="layer"
     inkscape:label="Layer 1">
    <rect
       style="fill:#1c71d8;stroke-width:3.47907;stroke-linecap:round;paint-order:markers stroke fill"
       id="rect848"
       width="67.733337"
       height="33.866669"
       x="-1.7011719e-06"
       y="-8.5058593e-07" />
    <path
       style="color:#000000;font-style:normal;font-variant:normal;font-weight:normal;font-stretch:normal;font-size:medium;line-height:normal;font-family:sans-serif;text-indent:0;text-align:start;text-decoration:none;text-decoration-line:none;text-decoration-style:solid;text-decoration-color:#000000;letter-spacing:normal;word-spacing:normal;text-transform:none;writing-mode:lr-tb;direction:ltr;baseline-shift:baseline;text-anchor:start;white-space:normal;clip-rule:nonzero;display:inline;overflow:visible;visibility:visible;isolation:auto;mix-blend-mode:normal;color-interpolation:sRGB;color-interpolation-filters:linearRGB;solid-color:#000000;solid-opacity:1;fill:#ffffff;fill-opacity:1;fill-rule:nonzero;stroke:none;stroke-width:1.24129;stroke-linecap:butt;stroke-linejoin:miter;stroke-miterlimit:10;stroke-dasharray:none;stroke-dashoffset:0;stroke-opacity:1;color-rendering:auto;image-rendering:auto;shape-rendering:auto;text-rendering:auto;enable-background:accumulate"
       d="m 33.886023,11.151702 c -2.632786,0 -4.864291,1.784855 -5.555909,4.203134 -0.601088,-1.282692 -1.903667,-2.181326 -3.404011,-2.181326 -2.063327,0 -3.759436,1.696109 -3.759436,3.759437 0,2.063325 1.696109,3.760208 3.759436,3.760208 1.500344,0 2.802923,-0.899183 3.404011,-2.182097 0.691618,2.418458 2.923123,4.203907 5.555909,4.203907 2.613317,0 4.833444,-1.758521 5.542749,-4.149703 0.612197,1.253791 1.898652,2.127893 3.377685,2.127893 2.063327,0 3.76021,-1.696883 3.76021,-3.760208 0,-2.063328 -1.696883,-3.759437 -3.76021,-3.759437 -1.479033,0 -2.765488,0.873553 -3.377685,2.127122 -0.709305,-2.390997 -2.929432,-4.14893 -5.542749,-4.14893 z m 0,2.206877 c 1.987456,0 3.575145,1.586918 3.575145,3.574368 0,1.987449 -1.587689,3.575141 -3.575145,3.575141 -1.987445,0 -3.574363,-1.587692 -3.574363,-3.575141 0,-1.98745 1.586918,-3.574368 3.574363,-3.574368 z m -8.95992,2.021811 c 0.870746,0 1.553332,0.681807 1.553332,1.552557 0,0.870748 -0.682586,1.553331 -1.553332,1.553331 -0.870749,0 -1.552559,-0.682583 -1.552559,-1.553331 0,-0.87075 0.68181,-1.552557 1.552559,-1.552557 z m 17.880354,0 c 0.870752,0 1.553331,0.681807 1.553331,1.552557 0,0.870748 -0.682583,1.553331 -1.553331,1.553331 -0.870746,0 -1.552555,-0.682583 -1.552555,-1.553331 0,-0.87075 0.681814,-1.552557 1.552555,-1.552557 z"
       id="XMLID_107_"
       inkscape:connector-curvature="0" />
  </g>
</svg>
