<?xml version="1.0" encoding="UTF-8" standalone="no"?>
<svg
   xmlns:dc="http://purl.org/dc/elements/1.1/"
   xmlns:cc="http://creativecommons.org/ns#"
   xmlns:rdf="http://www.w3.org/1999/02/22-rdf-syntax-ns#"
   xmlns:svg="http://www.w3.org/2000/svg"
   xmlns="http://www.w3.org/2000/svg"
   xmlns:xlink="http://www.w3.org/1999/xlink"
   xmlns:sodipodi="http://sodipodi.sourceforge.net/DTD/sodipodi-0.dtd"
   xmlns:inkscape="http://www.inkscape.org/namespaces/inkscape"
   inkscape:version="1.0.1 (3bc2e813f5, 2020-09-07)"
   id="svg8"
   version="1.1"
   viewBox="0 0 67.733332 33.866668"
   height="128"
   width="256"
   sodipodi:docname="plausible.svg">
  <defs
     id="defs2">
    <linearGradient
       inkscape:collect="always"
       xlink:href="#linearGradient882"
       id="linearGradient884"
       x1="-20.190187"
       y1="-39.332386"
       x2="8.1792717"
       y2="-68.570198"
       gradientUnits="userSpaceOnUse" />
    <linearGradient
       inkscape:collect="always"
       id="linearGradient882">
      <stop
         style="stop-color:#5f6cc3;stop-opacity:1"
         offset="0"
         id="stop878" />
      <stop
         style="stop-color:#6574cd;stop-opacity:1"
         offset="1"
         id="stop880" />
    </linearGradient>
    <linearGradient
       inkscape:collect="always"
       xlink:href="#linearGradient874"
       id="linearGradient876"
       x1="-14.486417"
       y1="-119.34005"
       x2="-14.486417"
       y2="-220.50223"
       gradientUnits="userSpaceOnUse" />
    <linearGradient
       inkscape:collect="always"
       id="linearGradient874">
      <stop
         style="stop-color:#525eb8;stop-opacity:0.99607843"
         offset="0"
         id="stop870" />
      <stop
         style="stop-color:#334bd8;stop-opacity:0.87058824"
         offset="1"
         id="stop872" />
    </linearGradient>
    <linearGradient
       inkscape:collect="always"
       xlink:href="#linearGradient866"
       id="linearGradient868"
       x1="-47.809708"
       y1="-88.051056"
       x2="-85.785431"
       y2="-127.00474"
       gradientUnits="userSpaceOnUse" />
    <linearGradient
       inkscape:collect="always"
       id="linearGradient866">
      <stop
         style="stop-color:#4e5dc5;stop-opacity:0.81568629"
         offset="0"
         id="stop862" />
      <stop
         style="stop-color:#6675cf;stop-opacity:0.55686277"
         offset="1"
         id="stop864" />
    </linearGradient>
  </defs>
  <sodipodi:namedview
     units="px"
     showgrid="false"
     inkscape:document-rotation="0"
     inkscape:current-layer="layer1"
     inkscape:document-units="px"
     inkscape:cy="65.183991"
     inkscape:cx="146.53293"
     inkscape:zoom="3.959798"
     inkscape:pageshadow="2"
     inkscape:pageopacity="0"
     borderopacity="1.0"
     bordercolor="#666666"
     pagecolor="#ffffff"
     id="base"
     inkscape:window-width="2560"
     inkscape:window-height="1376"
     inkscape:window-x="0"
     inkscape:window-y="0"
     inkscape:window-maximized="1" />
  <metadata
     id="metadata5">
    <rdf:RDF>
      <cc:Work
         rdf:about="">
        <dc:format>image/svg+xml</dc:format>
        <dc:type
           rdf:resource="http://purl.org/dc/dcmitype/StillImage" />
        <dc:title></dc:title>
      </cc:Work>
    </rdf:RDF>
  </metadata>
  <g
     id="layer1"
     inkscape:groupmode="layer"
     inkscape:label="Layer 1">
    <rect
       style="fill:#f6f5f4;stroke-width:3.47907;stroke-linecap:round;paint-order:markers stroke fill"
       id="rect848"
       width="67.733337"
       height="33.866669"
       x="-1.7011719e-06"
       y="-8.5058593e-07" />
    <g
       id="g889"
       transform="matrix(0.44997579,0,0,0.44997579,35.591363,37.452966)">
      <circle
         style="opacity:1;fill:url(#linearGradient884);fill-opacity:1;stroke-width:3.43905;stroke-linecap:round;paint-order:markers stroke fill"
         id="path844"
         cx="-3.8328645"
         cy="-52.700382"
         r="21.124994" />
      <path
         style="opacity:1;fill:url(#linearGradient876);fill-opacity:1;stroke-width:12.998;stroke-linecap:round;paint-order:markers stroke fill"
         d="m -32.773438,-121.46289 a 79.842496,79.842496 0 0 0 18.28711,2.12305 79.842496,79.842496 0 0 0 79.841797,-79.8418 79.842496,79.842496 0 0 0 -9.121094,-37.06055 c 12.013361,27.56173 -14.035156,31.31055 -14.035156,31.31055 h -53.363281 c -22.680613,0 -21.609376,22.62109 -21.609376,22.62109 z"
         transform="scale(0.26458334)"
         id="path860" />
      <path
         id="path846"
         style="fill:url(#linearGradient868);fill-opacity:1;stroke:none;stroke-width:0.999999px;stroke-linecap:butt;stroke-linejoin:miter;stroke-opacity:1"
         d="m -94.328125,-199.18164 v 133.478515 c 0,0 53.457934,2.873349 61.554687,-55.759765 a 79.842496,79.842496 0 0 1 -61.554687,-77.71875 z"
         transform="scale(0.26458334)" />
    </g>
  </g>
</svg>
