<?xml version="1.0" encoding="UTF-8" standalone="no"?>
<svg
   xmlns:dc="http://purl.org/dc/elements/1.1/"
   xmlns:cc="http://creativecommons.org/ns#"
   xmlns:rdf="http://www.w3.org/1999/02/22-rdf-syntax-ns#"
   xmlns:svg="http://www.w3.org/2000/svg"
   xmlns="http://www.w3.org/2000/svg"
   xmlns:sodipodi="http://sodipodi.sourceforge.net/DTD/sodipodi-0.dtd"
   xmlns:inkscape="http://www.inkscape.org/namespaces/inkscape"
   inkscape:version="1.0.1 (3bc2e813f5, 2020-09-07, custom)"
   id="svg8"
   version="1.1"
   viewBox="0 0 67.733332 33.866668"
   height="128"
   width="256"
   sodipodi:docname="primevideo.svg">
  <defs
     id="defs2">
	

		
		
		
		
		
		
		
		
		
		
		
		
		
		
		
		
	</defs>
  <sodipodi:namedview
     units="px"
     showgrid="false"
     inkscape:document-rotation="0"
     inkscape:current-layer="layer1"
     inkscape:document-units="px"
     inkscape:cy="73.286211"
     inkscape:cx="135.60324"
     inkscape:zoom="1.979899"
     inkscape:pageshadow="2"
     inkscape:pageopacity="0"
     borderopacity="1.0"
     bordercolor="#666666"
     pagecolor="#ffffff"
     id="base"
     inkscape:window-width="2560"
     inkscape:window-height="1376"
     inkscape:window-x="0"
     inkscape:window-y="0"
     inkscape:window-maximized="1" />
  <metadata
     id="metadata5">
    <rdf:RDF>
      <cc:Work
         rdf:about="">
        <dc:format>image/svg+xml</dc:format>
        <dc:type
           rdf:resource="http://purl.org/dc/dcmitype/StillImage" />
        <dc:title></dc:title>
      </cc:Work>
    </rdf:RDF>
  </metadata>
  <g
     id="layer1"
     inkscape:groupmode="layer"
     inkscape:label="Layer 1">
    <rect
       style="fill:#1a242e;stroke-width:3.47907;stroke-linecap:round;paint-order:markers stroke fill;fill-opacity:1"
       id="rect848"
       width="67.733337"
       height="33.866669"
       x="-1.7011719e-06"
       y="-8.5058593e-07" />
    <path
       style="fill:#00a8e1;stroke-width:0.264583;fill-opacity:1"
       d="m 34.261576,27.98219 c -0.244755,-0.0061 -0.489511,-0.0061 -0.734267,0 -0.336539,-0.01835 -0.673078,-0.03059 -1.009617,-0.05507 -0.893358,-0.06731 -1.780598,-0.201923 -2.64948,-0.403847 -3.004376,-0.697553 -5.641619,-2.098779 -7.942322,-4.136371 -0.214162,-0.189685 -0.416085,-0.385489 -0.624127,-0.581294 -0.04895,-0.04283 -0.09178,-0.104022 -0.116259,-0.165211 -0.03672,-0.08566 -0.01835,-0.177447 0.04283,-0.244755 0.06119,-0.06731 0.159091,-0.09178 0.244756,-0.05507 0.05507,0.02448 0.11014,0.04895 0.15909,0.07955 2.196683,1.358394 4.595289,2.349654 7.110153,2.937068 0.844407,0.195804 1.694933,0.348777 2.551578,0.458917 1.229898,0.152972 2.472033,0.208042 3.708049,0.16521 0.666959,-0.01835 1.327799,-0.07955 1.98864,-0.16521 1.541961,-0.195804 3.065565,-0.544581 4.540218,-1.034093 0.777099,-0.256993 1.535842,-0.5507 2.276228,-0.893358 0.11014,-0.06119 0.244755,-0.07955 0.367133,-0.04895 0.201924,0.04895 0.324301,0.256993 0.27535,0.458917 -0.0061,0.02448 -0.01836,0.05507 -0.03059,0.07955 -0.04895,0.09178 -0.116259,0.171329 -0.201923,0.232517 -0.703673,0.550701 -1.462416,1.034093 -2.26399,1.43794 -1.511367,0.764861 -3.126754,1.309443 -4.791093,1.621506 -0.960666,0.171329 -1.927451,0.275351 -2.900355,0.312064 z"
       id="path893" />
    <path
       style="fill:#00a8e1;stroke-width:0.264583"
       d="m 44.779952,22.01627 c 0.403847,0.01224 0.801575,0.03672 1.193184,0.140735 0.11014,0.03059 0.214161,0.06731 0.318182,0.116259 0.140734,0.05507 0.232518,0.189686 0.250875,0.336539 0.02448,0.171329 0.03059,0.348777 0.01835,0.526225 -0.07955,1.04633 -0.403847,2.055947 -0.942309,2.955425 -0.195805,0.324301 -0.434442,0.618008 -0.709792,0.875001 -0.05507,0.05507 -0.122378,0.0979 -0.195805,0.122378 -0.116258,0.03059 -0.189685,-0.03059 -0.195804,-0.146853 0.0061,-0.06119 0.01836,-0.122378 0.04283,-0.183567 0.214162,-0.575176 0.422204,-1.144233 0.587414,-1.737765 0.0979,-0.324302 0.16521,-0.654722 0.208042,-0.991261 0.01224,-0.122378 0.01836,-0.244755 0.0061,-0.367134 -0.0061,-0.208042 -0.140734,-0.38549 -0.342658,-0.446679 -0.189685,-0.06119 -0.38549,-0.0979 -0.587413,-0.11014 -0.562938,-0.02448 -1.125876,0 -1.682696,0.07343 l -0.740385,0.09178 c -0.07955,0.0061 -0.152973,0 -0.195805,-0.07343 -0.04283,-0.07343 -0.02448,-0.146853 0.01836,-0.220279 0.04895,-0.06731 0.11014,-0.128497 0.183566,-0.171329 0.452798,-0.324302 0.960666,-0.520106 1.499129,-0.648603 0.416085,-0.08567 0.838288,-0.128497 1.266611,-0.140735 z"
       id="path901" />
    <g
       id="g1007"
       transform="matrix(0.59322171,0,0,0.59322171,52.683836,32.078286)"
       style="stroke-width:1.68571">
      <path
         style="fill:#00a8e1;stroke-width:0.44601"
         d="m -25.151989,-39.748835 c 0.257867,-0.15472 0.526048,-0.319755 0.804545,-0.464161 0.722027,-0.371328 1.526572,-0.556993 2.341432,-0.515734 0.587937,0.03094 1.1243,0.195979 1.536887,0.629196 0.391958,0.402272 0.536364,0.897377 0.577623,1.43374 0.01031,0.113462 0.01031,0.226923 0.01031,0.350699 v 5.343005 c 0,0.46416 -0.06189,0.526048 -0.526048,0.526048 h -1.258391 c -0.08252,0 -0.165035,0 -0.247553,-0.01031 -0.123776,-0.01031 -0.226923,-0.113462 -0.247552,-0.237238 -0.02063,-0.113462 -0.02063,-0.226923 -0.02063,-0.340385 v -4.775696 c 0.01031,-0.195979 -0.01032,-0.381644 -0.06189,-0.567308 -0.08252,-0.319755 -0.371328,-0.546678 -0.701398,-0.567307 -0.608566,-0.04126 -1.217132,0.08252 -1.774125,0.340384 -0.08252,0.02063 -0.134091,0.103147 -0.123776,0.185664 v 5.425522 c 0,0.103147 0,0.195979 -0.02063,0.299126 0,0.144405 -0.113462,0.247552 -0.257867,0.247552 0,0 0,0 0,0 -0.15472,0.01031 -0.309441,0.01031 -0.474476,0.01031 h -1.093356 c -0.381643,0 -0.46416,-0.09283 -0.46416,-0.474475 v -4.878844 c 0,-0.17535 -0.01031,-0.361014 -0.05157,-0.536363 -0.0722,-0.3507 -0.371328,-0.598252 -0.722027,-0.618881 -0.618881,-0.04126 -1.248076,0.08252 -1.805069,0.350699 -0.08252,0.02063 -0.134091,0.113461 -0.113462,0.195979 v 5.497724 c 0,0.381643 -0.08252,0.464161 -0.46416,0.464161 h -1.382167 c -0.361014,0 -0.453846,-0.103147 -0.453846,-0.453846 v -7.158388 c 0,-0.08252 0.01031,-0.165035 0.03094,-0.247552 0.04126,-0.123776 0.165035,-0.195979 0.288811,-0.195979 h 1.289335 c 0.185664,0 0.299125,0.113461 0.361014,0.288811 0.05157,0.144405 0.08252,0.278496 0.13409,0.433216 0.103147,0 0.165035,-0.0722 0.237238,-0.113461 0.567307,-0.350699 1.165559,-0.649825 1.836013,-0.773601 0.515734,-0.103147 1.031468,-0.103147 1.547202,0 0.48479,0.103147 0.918007,0.391958 1.196503,0.804545 0.02063,0.03094 0.04126,0.05157 0.06189,0.0722 -0.01032,0.01031 0,0.01031 0.01031,0.03094 z"
         id="path895" />
      <path
         style="fill:#00a8e1;stroke-width:0.44601"
         d="m -40.397086,-39.356877 c 0.0722,-0.02063 0.134091,-0.06189 0.175349,-0.123777 0.185664,-0.185664 0.381643,-0.361013 0.587937,-0.526048 0.536363,-0.412587 1.206818,-0.618881 1.877272,-0.567308 0.268181,0.01031 0.361014,0.09283 0.381643,0.350699 0.02063,0.3507 0.01031,0.711713 0.01031,1.062413 0.01031,0.144405 0,0.278496 -0.02063,0.422901 -0.04126,0.185665 -0.113461,0.257867 -0.299125,0.278497 -0.144406,0.01031 -0.278497,0 -0.422902,-0.01031 -0.691084,-0.06189 -1.361538,0.0722 -2.011363,0.288811 -0.144405,0.05157 -0.144405,0.15472 -0.144405,0.268182 v 4.951046 c 0,0.09283 0,0.17535 -0.01032,0.268182 -0.01031,0.134091 -0.113462,0.237238 -0.247552,0.237238 -0.0722,0.01031 -0.154721,0.01031 -0.226923,0.01031 h -1.340909 c -0.0722,0 -0.15472,0 -0.226923,-0.01031 -0.134091,-0.01031 -0.237237,-0.123777 -0.247552,-0.257867 -0.01031,-0.08252 -0.01031,-0.165035 -0.01031,-0.247553 v -7.013982 c 0,-0.474475 0.05157,-0.526049 0.526049,-0.526049 h 0.990209 c 0.268182,0 0.391958,0.09283 0.464161,0.350699 0.0722,0.257867 0.134091,0.515734 0.195979,0.794231 z"
         id="path899" />
      <path
         style="fill:#00a8e1;stroke-width:0.44601"
         d="m -36.374361,-36.489396 v -3.661712 c 0.01031,-0.247552 0.103147,-0.340384 0.350699,-0.350699 0.536363,-0.01031 1.072727,-0.01031 1.60909,0 0.237238,0 0.30944,0.0722 0.33007,0.309441 0.01031,0.09283 0.01031,0.175349 0.01031,0.268181 v 6.869577 c 0,0.113462 -0.01031,0.226923 -0.02063,0.340385 -0.01031,0.13409 -0.113461,0.226922 -0.247552,0.237237 -0.06189,0.01031 -0.113462,0.01031 -0.17535,0.01031 h -1.43374 c -0.05157,0 -0.09283,0 -0.144406,-0.01031 -0.144405,-0.01032 -0.268181,-0.123776 -0.278496,-0.268182 -0.01031,-0.08252 -0.01031,-0.165034 -0.01031,-0.247552 0.01031,-1.144929 0.01031,-2.320803 0.01031,-3.496676 z"
         id="path905" />
      <path
         style="fill:#00a8e1;stroke-width:0.44601"
         d="m -35.177858,-44.194462 c 0.165035,-0.01031 0.33007,0.02063 0.48479,0.0722 0.556992,0.185665 0.845803,0.670455 0.79423,1.29965 -0.04126,0.536363 -0.443531,0.96958 -0.979895,1.052097 -0.226922,0.04126 -0.46416,0.04126 -0.691083,0 -0.587937,-0.113461 -1.021153,-0.546678 -0.979895,-1.289335 0.06189,-0.732342 0.546678,-1.134614 1.371853,-1.134614 z"
         id="path907" />
      <path
         style="fill:#00a8e1;stroke-width:0.44601"
         d="m -44.100056,-37.3352 c -0.04126,-0.536363 -0.185665,-1.062412 -0.402273,-1.547202 -0.422902,-0.887063 -1.072727,-1.536887 -2.062936,-1.76381 -1.134615,-0.247553 -2.155768,0 -3.084089,0.691083 -0.06189,0.06189 -0.134091,0.113462 -0.216609,0.15472 -0.02063,-0.01031 -0.04126,-0.02063 -0.04126,-0.03094 -0.03094,-0.103146 -0.05157,-0.206293 -0.08252,-0.30944 -0.08252,-0.257867 -0.185664,-0.350699 -0.46416,-0.350699 -0.309441,0 -0.629196,0.01031 -0.938636,0 -0.237238,-0.01031 -0.453846,0.02063 -0.618881,0.206293 0,3.610138 0,7.230591 0.01031,10.830414 0.134091,0.216609 0.340384,0.257867 0.577622,0.247553 0.371328,-0.01031 0.742657,0 1.113985,0 0.649825,0 0.649825,0 0.649825,-0.63951 v -2.939684 c 0,-0.0722 -0.03094,-0.15472 0.04126,-0.216609 0.515734,0.402273 1.144929,0.649825 1.794754,0.711713 0.907692,0.09283 1.732866,-0.13409 2.42395,-0.752971 0.505419,-0.464161 0.876748,-1.062412 1.072727,-1.722552 0.278496,-0.845804 0.299125,-1.701922 0.226923,-2.568355 z m -2.465209,2.135139 c -0.0722,0.319755 -0.237238,0.608566 -0.474475,0.825174 -0.268182,0.226923 -0.598252,0.361014 -0.948951,0.361014 -0.526048,0.03094 -1.041782,-0.08252 -1.505943,-0.33007 -0.113462,-0.05157 -0.185664,-0.165035 -0.17535,-0.288811 v -1.866957 c 0,-0.618881 0.01031,-1.237762 0,-1.856642 -0.01031,-0.144406 0.0722,-0.268182 0.206294,-0.319756 0.567307,-0.268181 1.155244,-0.391957 1.774125,-0.268181 0.433216,0.06189 0.804545,0.340384 0.979895,0.742657 0.15472,0.33007 0.247552,0.691083 0.268181,1.052097 0.06189,0.66014 0.06189,1.320279 -0.123776,1.949475 z"
         id="path911" />
      <path
         style="fill:#00a8e1;stroke-width:0.44601"
         d="m -16.11633,-35.818942 c 0.773601,0.144405 1.567832,0.15472 2.341433,0.03094 0.453846,-0.06189 0.887062,-0.195979 1.289335,-0.412587 0.46416,-0.268182 0.804545,-0.63951 0.94895,-1.155244 0.361014,-1.29965 -0.195979,-2.609615 -1.547202,-3.094404 -0.660139,-0.216609 -1.361537,-0.288812 -2.052621,-0.195979 -1.629719,0.185664 -2.692131,1.083041 -3.176921,2.640558 -0.340385,1.062412 -0.299126,2.145453 -0.02063,3.21818 0.361014,1.371852 1.268706,2.186712 2.640558,2.475523 0.783916,0.17535 1.578146,0.144406 2.362062,0.02063 0.412587,-0.0722 0.825174,-0.175349 1.217132,-0.330069 0.237238,-0.09283 0.361014,-0.237238 0.350699,-0.50542 -0.01031,-0.247552 0,-0.505419 0,-0.763286 0,-0.30944 -0.123776,-0.402273 -0.422902,-0.33007 -0.299125,0.0722 -0.587936,0.134091 -0.887062,0.195979 -0.63951,0.134091 -1.29965,0.134091 -1.93916,0.02063 -0.876748,-0.17535 -1.444055,-0.928322 -1.392482,-1.856643 0.09283,0.01032 0.195979,0.02063 0.288811,0.04126 z m -0.257867,-1.578146 c 0.03094,-0.247553 0.103147,-0.48479 0.195979,-0.711713 0.309441,-0.752972 0.959266,-1.010839 1.619405,-0.96958 0.185664,0.01031 0.371329,0.05157 0.546678,0.123776 0.268182,0.113462 0.443531,0.361014 0.474475,0.649825 0.03094,0.17535 0.02063,0.361014 -0.03094,0.536363 -0.123776,0.371329 -0.422902,0.526049 -0.783915,0.598252 -0.216609,0.05157 -0.443532,0.0722 -0.670455,0.05157 -0.402272,0 -0.814859,-0.03094 -1.217132,-0.09283 -0.15472,-0.02063 -0.15472,-0.02063 -0.134091,-0.185664 z"
         id="path919" />
    </g>
    <g
       id="g1026"
       transform="matrix(0.59322171,0,0,0.59322171,27.131591,40.728634)"
       style="stroke-width:1.68571;fill:#ffffff">
      <path
         style="fill:#ffffff;stroke-width:0.44601"
         d="m -3.7696576,-34.612125 c 0.061888,-0.206293 0.1237761,-0.402272 0.1856642,-0.608566 0.4744753,-1.598775 0.9489506,-3.187236 1.4234258,-4.786011 l 0.061888,-0.185664 c 0.051573,-0.185665 0.226923,-0.299126 0.4125872,-0.299126 h 1.56783138 c 0.39195784,0 0.47447528,0.113461 0.34038444,0.48479 l -0.6188808,1.640034 c -0.69108352,1.794754 -1.38216712,3.599823 -2.07325072,5.394578 -0.020629,0.06189 -0.051573,0.123776 -0.072203,0.185664 -0.072203,0.216608 -0.2888111,0.361014 -0.515734,0.340384 -0.4538459,-0.01031 -0.9076919,-0.01031 -1.3615378,0 -0.3197551,0.01031 -0.5054193,-0.134091 -0.6188808,-0.422902 -0.257867,-0.680769 -0.5260487,-1.371852 -0.7839157,-2.052621 -0.6188808,-1.619405 -1.2480762,-3.23881 -1.866957,-4.868529 -0.061888,-0.123776 -0.1031468,-0.268182 -0.1340909,-0.402272 -0.030944,-0.206294 0.041259,-0.309441 0.2475523,-0.309441 0.5879368,-0.01031 1.1758736,0 1.7534956,0 0.2475524,0 0.3610138,0.165035 0.4229019,0.381643 0.1134615,0.391958 0.226923,0.794231 0.3506991,1.186188 0.4229019,1.433741 0.8354891,2.877796 1.258391,4.311537 -0.010315,0.01031 0,0.01031 0.020629,0.01031 z"
         id="path897" />
      <path
         style="fill:#ffffff;stroke-width:0.44601"
         d="m 3.5331358,-36.468767 v 3.713285 c -0.020629,0.206293 -0.1134615,0.299126 -0.3197551,0.30944 -0.5569927,0.01031 -1.1036707,0.01031 -1.6606635,0 -0.2062936,0 -0.2991257,-0.103147 -0.319755,-0.299126 -0.010315,-0.06189 -0.010315,-0.13409 -0.010315,-0.195978 v -7.137759 c 0.010315,-0.319755 0.092832,-0.412587 0.4125872,-0.412587 h 1.4853139 c 0.3197551,0 0.4125872,0.09283 0.4125872,0.412587 z"
         id="path903" />
      <path
         style="fill:#ffffff;stroke-width:0.44601"
         d="m 2.3882063,-44.194462 c 0.2062936,-0.02063 0.4125872,0.02063 0.6085661,0.103146 0.4022726,0.154721 0.6807689,0.526049 0.7013983,0.959266 0.082517,0.938636 -0.5466781,1.413111 -1.3821671,1.392482 -0.1134615,0 -0.226923,-0.02063 -0.3403845,-0.04126 -0.6395101,-0.15472 -0.9695799,-0.649825 -0.9076918,-1.361538 0.051573,-0.567307 0.4951046,-0.990209 1.1036707,-1.041783 0.072203,-0.01031 0.1444056,-0.02063 0.2166083,-0.01031 z"
         id="path909" />
      <path
         style="fill:#ffffff;stroke-width:0.44601"
         d="m 30.516339,-35.72611 c 0,0 0,-0.01031 0,0 0,-0.01031 0,-0.01031 0,0 z"
         id="path913" />
      <path
         style="fill:#ffffff;stroke-width:0.44601"
         d="m 30.526653,-37.108277 v 0.04126 c -0.04126,-0.04126 -0.06189,-0.103147 -0.04126,-0.154721 v -0.08252 c 0,0 0,-0.01031 0.01031,-0.01031 h -0.01031 v -0.103147 h 0.02063 c 0,-0.01031 -0.01031,-0.01031 -0.01031,-0.02063 -0.02063,-0.195979 -0.06189,-0.391958 -0.113461,-0.577622 -0.381643,-1.361538 -1.237762,-2.258915 -2.630244,-2.609614 -0.649824,-0.15472 -1.309964,-0.17535 -1.970103,-0.0722 -1.392482,0.206294 -2.393006,0.948951 -2.877796,2.26923 -0.474475,1.258391 -0.464161,2.640558 0.01031,3.898949 0.412587,1.144929 1.237761,1.866957 2.423949,2.166083 0.629196,0.15472 1.289335,0.195979 1.93916,0.103146 2.166083,-0.257867 3.06346,-1.897901 3.207866,-3.321327 h -0.01032 v -0.144405 c -0.01031,-0.06189 -0.02063,-0.113462 0.04126,-0.15472 v 0.02063 c 0,-0.01031 0.01031,-0.03094 0.02063,-0.04126 v -1.186188 c 0,-0.01031 -0.01032,-0.01031 -0.01032,-0.02063 z m -2.475523,1.959789 c -0.06189,0.216608 -0.15472,0.412587 -0.288811,0.598251 -0.226923,0.319756 -0.587937,0.526049 -0.979894,0.556993 -0.195979,0.02063 -0.391958,0.02063 -0.587937,-0.02063 -0.433217,-0.08252 -0.794231,-0.371329 -0.96958,-0.773601 -0.15472,-0.319755 -0.247552,-0.670454 -0.278497,-1.021153 -0.05157,-0.608567 -0.06189,-1.217133 0.08252,-1.815384 0.05157,-0.237238 0.15472,-0.474475 0.278496,-0.680769 0.226923,-0.371329 0.618881,-0.608566 1.052098,-0.63951 0.195979,-0.02063 0.391957,-0.02063 0.587936,0.02063 0.412588,0.08252 0.752972,0.350699 0.938636,0.732342 0.17535,0.361014 0.278497,0.763287 0.299126,1.165559 0.01032,0.185665 0.02063,0.371329 0.01032,0.556993 0.03094,0.453846 -0.02063,0.897377 -0.144406,1.320279 z"
         id="path915" />
      <path
         style="fill:#ffffff;stroke-width:0.44601"
         d="m 12.445019,-44.12226 h -1.43374 c -0.391958,0 -0.464161,0.0722 -0.464161,0.464161 v 3.341956 c 0,0.0722 0.03094,0.144406 -0.02063,0.216609 -0.09283,-0.01031 -0.144406,-0.0722 -0.216608,-0.113462 -1.0727272,-0.629195 -2.1970273,-0.742657 -3.3316421,-0.216608 -0.7942303,0.371328 -1.289335,1.041783 -1.6090901,1.836013 -0.3094404,0.763286 -0.3816431,1.567831 -0.3610138,2.382691 0,0.763286 0.1753496,1.516258 0.515734,2.197027 0.3919579,0.752971 0.9592653,1.330594 1.7844397,1.578146 1.1243001,0.350699 2.1763975,0.175349 3.1356623,-0.536363 0.0722,-0.04126 0.113462,-0.113462 0.206294,-0.134091 0.05157,0.113461 0.09283,0.237237 0.113461,0.361013 0.04126,0.165035 0.185665,0.278497 0.361014,0.278497 h 0.247553 c 0.371328,0 0.732342,0.01031 1.093356,0 0.288811,0 0.371328,-0.09283 0.381643,-0.391958 v -10.871673 c -0.01032,-0.319755 -0.09283,-0.391958 -0.402273,-0.391958 z m -1.887586,7.591605 v 1.877272 c 0.02063,0.123776 -0.05157,0.237237 -0.165035,0.288811 -0.4951046,0.278496 -1.062412,0.391958 -1.6194048,0.30944 -0.4744752,-0.05157 -0.8870624,-0.340384 -1.1036707,-0.763286 -0.1650349,-0.33007 -0.257867,-0.680769 -0.2888111,-1.041783 -0.082517,-0.649825 -0.030944,-1.309964 0.1237762,-1.93916 0.051573,-0.175349 0.1134615,-0.340384 0.2062936,-0.505419 0.2166083,-0.402273 0.6291955,-0.66014 1.0830414,-0.691084 0.546678,-0.05157 1.0933561,0.05157 1.5884604,0.278497 0.123776,0.04126 0.195979,0.165035 0.185665,0.299125 -0.02063,0.639511 -0.01032,1.258391 -0.01032,1.887587 z"
         id="path917" />
      <path
         style="fill:#ffffff;stroke-width:0.44601"
         d="m 18.675086,-35.715795 c 0.598251,-0.04126 1.196503,-0.154721 1.732866,-0.443532 0.546678,-0.268181 0.928321,-0.773601 1.041783,-1.371852 0.0722,-0.371329 0.0722,-0.763286 -0.01032,-1.134615 -0.216608,-0.928321 -0.804545,-1.505943 -1.691607,-1.805069 -0.495105,-0.15472 -1.021154,-0.216608 -1.536888,-0.195979 -1.732866,0.04126 -3.053145,0.918007 -3.589508,2.650873 -0.361014,1.144929 -0.309441,2.310488 0.04126,3.455418 0.361013,1.175873 1.186188,1.887586 2.362061,2.207341 0.50542,0.123776 1.031468,0.17535 1.547202,0.154721 0.752972,-0.01031 1.505944,-0.154721 2.217656,-0.422902 0.299126,-0.113462 0.371329,-0.216609 0.371329,-0.536364 v -0.742657 c -0.01032,-0.299125 -0.134091,-0.402272 -0.433217,-0.330069 -0.226923,0.06189 -0.443531,0.113461 -0.670454,0.165034 -0.691083,0.165035 -1.413111,0.195979 -2.114509,0.0722 -0.701398,-0.134091 -1.175874,-0.536363 -1.361538,-1.237761 -0.05157,-0.206294 -0.09283,-0.412588 -0.113461,-0.629196 0.05157,0 0.103146,0 0.144405,0.02063 0.680769,0.123777 1.371852,0.17535 2.062936,0.123777 z m -2.155768,-1.650349 c 0.0722,-0.402273 0.165035,-0.794231 0.412587,-1.1243 0.381643,-0.50542 0.907692,-0.649825 1.505943,-0.587937 0.05157,0 0.09283,0.02063 0.144406,0.02063 0.722028,0.113462 0.897377,0.691084 0.763286,1.248077 -0.103147,0.412587 -0.443531,0.567307 -0.825174,0.63951 -0.206294,0.04126 -0.422902,0.06189 -0.63951,0.05157 -0.422902,-0.01031 -0.835489,-0.04126 -1.248077,-0.103147 -0.09283,-0.01031 -0.13409,-0.05157 -0.113461,-0.144405 z"
         id="path921" />
    </g>
  </g>
</svg>
