<?xml version="1.0" encoding="UTF-8" standalone="no"?>
<svg
   inkscape:version="1.1 (c4e8f9ed74, 2021-05-24)"
   id="svg8"
   version="1.1"
   viewBox="0 0 67.733332 33.866668"
   height="128"
   width="256"
   sodipodi:docname="techpills.svg"
   xmlns:inkscape="http://www.inkscape.org/namespaces/inkscape"
   xmlns:sodipodi="http://sodipodi.sourceforge.net/DTD/sodipodi-0.dtd"
   xmlns:xlink="http://www.w3.org/1999/xlink"
   xmlns="http://www.w3.org/2000/svg"
   xmlns:svg="http://www.w3.org/2000/svg"
   xmlns:rdf="http://www.w3.org/1999/02/22-rdf-syntax-ns#"
   xmlns:cc="http://creativecommons.org/ns#"
   xmlns:dc="http://purl.org/dc/elements/1.1/">
  <defs
     id="defs2">
    <filter
       inkscape:collect="always"
       style="color-interpolation-filters:sRGB"
       id="filter4530-5"
       x="-0.108"
       width="1.216"
       y="-0.108"
       height="1.216">
      <feGaussianBlur
         inkscape:collect="always"
         stdDeviation="13.68"
         id="feGaussianBlur4532-7" />
    </filter>
    <linearGradient
       inkscape:collect="always"
       xlink:href="#linearGradient6005"
       id="linearGradient4665"
       gradientUnits="userSpaceOnUse"
       gradientTransform="matrix(0.65053746,0,0,0.65053746,-149.76223,111.1499)"
       x1="343.67523"
       y1="195.03468"
       x2="397.68188"
       y2="249.25777" />
    <linearGradient
       inkscape:collect="always"
       id="linearGradient6005">
      <stop
         style="stop-color:#1e88e5;stop-opacity:1;"
         offset="0"
         id="stop6007" />
      <stop
         style="stop-color:#1e88e5;stop-opacity:0"
         offset="1"
         id="stop6009" />
    </linearGradient>
    <filter
       style="color-interpolation-filters:sRGB"
       inkscape:label="Drop Shadow"
       id="filter6976-3">
      <feFlood
         flood-opacity="0.2"
         flood-color="rgb(38,50,56)"
         result="flood"
         id="feFlood6978-1" />
      <feComposite
         in="flood"
         in2="SourceGraphic"
         operator="in"
         result="composite1"
         id="feComposite6980-2" />
      <feGaussianBlur
         in="composite1"
         stdDeviation="8"
         result="blur"
         id="feGaussianBlur6982-2" />
      <feOffset
         dx="0"
         dy="8"
         result="offset"
         id="feOffset6984-9" />
      <feComposite
         in="SourceGraphic"
         in2="offset"
         operator="over"
         result="composite2"
         id="feComposite6986-3" />
    </filter>
    <filter
       style="color-interpolation-filters:sRGB"
       inkscape:label="Drop Shadow"
       id="filter4235">
      <feFlood
         flood-opacity="0.2"
         flood-color="rgb(38,50,56)"
         result="flood"
         id="feFlood4225" />
      <feComposite
         in="flood"
         in2="SourceGraphic"
         operator="in"
         result="composite1"
         id="feComposite4227" />
      <feGaussianBlur
         in="composite1"
         stdDeviation="8"
         result="blur"
         id="feGaussianBlur4229" />
      <feOffset
         dx="0"
         dy="8"
         result="offset"
         id="feOffset4231" />
      <feComposite
         in="SourceGraphic"
         in2="offset"
         operator="over"
         result="composite2"
         id="feComposite4233" />
    </filter>
    <filter
       style="color-interpolation-filters:sRGB"
       inkscape:label="Drop Shadow"
       id="filter4254">
      <feFlood
         flood-opacity="0.2"
         flood-color="rgb(38,50,56)"
         result="flood"
         id="feFlood4244" />
      <feComposite
         in="flood"
         in2="SourceGraphic"
         operator="in"
         result="composite1"
         id="feComposite4246" />
      <feGaussianBlur
         in="composite1"
         stdDeviation="8"
         result="blur"
         id="feGaussianBlur4248" />
      <feOffset
         dx="0"
         dy="8"
         result="offset"
         id="feOffset4250" />
      <feComposite
         in="SourceGraphic"
         in2="offset"
         operator="over"
         result="composite2"
         id="feComposite4252" />
    </filter>
    <filter
       style="color-interpolation-filters:sRGB"
       inkscape:label="Drop Shadow"
       id="filter4273">
      <feFlood
         flood-opacity="0.2"
         flood-color="rgb(38,50,56)"
         result="flood"
         id="feFlood4263" />
      <feComposite
         in="flood"
         in2="SourceGraphic"
         operator="in"
         result="composite1"
         id="feComposite4265" />
      <feGaussianBlur
         in="composite1"
         stdDeviation="8"
         result="blur"
         id="feGaussianBlur4267" />
      <feOffset
         dx="0"
         dy="8"
         result="offset"
         id="feOffset4269" />
      <feComposite
         in="SourceGraphic"
         in2="offset"
         operator="over"
         result="composite2"
         id="feComposite4271" />
    </filter>
    <filter
       style="color-interpolation-filters:sRGB"
       inkscape:label="Drop Shadow"
       id="filter4292">
      <feFlood
         flood-opacity="0.2"
         flood-color="rgb(38,50,56)"
         result="flood"
         id="feFlood4282" />
      <feComposite
         in="flood"
         in2="SourceGraphic"
         operator="in"
         result="composite1"
         id="feComposite4284" />
      <feGaussianBlur
         in="composite1"
         stdDeviation="8"
         result="blur"
         id="feGaussianBlur4286" />
      <feOffset
         dx="0"
         dy="8"
         result="offset"
         id="feOffset4288" />
      <feComposite
         in="SourceGraphic"
         in2="offset"
         operator="over"
         result="composite2"
         id="feComposite4290" />
    </filter>
    <filter
       inkscape:collect="always"
       style="color-interpolation-filters:sRGB"
       id="filter4508-5"
       x="-0.083531322"
       width="1.1670626"
       y="-0.15274263"
       height="1.3054853">
      <feGaussianBlur
         inkscape:collect="always"
         stdDeviation="7.9085167"
         id="feGaussianBlur4510-3" />
    </filter>
    <mask
       maskUnits="userSpaceOnUse"
       id="mask4900">
      <rect
         y="24.907795"
         x="26.698978"
         height="255.7171"
         width="454.60818"
         id="rect4902"
         style="opacity:1;fill:#00ffff;fill-opacity:1;stroke:none;stroke-width:0.66144174;stroke-linecap:round;stroke-linejoin:round;stroke-miterlimit:4;stroke-dasharray:none;stroke-opacity:1;paint-order:normal" />
    </mask>
    <mask
       maskUnits="userSpaceOnUse"
       id="mask5356">
      <rect
         y="11.249983"
         x="-8.5265128e-14"
         height="285.75"
         width="508"
         id="rect5358"
         style="opacity:1;fill:#00ffff;fill-opacity:1;stroke:none;stroke-width:0.73912531;stroke-linecap:round;stroke-linejoin:round;stroke-miterlimit:4;stroke-dasharray:none;stroke-opacity:1;paint-order:normal" />
    </mask>
    <clipPath
       clipPathUnits="userSpaceOnUse"
       id="clipPath5594">
      <path
         id="path5596"
         d="M 445.76863,23.429149 V 90.630791 H 228.32027 V 31.166058 a 22.537623,22.537623 0 0 1 17.92759,22.054517 22.537623,22.537623 0 0 1 -1.32654,7.536502 25.969747,25.969747 0 0 1 2.12728,-0.100204 25.969747,25.969747 0 0 1 16.80102,6.173027 25.969747,25.969747 0 0 1 19.35079,-8.689839 25.969747,25.969747 0 0 1 23.84292,15.750762 22.308814,22.308814 0 0 1 2.69863,-0.191781 22.308814,22.308814 0 0 1 6.53425,0.981243 25.969747,25.969747 0 0 1 21.38052,-11.277657 25.969747,25.969747 0 0 1 18.97188,8.283274 22.308814,22.308814 0 0 1 9.40033,-2.105381 22.308814,22.308814 0 0 1 2.69886,0.19178 25.969747,25.969747 0 0 1 23.84292,-15.750761 25.969747,25.969747 0 0 1 20.06681,9.508057 25.969747,25.969747 0 0 1 19.57155,-12.130604 22.537623,22.537623 0 0 1 -1.0841,-6.873123 22.537623,22.537623 0 0 1 14.64365,-21.096721 z"
         style="opacity:1;fill:#ffffff;fill-opacity:1;stroke:none;stroke-width:0.05735843;stroke-linecap:round;stroke-linejoin:round;stroke-miterlimit:4;stroke-dasharray:none;stroke-opacity:1;paint-order:normal"
         inkscape:connector-curvature="0" />
    </clipPath>
    <clipPath
       clipPathUnits="userSpaceOnUse"
       id="clipPath5824">
      <rect
         y="11.249983"
         x="-8.5265128e-14"
         height="285.75"
         width="508"
         id="rect5826"
         style="opacity:1;fill:#00ffff;fill-opacity:1;stroke:none;stroke-width:0.73912531;stroke-linecap:round;stroke-linejoin:round;stroke-miterlimit:4;stroke-dasharray:none;stroke-opacity:1;paint-order:normal" />
    </clipPath>
    <mask
       maskUnits="userSpaceOnUse"
       id="mask4900-1">
      <rect
         y="24.907795"
         x="26.698978"
         height="255.7171"
         width="454.60818"
         id="rect4902-2"
         style="opacity:1;fill:#00ffff;fill-opacity:1;stroke:none;stroke-width:0.66144174;stroke-linecap:round;stroke-linejoin:round;stroke-miterlimit:4;stroke-dasharray:none;stroke-opacity:1;paint-order:normal" />
    </mask>
    <mask
       maskUnits="userSpaceOnUse"
       id="mask5356-7">
      <rect
         y="11.249983"
         x="-8.5265128e-14"
         height="285.75"
         width="508"
         id="rect5358-0"
         style="opacity:1;fill:#00ffff;fill-opacity:1;stroke:none;stroke-width:0.73912531;stroke-linecap:round;stroke-linejoin:round;stroke-miterlimit:4;stroke-dasharray:none;stroke-opacity:1;paint-order:normal" />
    </mask>
    <clipPath
       clipPathUnits="userSpaceOnUse"
       id="clipPath5594-9">
      <path
         id="path5596-3"
         d="M 445.76863,23.429149 V 90.630791 H 228.32027 V 31.166058 a 22.537623,22.537623 0 0 1 17.92759,22.054517 22.537623,22.537623 0 0 1 -1.32654,7.536502 25.969747,25.969747 0 0 1 2.12728,-0.100204 25.969747,25.969747 0 0 1 16.80102,6.173027 25.969747,25.969747 0 0 1 19.35079,-8.689839 25.969747,25.969747 0 0 1 23.84292,15.750762 22.308814,22.308814 0 0 1 2.69863,-0.191781 22.308814,22.308814 0 0 1 6.53425,0.981243 25.969747,25.969747 0 0 1 21.38052,-11.277657 25.969747,25.969747 0 0 1 18.97188,8.283274 22.308814,22.308814 0 0 1 9.40033,-2.105381 22.308814,22.308814 0 0 1 2.69886,0.19178 25.969747,25.969747 0 0 1 23.84292,-15.750761 25.969747,25.969747 0 0 1 20.06681,9.508057 25.969747,25.969747 0 0 1 19.57155,-12.130604 22.537623,22.537623 0 0 1 -1.0841,-6.873123 22.537623,22.537623 0 0 1 14.64365,-21.096721 z"
         style="opacity:1;fill:#ffffff;fill-opacity:1;stroke:none;stroke-width:0.05735843;stroke-linecap:round;stroke-linejoin:round;stroke-miterlimit:4;stroke-dasharray:none;stroke-opacity:1;paint-order:normal"
         inkscape:connector-curvature="0" />
    </clipPath>
    <clipPath
       clipPathUnits="userSpaceOnUse"
       id="clipPath5824-6">
      <rect
         y="11.249983"
         x="-8.5265128e-14"
         height="285.75"
         width="508"
         id="rect5826-0"
         style="opacity:1;fill:#00ffff;fill-opacity:1;stroke:none;stroke-width:0.73912531;stroke-linecap:round;stroke-linejoin:round;stroke-miterlimit:4;stroke-dasharray:none;stroke-opacity:1;paint-order:normal" />
    </clipPath>
    <clipPath
       clipPathUnits="userSpaceOnUse"
       id="clipPath3126">
      <path
         style="opacity:1;fill:#ffffff;fill-opacity:1;stroke:none;stroke-width:0.134;stroke-linecap:round;stroke-linejoin:round;stroke-miterlimit:4;stroke-dasharray:none;stroke-opacity:1;paint-order:normal"
         d="M 0,140.0044 V 296.99998 H 508 V 158.07926 a 52.652097,52.652097 0 0 0 -41.88219,51.52347 52.652097,52.652097 0 0 0 3.09904,17.60668 60.670181,60.670181 0 0 0 -4.96973,-0.2341 60.670181,60.670181 0 0 0 -39.25032,14.42135 60.670181,60.670181 0 0 0 -45.20706,-20.30109 60.670181,60.670181 0 0 0 -55.70151,36.79672 52.117556,52.117556 0 0 0 -6.30452,-0.44803 52.117556,52.117556 0 0 0 -15.26521,2.29236 60.670181,60.670181 0 0 0 -49.94891,-26.34671 60.670181,60.670181 0 0 0 -44.32184,19.35127 52.117556,52.117556 0 0 0 -21.96093,-4.91856 52.117556,52.117556 0 0 0 -6.30504,0.44803 60.670181,60.670181 0 0 0 -55.70151,-36.79672 60.670181,60.670181 0 0 0 -46.879826,22.2126 A 60.670181,60.670181 0 0 0 31.677652,205.34718 52.652097,52.652097 0 0 0 34.210315,189.29027 52.652097,52.652097 0 0 0 0,140.0044 Z"
         id="path3128" />
    </clipPath>
    <clipPath
       clipPathUnits="userSpaceOnUse"
       id="clipPath2672">
      <rect
         style="fill:#c0bfbc;stroke-width:3.47907;stroke-linecap:round;paint-order:markers stroke fill"
         id="rect2674"
         width="508.00003"
         height="254.00002"
         x="-5.5976368e-05"
         y="42.999943" />
    </clipPath>
  </defs>
  <sodipodi:namedview
     units="px"
     showgrid="false"
     inkscape:document-rotation="0"
     inkscape:current-layer="layer1"
     inkscape:document-units="px"
     inkscape:cy="89.642857"
     inkscape:cx="208.75"
     inkscape:zoom="2.8"
     inkscape:pageshadow="2"
     inkscape:pageopacity="0"
     borderopacity="1.0"
     bordercolor="#666666"
     pagecolor="#ffffff"
     id="base"
     inkscape:window-width="2560"
     inkscape:window-height="1371"
     inkscape:window-x="0"
     inkscape:window-y="0"
     inkscape:window-maximized="1"
     inkscape:pagecheckerboard="0" />
  <metadata
     id="metadata5">
    <rdf:RDF>
      <cc:Work
         rdf:about="">
        <dc:format>image/svg+xml</dc:format>
        <dc:type
           rdf:resource="http://purl.org/dc/dcmitype/StillImage" />
      </cc:Work>
    </rdf:RDF>
  </metadata>
  <g
     id="layer1"
     inkscape:groupmode="layer"
     inkscape:label="Layer 1">
    <g
       inkscape:label="Layer 1"
       id="layer1-6"
       transform="matrix(0.13333333,0,0,0.13333333,5.7623438e-6,-5.7333262)"
       style="stroke-width:7.50001"
       clip-path="url(#clipPath2672)">
      <rect
         style="opacity:1;fill:#3ca8ff;fill-opacity:1;stroke:none;stroke-width:5.54343;stroke-linecap:round;stroke-linejoin:round;stroke-miterlimit:4;stroke-dasharray:none;stroke-opacity:1;paint-order:normal"
         id="rect3817"
         width="508"
         height="285.75"
         x="-8.5265128e-14"
         y="11.249983" />
      <g
         id="g5820"
         clip-path="url(#clipPath5824-6)"
         style="opacity:0.283;stroke-width:7.50001">
        <path
           inkscape:connector-curvature="0"
           id="path3873"
           d="m -79.036471,117.0739 -40.834489,41.81205 V 95.006776 Z"
           style="fill:#000000;fill-opacity:0.728723;fill-rule:evenodd;stroke:#000000;stroke-width:3.03499;stroke-linecap:butt;stroke-linejoin:miter;stroke-miterlimit:4;stroke-dasharray:none;stroke-dashoffset:0;stroke-opacity:0.0106383" />
        <path
           inkscape:connector-curvature="0"
           id="path3889"
           d="M -16.390955,90.352815 55.901336,113.00178 30.148652,54.547276 Z"
           style="fill:#000000;fill-opacity:0.574468;fill-rule:evenodd;stroke:#000000;stroke-width:3.03499;stroke-linecap:butt;stroke-linejoin:miter;stroke-miterlimit:4;stroke-dasharray:none;stroke-dashoffset:0;stroke-opacity:0.0106383" />
        <path
           inkscape:connector-curvature="0"
           id="path3891"
           d="M 30.148652,54.547276 31.374976,-3.5579202 -0.48003472,31.048354 Z"
           style="fill:#000000;fill-opacity:0.335106;fill-rule:evenodd;stroke:#000000;stroke-width:3.03499;stroke-linecap:butt;stroke-linejoin:miter;stroke-miterlimit:4;stroke-dasharray:none;stroke-dashoffset:0;stroke-opacity:0.0106383" />
        <path
           inkscape:connector-curvature="0"
           id="path3893"
           d="m -119.87096,158.88595 52.322916,32.60022 -52.322916,35.56322 z"
           style="fill:#000000;fill-opacity:0.43617;fill-rule:evenodd;stroke:#000000;stroke-width:3.03499;stroke-linecap:butt;stroke-linejoin:miter;stroke-miterlimit:4;stroke-dasharray:none;stroke-dashoffset:0;stroke-opacity:0.0106383" />
        <path
           inkscape:connector-curvature="0"
           id="path3895"
           d="m -87.113765,179.29558 -6.84846,-46.93862 -25.908735,26.52899 z"
           style="fill:#000000;fill-opacity:0.43617;fill-rule:evenodd;stroke:#000000;stroke-width:3.03499;stroke-linecap:butt;stroke-linejoin:miter;stroke-miterlimit:4;stroke-dasharray:none;stroke-dashoffset:0;stroke-opacity:0.0106383" />
        <path
           inkscape:connector-curvature="0"
           id="path3901"
           d="m -67.548044,191.48617 54.366781,2.04387 -31.475504,61.31592 z"
           style="fill:#000000;fill-opacity:0.43617;fill-rule:evenodd;stroke:#000000;stroke-width:3.03499;stroke-linecap:butt;stroke-linejoin:miter;stroke-miterlimit:4;stroke-dasharray:none;stroke-dashoffset:0;stroke-opacity:0.0106383" />
        <path
           id="path3903"
           d="m -67.548327,191.48639 -52.322633,60.60166 v 12.59913 l 75.213836,-9.84156 z"
           style="fill:#000000;fill-opacity:0.574468;fill-rule:evenodd;stroke:#000000;stroke-width:3.03499;stroke-linecap:butt;stroke-linejoin:miter;stroke-miterlimit:4;stroke-dasharray:none;stroke-dashoffset:0;stroke-opacity:0.0106383"
           inkscape:connector-curvature="0" />
        <path
           inkscape:connector-curvature="0"
           id="path3905"
           d="m -67.548044,191.48617 -52.322916,35.56322 v 24.11759 z"
           style="fill:#000000;fill-opacity:0.43617;fill-rule:evenodd;stroke:#000000;stroke-width:3.03499;stroke-linecap:butt;stroke-linejoin:miter;stroke-miterlimit:4;stroke-dasharray:none;stroke-dashoffset:0;stroke-opacity:0.0106383" />
        <path
           inkscape:connector-curvature="0"
           id="path3910"
           d="M -16.390955,90.352815 24.073958,178.54106 55.901336,113.00178 Z"
           style="fill:#000000;fill-opacity:0.43617;fill-rule:evenodd;stroke:#000000;stroke-width:3.03499;stroke-linecap:butt;stroke-linejoin:miter;stroke-miterlimit:4;stroke-dasharray:none;stroke-dashoffset:0;stroke-opacity:0.0106383" />
        <path
           inkscape:connector-curvature="0"
           id="path3912"
           d="M 30.148652,54.547276 119.45915,47.314181 55.901336,113.00178 Z"
           style="fill:#000000;fill-opacity:0.43617;fill-rule:evenodd;stroke:#000000;stroke-width:3.03499;stroke-linecap:butt;stroke-linejoin:miter;stroke-miterlimit:4;stroke-dasharray:none;stroke-dashoffset:0;stroke-opacity:0.0106383" />
        <path
           inkscape:connector-curvature="0"
           id="path3914"
           d="M 31.374976,-3.5579202 107.49135,48.283431 30.148652,54.547276 Z"
           style="fill:#000000;fill-opacity:0.43617;fill-rule:evenodd;stroke:#000000;stroke-width:3.03499;stroke-linecap:butt;stroke-linejoin:miter;stroke-miterlimit:4;stroke-dasharray:none;stroke-dashoffset:0;stroke-opacity:0.0106383" />
        <path
           inkscape:connector-curvature="0"
           id="path3916"
           d="M 24.073955,178.54106 131.02098,146.74602 122.9277,213.80469 Z"
           style="fill:#000000;fill-opacity:0.590426;fill-rule:evenodd;stroke:#000000;stroke-width:3.03499;stroke-linecap:butt;stroke-linejoin:miter;stroke-miterlimit:4;stroke-dasharray:none;stroke-dashoffset:0;stroke-opacity:0.0106383" />
        <path
           inkscape:connector-curvature="0"
           id="path3918"
           d="M -13.181263,193.53004 -3.6744607,277.97292 -44.657124,254.8456 Z"
           style="fill:#000000;fill-opacity:0.319149;fill-rule:evenodd;stroke:#000000;stroke-width:3.03499;stroke-linecap:butt;stroke-linejoin:miter;stroke-miterlimit:4;stroke-dasharray:none;stroke-dashoffset:0;stroke-opacity:0.0106383" />
        <path
           inkscape:connector-curvature="0"
           id="path3920"
           d="M 104.38219,62.896357 184.78355,86.624439 69.718451,98.721659 Z"
           style="fill:#000000;fill-opacity:0.574468;fill-rule:evenodd;stroke:#000000;stroke-width:3.03499;stroke-linecap:butt;stroke-linejoin:miter;stroke-miterlimit:4;stroke-dasharray:none;stroke-dashoffset:0;stroke-opacity:0.0106383" />
        <path
           inkscape:connector-curvature="0"
           id="path3922"
           d="m 55.901336,113.00178 30.000913,47.1579 -61.828294,18.38138 z"
           style="fill:#000000;fill-opacity:0.271277;fill-rule:evenodd;stroke:#000000;stroke-width:3.03499;stroke-linecap:butt;stroke-linejoin:miter;stroke-miterlimit:4;stroke-dasharray:none;stroke-dashoffset:0;stroke-opacity:0.0106383" />
        <path
           inkscape:connector-curvature="0"
           id="path3924"
           d="m 55.901336,113.00178 75.119644,33.74424 -45.118731,13.41366 z"
           style="fill:#000000;fill-opacity:0.329787;fill-rule:evenodd;stroke:#000000;stroke-width:3.03499;stroke-linecap:butt;stroke-linejoin:miter;stroke-miterlimit:4;stroke-dasharray:none;stroke-dashoffset:0;stroke-opacity:0.0106383" />
        <path
           inkscape:connector-curvature="0"
           id="path3926"
           d="M 69.718451,98.721659 131.02098,146.74602 55.901336,113.00178 Z"
           style="fill:#000000;fill-opacity:0.43617;fill-rule:evenodd;stroke:#000000;stroke-width:3.03499;stroke-linecap:butt;stroke-linejoin:miter;stroke-miterlimit:4;stroke-dasharray:none;stroke-dashoffset:0;stroke-opacity:0.0106383" />
        <path
           inkscape:connector-curvature="0"
           id="path3928"
           d="M 159.2649,89.307308 103.59703,125.26211 69.718451,98.721659 Z"
           style="fill:#000000;fill-opacity:0.43617;fill-rule:evenodd;stroke:#000000;stroke-width:3.03499;stroke-linecap:butt;stroke-linejoin:miter;stroke-miterlimit:4;stroke-dasharray:none;stroke-dashoffset:0;stroke-opacity:0.0106383" />
        <path
           inkscape:connector-curvature="0"
           id="path3930"
           d="M 131.02098,146.74602 159.2649,89.307308 103.59703,125.26211 Z"
           style="fill:#000000;fill-opacity:0.335106;fill-rule:evenodd;stroke:#000000;stroke-width:3.03499;stroke-linecap:butt;stroke-linejoin:miter;stroke-miterlimit:4;stroke-dasharray:none;stroke-dashoffset:0;stroke-opacity:0.0106383" />
        <path
           inkscape:connector-curvature="0"
           id="path3932"
           d="m -62.639853,125.9347 -24.473912,53.36088 -6.84846,-46.93862 z"
           style="fill:#000000;fill-opacity:0.335106;fill-rule:evenodd;stroke:#000000;stroke-width:3.03499;stroke-linecap:butt;stroke-linejoin:miter;stroke-miterlimit:4;stroke-dasharray:none;stroke-dashoffset:0;stroke-opacity:0.0106383" />
        <path
           inkscape:connector-curvature="0"
           id="path3936"
           d="m -67.548044,191.48617 69.0826063,-33.315 -14.7158253,35.35887 z"
           style="fill:#000000;fill-opacity:0.590426;fill-rule:evenodd;stroke:#000000;stroke-width:3.03499;stroke-linecap:butt;stroke-linejoin:miter;stroke-miterlimit:4;stroke-dasharray:none;stroke-dashoffset:0;stroke-opacity:0.0106383" />
        <path
           inkscape:connector-curvature="0"
           id="path3938"
           d="m -62.639853,125.9347 -4.908191,65.55147 -19.565721,-12.19059 z"
           style="fill:#000000;fill-opacity:0.515957;fill-rule:evenodd;stroke:#000000;stroke-width:3.03499;stroke-linecap:butt;stroke-linejoin:miter;stroke-miterlimit:4;stroke-dasharray:none;stroke-dashoffset:0;stroke-opacity:0.0106383" />
        <path
           inkscape:connector-curvature="0"
           id="path3940"
           d="M -16.390955,90.352815 1.5345623,158.17117 -62.639853,125.9347 Z"
           style="fill:#000000;fill-opacity:0.218085;fill-rule:evenodd;stroke:none;stroke-width:3.03499;stroke-linecap:butt;stroke-linejoin:miter;stroke-miterlimit:4;stroke-dasharray:none;stroke-dashoffset:0;stroke-opacity:1" />
        <path
           inkscape:connector-curvature="0"
           id="path3942"
           d="m -62.639853,125.9347 -4.908191,65.55147 69.0826063,-33.315 z"
           style="fill:#000000;fill-opacity:0.43617;fill-rule:evenodd;stroke:#000000;stroke-width:3.03499;stroke-linecap:butt;stroke-linejoin:miter;stroke-miterlimit:4;stroke-dasharray:none;stroke-dashoffset:0;stroke-opacity:0.0106383" />
        <path
           inkscape:connector-curvature="0"
           id="path3944"
           d="M 1.5345623,158.17117 24.073955,178.54106 -16.390955,90.352815 Z"
           style="fill:#8d8d8d;fill-opacity:0.43617;fill-rule:evenodd;stroke:#000000;stroke-width:3.03499;stroke-linecap:butt;stroke-linejoin:miter;stroke-miterlimit:4;stroke-dasharray:none;stroke-dashoffset:0;stroke-opacity:0.0106383" />
        <path
           inkscape:connector-curvature="0"
           id="path3946"
           d="M -13.181263,193.53004 24.073955,178.54106 -3.6744607,277.97292 Z"
           style="fill:#000000;fill-opacity:0.329787;fill-rule:evenodd;stroke:#000000;stroke-width:3.03499;stroke-linecap:butt;stroke-linejoin:miter;stroke-miterlimit:4;stroke-dasharray:none;stroke-dashoffset:0;stroke-opacity:0.0106383" />
        <path
           inkscape:connector-curvature="0"
           id="path3948"
           d="M -13.181263,193.53004 1.5345623,158.17117 24.073955,178.54106 Z"
           style="fill:#000000;fill-opacity:0.43617;fill-rule:evenodd;stroke:#000000;stroke-width:3.03499;stroke-linecap:butt;stroke-linejoin:miter;stroke-miterlimit:4;stroke-dasharray:none;stroke-dashoffset:0;stroke-opacity:0.0106383" />
        <path
           inkscape:connector-curvature="0"
           id="path3950"
           d="M -3.6744607,277.97292 122.9277,213.80469 24.073955,178.54106 Z"
           style="fill:#000000;fill-opacity:0.43617;fill-rule:evenodd;stroke:#000000;stroke-width:3.03499;stroke-linecap:butt;stroke-linejoin:miter;stroke-miterlimit:4;stroke-dasharray:none;stroke-dashoffset:0;stroke-opacity:0.0106383" />
        <path
           inkscape:connector-curvature="0"
           id="path3952"
           d="M -3.6744607,277.97292 36.280251,360.7181 -66.7305,341.91456 Z"
           style="fill:#000000;fill-opacity:0.574468;fill-rule:evenodd;stroke:#000000;stroke-width:3.03499;stroke-linecap:butt;stroke-linejoin:miter;stroke-miterlimit:4;stroke-dasharray:none;stroke-dashoffset:0;stroke-opacity:0.0106383" />
        <path
           inkscape:connector-curvature="0"
           id="path3954"
           d="m -44.656767,254.84596 -37.607101,73.17032 -37.607092,-63.3291 z"
           style="fill:#000000;fill-opacity:0.43617;fill-rule:evenodd;stroke:#000000;stroke-width:3.03499;stroke-linecap:butt;stroke-linejoin:miter;stroke-miterlimit:4;stroke-dasharray:none;stroke-dashoffset:0;stroke-opacity:0.0106383" />
        <path
           inkscape:connector-curvature="0"
           id="path3956"
           d="M -82.263868,328.01628 -3.6744607,277.97292 -44.657124,254.8456 Z"
           style="fill:#000000;fill-opacity:0.590426;fill-rule:evenodd;stroke:#000000;stroke-width:3.03499;stroke-linecap:butt;stroke-linejoin:miter;stroke-miterlimit:4;stroke-dasharray:none;stroke-dashoffset:0;stroke-opacity:0.0106383" />
        <path
           inkscape:connector-curvature="0"
           id="path3958"
           d="M -82.263868,328.01628 -3.6744607,277.97292 -66.7305,341.91456 Z"
           style="fill:#000000;fill-opacity:0.43617;fill-rule:evenodd;stroke:#000000;stroke-width:3.03499;stroke-linecap:butt;stroke-linejoin:miter;stroke-miterlimit:4;stroke-dasharray:none;stroke-dashoffset:0;stroke-opacity:0.0106383" />
        <path
           inkscape:connector-curvature="0"
           id="path3960"
           d="M 63.346531,244.00337 36.280251,360.7181 -3.6744607,277.97292 Z"
           style="fill:#000000;fill-opacity:0.271277;fill-rule:evenodd;stroke:#000000;stroke-width:3.03499;stroke-linecap:butt;stroke-linejoin:miter;stroke-miterlimit:4;stroke-dasharray:none;stroke-dashoffset:0;stroke-opacity:0.0106383" />
        <path
           inkscape:connector-curvature="0"
           id="path3964"
           d="M 107.49135,48.283431 87.785633,-3.5579202 H 31.374976 Z"
           style="fill:#000000;fill-opacity:0.319149;fill-rule:evenodd;stroke:#000000;stroke-width:3.03499;stroke-linecap:butt;stroke-linejoin:miter;stroke-miterlimit:4;stroke-dasharray:none;stroke-dashoffset:0;stroke-opacity:0.0106383" />
        <path
           inkscape:connector-curvature="0"
           id="path3966"
           d="M 87.785633,-3.5579202 H 189.57006 L 107.49135,48.283431 Z"
           style="fill:#000000;fill-opacity:0.574468;fill-rule:evenodd;stroke:#000000;stroke-width:3.03499;stroke-linecap:butt;stroke-linejoin:miter;stroke-miterlimit:4;stroke-dasharray:none;stroke-dashoffset:0;stroke-opacity:0.0106383" />
        <path
           inkscape:connector-curvature="0"
           id="path3968"
           d="m 119.45915,47.314181 65.3244,39.310258 -80.40136,-23.728082 z"
           style="fill:#000000;fill-opacity:0.43617;fill-rule:evenodd;stroke:#000000;stroke-width:3.03499;stroke-linecap:butt;stroke-linejoin:miter;stroke-miterlimit:4;stroke-dasharray:none;stroke-dashoffset:0;stroke-opacity:0.0106383" />
        <path
           inkscape:connector-curvature="0"
           id="path3970"
           d="M 189.57006,-3.5579202 184.78355,86.624439 119.45915,47.314181 Z"
           style="fill:#000000;fill-opacity:0.329787;fill-rule:evenodd;stroke:#000000;stroke-width:3.03499;stroke-linecap:butt;stroke-linejoin:miter;stroke-miterlimit:4;stroke-dasharray:none;stroke-dashoffset:0;stroke-opacity:0.0106383" />
        <path
           inkscape:connector-curvature="0"
           id="path3972"
           d="m 189.57006,-3.5579202 -70.11091,50.8721012 -11.9678,0.96925 z"
           style="fill:#000000;fill-opacity:0.43617;fill-rule:evenodd;stroke:#000000;stroke-width:3.03499;stroke-linecap:butt;stroke-linejoin:miter;stroke-miterlimit:4;stroke-dasharray:none;stroke-dashoffset:0;stroke-opacity:0.0106383" />
        <path
           inkscape:connector-curvature="0"
           id="path3974"
           d="m 131.02098,146.74602 72.8396,-8.67138 -4.04663,111.57176 z"
           style="fill:#000000;fill-opacity:0.43617;fill-rule:evenodd;stroke:#000000;stroke-width:3.03499;stroke-linecap:butt;stroke-linejoin:miter;stroke-miterlimit:4;stroke-dasharray:none;stroke-dashoffset:0;stroke-opacity:0.0106383" />
        <path
           inkscape:connector-curvature="0"
           id="path3976"
           d="M 122.9277,213.80469 199.81395,249.6464 131.02098,146.74602 Z"
           style="fill:#000000;fill-opacity:0.335106;fill-rule:evenodd;stroke:#000000;stroke-width:3.03499;stroke-linecap:butt;stroke-linejoin:miter;stroke-miterlimit:4;stroke-dasharray:none;stroke-dashoffset:0;stroke-opacity:0.0106383" />
        <path
           inkscape:connector-curvature="0"
           id="path3978"
           d="M 63.346531,244.00337 125.81816,361.79626 36.280251,360.7181 Z"
           style="fill:#000000;fill-opacity:0.43617;fill-rule:evenodd;stroke:#000000;stroke-width:3.03499;stroke-linecap:butt;stroke-linejoin:miter;stroke-miterlimit:4;stroke-dasharray:none;stroke-dashoffset:0;stroke-opacity:0.0106383" />
        <path
           inkscape:connector-curvature="0"
           id="path3980"
           d="M 122.9277,213.80469 99.289396,311.77518 63.346531,244.00337 Z"
           style="fill:#000000;fill-opacity:0.574468;fill-rule:evenodd;stroke:#000000;stroke-width:3.03499;stroke-linecap:butt;stroke-linejoin:miter;stroke-miterlimit:4;stroke-dasharray:none;stroke-dashoffset:0;stroke-opacity:0.0106383" />
        <path
           inkscape:connector-curvature="0"
           id="path3982"
           d="m 199.81395,249.6464 -89.6759,17.16583 12.78965,-53.00754 z"
           style="fill:#000000;fill-opacity:0.43617;fill-rule:evenodd;stroke:#000000;stroke-width:3.03499;stroke-linecap:butt;stroke-linejoin:miter;stroke-miterlimit:4;stroke-dasharray:none;stroke-dashoffset:0;stroke-opacity:0.0106383" />
        <path
           inkscape:connector-curvature="0"
           id="path3984"
           d="M 199.81395,249.6464 125.81816,361.79626 110.13805,266.81223 Z"
           style="fill:#000000;fill-opacity:0.329787;fill-rule:evenodd;stroke:#000000;stroke-width:3.03499;stroke-linecap:butt;stroke-linejoin:miter;stroke-miterlimit:4;stroke-dasharray:none;stroke-dashoffset:0;stroke-opacity:0.0106383" />
        <path
           inkscape:connector-curvature="0"
           id="path3986"
           d="m 99.289396,311.77518 10.848654,-44.96295 15.68011,94.98403 z"
           style="fill:#000000;fill-opacity:0.43617;fill-rule:evenodd;stroke:#000000;stroke-width:3.03499;stroke-linecap:butt;stroke-linejoin:miter;stroke-miterlimit:4;stroke-dasharray:none;stroke-dashoffset:0;stroke-opacity:0.0106383" />
        <path
           inkscape:connector-curvature="0"
           id="path3988"
           d="m 159.2649,89.307308 44.59568,48.767332 -72.8396,8.67138 z"
           style="fill:#000000;fill-opacity:0.43617;fill-rule:evenodd;stroke:#000000;stroke-width:3.03499;stroke-linecap:butt;stroke-linejoin:miter;stroke-miterlimit:4;stroke-dasharray:none;stroke-dashoffset:0;stroke-opacity:0.0106383" />
        <path
           inkscape:connector-curvature="0"
           id="path3990"
           d="m 200.90509,219.56229 87.35694,-30.03747 5.78092,117.3527 z"
           style="fill:#000000;fill-opacity:0.329787;fill-rule:evenodd;stroke:#000000;stroke-width:3.03499;stroke-linecap:butt;stroke-linejoin:miter;stroke-miterlimit:4;stroke-dasharray:none;stroke-dashoffset:0;stroke-opacity:0.0106383" />
        <path
           inkscape:connector-curvature="0"
           id="path3992"
           d="m 199.81395,249.6464 94.229,57.23112 -93.13786,-87.31523 z"
           style="fill:#000000;fill-opacity:0.43617;fill-rule:evenodd;stroke:#000000;stroke-width:3.03499;stroke-linecap:butt;stroke-linejoin:miter;stroke-miterlimit:4;stroke-dasharray:none;stroke-dashoffset:0;stroke-opacity:0.0106383" />
        <path
           inkscape:connector-curvature="0"
           id="path3994"
           d="m 169.34718,295.82258 124.69577,11.05494 -94.229,-57.23112 z"
           style="fill:#000000;fill-opacity:0.590426;fill-rule:evenodd;stroke:#000000;stroke-width:3.03499;stroke-linecap:butt;stroke-linejoin:miter;stroke-miterlimit:4;stroke-dasharray:none;stroke-dashoffset:0;stroke-opacity:0.0106383" />
        <path
           inkscape:connector-curvature="0"
           id="path3996"
           d="m 228.87204,301.09976 -103.05388,60.6965 43.52902,-65.97368 z"
           style="fill:#000000;fill-opacity:0.80851;fill-rule:evenodd;stroke:#000000;stroke-width:3.03499;stroke-linecap:butt;stroke-linejoin:miter;stroke-miterlimit:4;stroke-dasharray:none;stroke-dashoffset:0;stroke-opacity:0.0106383" />
        <path
           inkscape:connector-curvature="0"
           id="path3998"
           d="m 125.81816,361.79626 103.05388,-60.6965 65.17091,5.77776 z"
           style="fill:#000000;fill-opacity:0.43617;fill-rule:evenodd;stroke:#000000;stroke-width:3.03499;stroke-linecap:butt;stroke-linejoin:miter;stroke-miterlimit:4;stroke-dasharray:none;stroke-dashoffset:0;stroke-opacity:0.0106383" />
        <path
           inkscape:connector-curvature="0"
           id="path4000"
           d="M 184.78355,86.624439 269.28077,42.692866 189.57006,-3.5579202 Z"
           style="fill:#000000;fill-opacity:0.43617;fill-rule:evenodd;stroke:#000000;stroke-width:3.03499;stroke-linecap:butt;stroke-linejoin:miter;stroke-miterlimit:4;stroke-dasharray:none;stroke-dashoffset:0;stroke-opacity:0.0106383" />
        <path
           inkscape:connector-curvature="0"
           id="path4002"
           d="m 159.2649,89.307308 25.51865,-2.682869 19.07703,51.450201 z"
           style="fill:#000000;fill-opacity:0.43617;fill-rule:evenodd;stroke:#000000;stroke-width:3.03499;stroke-linecap:butt;stroke-linejoin:miter;stroke-miterlimit:4;stroke-dasharray:none;stroke-dashoffset:0;stroke-opacity:0.0106383" />
        <path
           inkscape:connector-curvature="0"
           id="path4004"
           d="m 203.86058,138.07464 84.40145,51.45018 -87.35694,30.03747 z"
           style="fill:#000000;fill-opacity:0.43617;fill-rule:evenodd;stroke:#000000;stroke-width:3.03499;stroke-linecap:butt;stroke-linejoin:miter;stroke-miterlimit:4;stroke-dasharray:none;stroke-dashoffset:0;stroke-opacity:0.0106383" />
        <path
           inkscape:connector-curvature="0"
           id="path4008"
           d="M 269.28077,42.692866 378.83188,-3.5579202 H 244.75441 Z"
           style="fill:#000000;fill-opacity:0.43617;fill-rule:evenodd;stroke:#000000;stroke-width:3.03499;stroke-linecap:butt;stroke-linejoin:miter;stroke-miterlimit:4;stroke-dasharray:none;stroke-dashoffset:0;stroke-opacity:0.0106383" />
        <path
           inkscape:connector-curvature="0"
           id="path4010"
           d="M 269.28077,42.692866 244.75441,-3.5579202 h -55.18435 z"
           style="fill:#000000;fill-opacity:0.218085;fill-rule:evenodd;stroke:none;stroke-width:3.03499;stroke-linecap:butt;stroke-linejoin:miter;stroke-miterlimit:4;stroke-dasharray:none;stroke-dashoffset:0;stroke-opacity:1" />
        <path
           inkscape:connector-curvature="0"
           id="path4012"
           d="M 184.78355,86.624439 288.26203,189.52482 203.86058,138.07464 Z"
           style="fill:#000000;fill-opacity:0.574468;fill-rule:evenodd;stroke:#000000;stroke-width:3.03499;stroke-linecap:butt;stroke-linejoin:miter;stroke-miterlimit:4;stroke-dasharray:none;stroke-dashoffset:0;stroke-opacity:0.0106383" />
        <path
           inkscape:connector-curvature="0"
           id="path4016"
           d="m 294.04295,306.87752 -32.93764,87.35996 -70.46046,-53.60459 z"
           style="fill:#000000;fill-opacity:0.335106;fill-rule:evenodd;stroke:#000000;stroke-width:3.03499;stroke-linecap:butt;stroke-linejoin:miter;stroke-miterlimit:4;stroke-dasharray:none;stroke-dashoffset:0;stroke-opacity:0.0106383" />
        <path
           inkscape:connector-curvature="0"
           id="path4018"
           d="m 125.81816,361.79626 64.82669,-21.16337 70.46046,53.60459 z"
           style="fill:#000000;fill-opacity:0.43617;fill-rule:evenodd;stroke:#000000;stroke-width:3.03499;stroke-linecap:butt;stroke-linejoin:miter;stroke-miterlimit:4;stroke-dasharray:none;stroke-dashoffset:0;stroke-opacity:0.0106383" />
        <path
           inkscape:connector-curvature="0"
           id="path4020"
           d="M 252.05931,51.646592 288.26203,189.52482 184.78355,86.624439 Z"
           style="fill:#000000;fill-opacity:0.218085;fill-rule:evenodd;stroke:none;stroke-width:3.03499;stroke-linecap:butt;stroke-linejoin:miter;stroke-miterlimit:4;stroke-dasharray:none;stroke-dashoffset:0;stroke-opacity:1" />
        <path
           inkscape:connector-curvature="0"
           id="path4022"
           d="M 378.83188,-3.5579202 512.0918,54.138503 269.28077,42.692866 Z"
           style="fill:#000000;fill-opacity:0.335106;fill-rule:evenodd;stroke:#000000;stroke-width:3.03499;stroke-linecap:butt;stroke-linejoin:miter;stroke-miterlimit:4;stroke-dasharray:none;stroke-dashoffset:0;stroke-opacity:0.0106383" />
        <path
           inkscape:connector-curvature="0"
           id="path4024"
           d="m 269.28077,42.692866 48.23516,80.119474 71.86983,-74.45796 z"
           style="fill:#000000;fill-opacity:0.43617;fill-rule:evenodd;stroke:#000000;stroke-width:3.03499;stroke-linecap:butt;stroke-linejoin:miter;stroke-miterlimit:4;stroke-dasharray:none;stroke-dashoffset:0;stroke-opacity:0.0106383" />
        <path
           inkscape:connector-curvature="0"
           id="path4026"
           d="m 252.05931,51.646592 65.45662,71.165748 -29.2539,66.71248 z"
           style="fill:#000000;fill-opacity:0.43617;fill-rule:evenodd;stroke:#000000;stroke-width:3.03499;stroke-linecap:butt;stroke-linejoin:miter;stroke-miterlimit:4;stroke-dasharray:none;stroke-dashoffset:0;stroke-opacity:0.0106383" />
        <path
           inkscape:connector-curvature="0"
           id="path4028"
           d="m 252.05931,51.646592 17.22146,-8.953726 48.23516,80.119474 z"
           style="fill:#000000;fill-opacity:0.329787;fill-rule:evenodd;stroke:#000000;stroke-width:3.03499;stroke-linecap:butt;stroke-linejoin:miter;stroke-miterlimit:4;stroke-dasharray:none;stroke-dashoffset:0;stroke-opacity:0.0106383" />
        <path
           inkscape:connector-curvature="0"
           id="path4030"
           d="m 288.26203,189.52482 89.75229,1.96135 -83.97137,115.39135 z"
           style="fill:#000000;fill-opacity:0.43617;fill-rule:evenodd;stroke:#000000;stroke-width:3.03499;stroke-linecap:butt;stroke-linejoin:miter;stroke-miterlimit:4;stroke-dasharray:none;stroke-dashoffset:0;stroke-opacity:0.0106383" />
        <path
           inkscape:connector-curvature="0"
           id="path4032"
           d="m 317.51593,122.81234 60.49839,68.67383 -89.75229,-1.96135 z"
           style="fill:#000000;fill-opacity:0.335106;fill-rule:evenodd;stroke:#000000;stroke-width:3.03499;stroke-linecap:butt;stroke-linejoin:miter;stroke-miterlimit:4;stroke-dasharray:none;stroke-dashoffset:0;stroke-opacity:0.0106383" />
        <path
           inkscape:connector-curvature="0"
           id="path4034"
           d="M 432.88137,19.843439 503.09882,-3.5579202 H 378.83188 Z"
           style="fill:#000000;fill-opacity:0.43617;fill-rule:evenodd;stroke:#000000;stroke-width:3.03499;stroke-linecap:butt;stroke-linejoin:miter;stroke-miterlimit:4;stroke-dasharray:none;stroke-dashoffset:0;stroke-opacity:0.0106383" />
        <path
           inkscape:connector-curvature="0"
           id="path4036"
           d="M 512.0918,54.138503 346.38956,92.898907 389.38576,48.35438 Z"
           style="fill:#000000;fill-opacity:0.192118;fill-rule:evenodd;stroke:#000000;stroke-width:3.03499;stroke-linecap:butt;stroke-linejoin:miter;stroke-miterlimit:4;stroke-dasharray:none;stroke-dashoffset:0;stroke-opacity:0.0106383" />
        <path
           inkscape:connector-curvature="0"
           id="path4038"
           d="m 346.38956,92.898907 13.67607,78.213073 -42.5497,-48.29964 z"
           style="fill:#000000;fill-opacity:0.192118;fill-rule:evenodd;stroke:#000000;stroke-width:3.03499;stroke-linecap:butt;stroke-linejoin:miter;stroke-miterlimit:4;stroke-dasharray:none;stroke-dashoffset:0;stroke-opacity:0.0106383" />
        <path
           inkscape:connector-curvature="0"
           id="path4040"
           d="M 378.01432,191.48617 346.38956,92.898907 360.06563,171.11198 Z"
           style="fill:#000000;fill-opacity:0.43617;fill-rule:evenodd;stroke:#000000;stroke-width:3.03499;stroke-linecap:butt;stroke-linejoin:miter;stroke-miterlimit:4;stroke-dasharray:none;stroke-dashoffset:0;stroke-opacity:0.0106383" />
        <path
           inkscape:connector-curvature="0"
           id="path4042"
           d="M 294.04295,306.87752 368.20376,273.24074 261.10531,394.23748 Z"
           style="fill:#000000;fill-opacity:0.43617;fill-rule:evenodd;stroke:#000000;stroke-width:3.03499;stroke-linecap:butt;stroke-linejoin:miter;stroke-miterlimit:4;stroke-dasharray:none;stroke-dashoffset:0;stroke-opacity:0.0106383" />
        <path
           inkscape:connector-curvature="0"
           id="path4044"
           d="m 378.01432,191.48617 -9.81056,81.75457 -74.16081,33.63678 z"
           style="fill:#000000;fill-opacity:0.329787;fill-rule:evenodd;stroke:#000000;stroke-width:3.03499;stroke-linecap:butt;stroke-linejoin:miter;stroke-miterlimit:4;stroke-dasharray:none;stroke-dashoffset:0;stroke-opacity:0.0106383" />
        <path
           inkscape:connector-curvature="0"
           id="path4046"
           d="M 512.0918,54.138503 366.87428,156.7582 346.38956,92.898907 Z"
           style="fill:#000000;fill-opacity:0.335106;fill-rule:evenodd;stroke:#000000;stroke-width:3.03499;stroke-linecap:butt;stroke-linejoin:miter;stroke-miterlimit:4;stroke-dasharray:none;stroke-dashoffset:0;stroke-opacity:0.0106383" />
        <path
           inkscape:connector-curvature="0"
           id="path4048"
           d="m 378.01432,191.48617 66.22119,102.1932 -76.03175,-20.43863 z"
           style="fill:#000000;fill-opacity:0.569149;fill-rule:evenodd;stroke:#000000;stroke-width:3.03499;stroke-linecap:butt;stroke-linejoin:miter;stroke-miterlimit:4;stroke-dasharray:none;stroke-dashoffset:0;stroke-opacity:0.0106383" />
        <path
           inkscape:connector-curvature="0"
           id="path4050"
           d="m 368.20376,273.24074 29.43166,110.36865 -136.53011,10.62809 z"
           style="fill:#000000;fill-opacity:0.329787;fill-rule:evenodd;stroke:#000000;stroke-width:3.03499;stroke-linecap:butt;stroke-linejoin:miter;stroke-miterlimit:4;stroke-dasharray:none;stroke-dashoffset:0;stroke-opacity:0.0106383" />
        <path
           inkscape:connector-curvature="0"
           id="path4052"
           d="m 444.23551,293.67937 -46.60009,89.93002 103.01077,-37.6071 z"
           style="fill:#000000;fill-opacity:0.43617;fill-rule:evenodd;stroke:#000000;stroke-width:3.03499;stroke-linecap:butt;stroke-linejoin:miter;stroke-miterlimit:4;stroke-dasharray:none;stroke-dashoffset:0;stroke-opacity:0.0106383" />
        <path
           inkscape:connector-curvature="0"
           id="path4054"
           d="m 378.01432,191.48617 64.77155,-88.37184 -75.91159,53.64387 z"
           style="fill:#000000;fill-opacity:0.192118;fill-rule:evenodd;stroke:#000000;stroke-width:3.03499;stroke-linecap:butt;stroke-linejoin:miter;stroke-miterlimit:4;stroke-dasharray:none;stroke-dashoffset:0;stroke-opacity:0.0106383" />
        <path
           inkscape:connector-curvature="0"
           id="path4056"
           d="M 512.0918,54.138503 503.09882,-3.5579202 432.88137,19.843439 Z"
           style="fill:#000000;fill-opacity:0.579787;fill-rule:evenodd;stroke:#000000;stroke-width:3.03499;stroke-linecap:butt;stroke-linejoin:miter;stroke-miterlimit:4;stroke-dasharray:none;stroke-dashoffset:0;stroke-opacity:0.0106383" />
        <path
           inkscape:connector-curvature="0"
           id="path4058"
           d="m 442.78587,103.11433 78.29895,6.61727 -8.99302,-55.593097 z"
           style="fill:#000000;fill-opacity:0.574468;fill-rule:evenodd;stroke:#000000;stroke-width:3.03499;stroke-linecap:butt;stroke-linejoin:miter;stroke-miterlimit:4;stroke-dasharray:none;stroke-dashoffset:0;stroke-opacity:0.0106383" />
        <path
           inkscape:connector-curvature="0"
           id="path4060"
           d="m 378.01432,191.48617 143.0705,-81.75457 -78.29895,-6.61727 z"
           style="fill:#000000;fill-opacity:0.43617;fill-rule:evenodd;stroke:#000000;stroke-width:3.03499;stroke-linecap:butt;stroke-linejoin:miter;stroke-miterlimit:4;stroke-dasharray:none;stroke-dashoffset:0;stroke-opacity:0.0106383" />
        <path
           inkscape:connector-curvature="0"
           id="path4062"
           d="M 444.23551,293.67937 433.65774,159.68992 378.01432,191.48617 Z"
           style="fill:#000000;fill-opacity:0.218085;fill-rule:evenodd;stroke:none;stroke-width:3.03499;stroke-linecap:butt;stroke-linejoin:miter;stroke-miterlimit:4;stroke-dasharray:none;stroke-dashoffset:0;stroke-opacity:1" />
        <path
           inkscape:connector-curvature="0"
           id="path4064"
           d="M 500.64619,346.00229 490.01808,210.28971 444.23551,293.67937 Z"
           style="fill:#000000;fill-opacity:0.335106;fill-rule:evenodd;stroke:#000000;stroke-width:3.03499;stroke-linecap:butt;stroke-linejoin:miter;stroke-miterlimit:4;stroke-dasharray:none;stroke-dashoffset:0;stroke-opacity:0.0106383" />
        <path
           inkscape:connector-curvature="0"
           id="path4066"
           d="m 490.01808,210.28971 -56.36034,-50.59979 10.57777,133.98945 z"
           style="fill:#000000;fill-opacity:0.590426;fill-rule:evenodd;stroke:#000000;stroke-width:3.03499;stroke-linecap:butt;stroke-linejoin:miter;stroke-miterlimit:4;stroke-dasharray:none;stroke-dashoffset:0;stroke-opacity:0.0106383" />
        <path
           inkscape:connector-curvature="0"
           id="path4068"
           d="M 521.08482,109.7316 490.01808,210.28971 433.65774,159.68992 Z"
           style="fill:#000000;fill-opacity:0.329787;fill-rule:evenodd;stroke:#000000;stroke-width:3.03499;stroke-linecap:butt;stroke-linejoin:miter;stroke-miterlimit:4;stroke-dasharray:none;stroke-dashoffset:0;stroke-opacity:0.0106383" />
        <path
           inkscape:connector-curvature="0"
           id="path4070"
           d="m 497.32222,303.55814 58.91704,-143.13871 -66.22118,49.87028 z"
           style="fill:#000000;fill-opacity:0.43617;fill-rule:evenodd;stroke:#000000;stroke-width:3.03499;stroke-linecap:butt;stroke-linejoin:miter;stroke-miterlimit:4;stroke-dasharray:none;stroke-dashoffset:0;stroke-opacity:0.0106383" />
        <path
           inkscape:connector-curvature="0"
           id="path4072"
           d="m 521.08482,109.7316 15.43365,65.5393 -46.50039,35.01881 z"
           style="fill:#000000;fill-opacity:0.335106;fill-rule:evenodd;stroke:#000000;stroke-width:3.03499;stroke-linecap:butt;stroke-linejoin:miter;stroke-miterlimit:4;stroke-dasharray:none;stroke-dashoffset:0;stroke-opacity:0.0106383" />
        <path
           inkscape:connector-curvature="0"
           id="path4074"
           d="M 536.51847,175.2709 556.23926,160.41943 521.08482,109.7316 Z"
           style="fill:#000000;fill-opacity:0.43617;fill-rule:evenodd;stroke:#000000;stroke-width:3.03499;stroke-linecap:butt;stroke-linejoin:miter;stroke-miterlimit:4;stroke-dasharray:none;stroke-dashoffset:0;stroke-opacity:0.0106383" />
        <path
           inkscape:connector-curvature="0"
           id="path4080"
           d="m 497.32222,303.55814 143.12425,70.2407 -139.80028,-27.79655 z"
           style="fill:#000000;fill-opacity:0.43617;fill-rule:evenodd;stroke:#000000;stroke-width:3.03499;stroke-linecap:butt;stroke-linejoin:miter;stroke-miterlimit:4;stroke-dasharray:none;stroke-dashoffset:0;stroke-opacity:0.0106383" />
        <path
           inkscape:connector-curvature="0"
           id="path4082"
           d="m 556.23926,160.41943 -9.33333,167.47279 -49.58371,-24.33408 z"
           style="fill:#000000;fill-opacity:0.574468;fill-rule:evenodd;stroke:#000000;stroke-width:3.03499;stroke-linecap:butt;stroke-linejoin:miter;stroke-miterlimit:4;stroke-dasharray:none;stroke-dashoffset:0;stroke-opacity:0.0106383" />
        <path
           inkscape:connector-curvature="0"
           id="path4090"
           d="m 556.23926,160.41943 77.14375,52.80717 -83.46707,60.6551 z"
           style="fill:#000000;fill-opacity:0.329787;fill-rule:evenodd;stroke:#000000;stroke-width:3.03499;stroke-linecap:butt;stroke-linejoin:miter;stroke-miterlimit:4;stroke-dasharray:none;stroke-dashoffset:0;stroke-opacity:0.0106383" />
        <path
           inkscape:connector-curvature="0"
           id="path4092"
           d="m 633.38301,213.2266 7.06346,160.57224 -90.53053,-99.91714 z"
           style="fill:#000000;fill-opacity:0.43617;fill-rule:evenodd;stroke:#000000;stroke-width:3.03499;stroke-linecap:butt;stroke-linejoin:miter;stroke-miterlimit:4;stroke-dasharray:none;stroke-dashoffset:0;stroke-opacity:0.0106383" />
        <path
           inkscape:connector-curvature="0"
           id="path4094"
           d="m 549.91594,273.8817 -3.01001,54.01052 93.54054,45.90662 z"
           style="fill:#000000;fill-opacity:0.335106;fill-rule:evenodd;stroke:#000000;stroke-width:3.03499;stroke-linecap:butt;stroke-linejoin:miter;stroke-miterlimit:4;stroke-dasharray:none;stroke-dashoffset:0;stroke-opacity:0.0106383" />
        <path
           inkscape:connector-curvature="0"
           id="path4096"
           d="m 633.38301,213.2266 23.70175,38.15407 -16.63829,122.41817 z"
           style="fill:#000000;fill-opacity:0.43617;fill-rule:evenodd;stroke:#000000;stroke-width:3.03499;stroke-linecap:butt;stroke-linejoin:miter;stroke-miterlimit:4;stroke-dasharray:none;stroke-dashoffset:0;stroke-opacity:0.0106383" />
        <path
           inkscape:connector-curvature="0"
           id="path4098"
           d="M 556.23926,160.41943 657.08476,129.40325 599.27558,81.999703 Z"
           style="fill:#000000;fill-opacity:0.335106;fill-rule:evenodd;stroke:#000000;stroke-width:3.03499;stroke-linecap:butt;stroke-linejoin:miter;stroke-miterlimit:4;stroke-dasharray:none;stroke-dashoffset:0;stroke-opacity:0.0106383" />
        <path
           inkscape:connector-curvature="0"
           id="path4100"
           d="m 633.38301,213.2266 -77.14375,-52.80717 100.8455,-31.01618 z"
           style="fill:#000000;fill-opacity:0.43617;fill-rule:evenodd;stroke:#000000;stroke-width:3.03499;stroke-linecap:butt;stroke-linejoin:miter;stroke-miterlimit:4;stroke-dasharray:none;stroke-dashoffset:0;stroke-opacity:0.0106383" />
        <path
           inkscape:connector-curvature="0"
           id="path4102"
           d="M 657.08476,129.40325 V 251.38067 L 633.38301,213.2266 Z"
           style="fill:#000000;fill-opacity:0.574468;fill-rule:evenodd;stroke:#000000;stroke-width:3.03499;stroke-linecap:butt;stroke-linejoin:miter;stroke-miterlimit:4;stroke-dasharray:none;stroke-dashoffset:0;stroke-opacity:0.0106383" />
        <path
           inkscape:connector-curvature="0"
           id="path4108"
           d="m -79.036471,117.0739 -14.925754,15.28306 31.322372,-6.42226 z"
           style="fill:#000000;fill-opacity:0.43617;fill-rule:evenodd;stroke:#000000;stroke-width:3.03499;stroke-linecap:butt;stroke-linejoin:miter;stroke-miterlimit:4;stroke-dasharray:none;stroke-dashoffset:0;stroke-opacity:0.0106383" />
        <path
           inkscape:connector-curvature="0"
           id="path4110"
           d="m 368.20376,273.24074 29.43166,110.36865 46.60009,-89.93002 z"
           style="fill:#000000;fill-opacity:0.5;fill-rule:evenodd;stroke:#000000;stroke-width:3.03499;stroke-linecap:butt;stroke-linejoin:miter;stroke-miterlimit:4;stroke-dasharray:none;stroke-dashoffset:0;stroke-opacity:0.0106383" />
      </g>
      <path
         style="opacity:1;fill:#ffffff;fill-opacity:1;stroke:none;stroke-width:3.79842;stroke-linecap:round;stroke-linejoin:round;stroke-miterlimit:4;stroke-dasharray:none;stroke-opacity:1;paint-order:normal"
         d="M 0,486.63086 V 1080 H 1920 V 554.94531 a 199.00005,199.00005 0 0 0 -158.2949,194.73438 199.00005,199.00005 0 0 0 11.7129,66.54492 229.30462,229.30462 0 0 0 -18.7832,-0.88477 229.30462,229.30462 0 0 0 -148.3477,54.50586 229.30462,229.30462 0 0 0 -170.8613,-76.72851 229.30462,229.30462 0 0 0 -210.5254,139.07422 196.97974,196.97974 0 0 0 -23.8281,-1.69336 196.97974,196.97974 0 0 0 -57.6953,8.66406 229.30462,229.30462 0 0 0 -188.78325,-99.57813 229.30462,229.30462 0 0 0 -167.51563,73.13868 196.97974,196.97974 0 0 0 -83.00195,-18.58985 196.97974,196.97974 0 0 0 -23.83008,1.69336 A 229.30462,229.30462 0 0 0 469.7207,756.75195 229.30462,229.30462 0 0 0 292.53711,840.70508 229.30462,229.30462 0 0 0 119.72656,733.5957 199.00005,199.00005 0 0 0 129.29883,672.9082 199.00005,199.00005 0 0 0 0,486.63086 Z"
         id="path3819"
         transform="matrix(0.26458333,0,0,0.26458333,0,11.249983)" />
      <g
         id="g3122"
         clip-path="url(#clipPath3126)"
         style="stroke-width:7.50001">
        <path
           style="opacity:0.149;fill:#000000;fill-opacity:0.43617;fill-rule:evenodd;stroke:#000000;stroke-width:4.63586;stroke-linecap:butt;stroke-linejoin:miter;stroke-miterlimit:4;stroke-dasharray:none;stroke-dashoffset:0;stroke-opacity:0.0106383"
           d="M 576.04569,249.30317 446.97805,182.19865 568.73441,111.55159 Z"
           id="path5020"
           inkscape:connector-curvature="0" />
        <path
           style="opacity:0.149;fill:#000000;fill-opacity:0.218085;fill-rule:evenodd;stroke:none;stroke-width:4.63586;stroke-linecap:butt;stroke-linejoin:miter;stroke-miterlimit:4;stroke-dasharray:none;stroke-dashoffset:0;stroke-opacity:1"
           d="m 446.97805,182.19865 37.46349,-70.64706 h 84.29287 z"
           id="path5028"
           inkscape:connector-curvature="0" />
        <path
           style="opacity:0.149;fill:#000000;fill-opacity:0.218085;fill-rule:evenodd;stroke:none;stroke-width:4.63586;stroke-linecap:butt;stroke-linejoin:miter;stroke-miterlimit:4;stroke-dasharray:none;stroke-dashoffset:0;stroke-opacity:1"
           d="M 473.28345,195.87527 417.9846,406.48126 576.04569,249.30317 Z"
           id="path5036"
           inkscape:connector-curvature="0" />
        <path
           style="opacity:0.149;fill:#000000;fill-opacity:0.43617;fill-rule:evenodd;stroke:#000000;stroke-width:4.63586;stroke-linecap:butt;stroke-linejoin:miter;stroke-miterlimit:4;stroke-dasharray:none;stroke-dashoffset:0;stroke-opacity:0.0106383"
           d="M 446.97805,182.19865 373.29988,304.57939 263.52029,190.84649 Z"
           id="path5040"
           inkscape:connector-curvature="0" />
        <path
           style="opacity:0.149;fill:#000000;fill-opacity:0.43617;fill-rule:evenodd;stroke:#000000;stroke-width:4.63586;stroke-linecap:butt;stroke-linejoin:miter;stroke-miterlimit:4;stroke-dasharray:none;stroke-dashoffset:0;stroke-opacity:0.0106383"
           d="M 473.28345,195.87527 373.29988,304.57939 417.9846,406.48126 Z"
           id="path5042"
           inkscape:connector-curvature="0" />
        <path
           style="opacity:0.149;fill:#000000;fill-opacity:0.329787;fill-rule:evenodd;stroke:#000000;stroke-width:4.63586;stroke-linecap:butt;stroke-linejoin:miter;stroke-miterlimit:4;stroke-dasharray:none;stroke-dashoffset:0;stroke-opacity:0.0106383"
           d="m 473.28345,195.87527 -26.3054,-13.67662 -73.67817,122.38074 z"
           id="path5044"
           inkscape:connector-curvature="0" />
        <path
           style="opacity:0.149;fill:#000000;fill-opacity:0.192118;fill-rule:evenodd;stroke:#000000;stroke-width:4.63586;stroke-linecap:butt;stroke-linejoin:miter;stroke-miterlimit:4;stroke-dasharray:none;stroke-dashoffset:0;stroke-opacity:0.0106383"
           d="M 76.089498,199.68161 329.19606,258.88728 263.52029,190.84649 Z"
           id="path5052"
           inkscape:connector-curvature="0" />
        <path
           style="opacity:0.149;fill:#000000;fill-opacity:0.192118;fill-rule:evenodd;stroke:#000000;stroke-width:4.63586;stroke-linecap:butt;stroke-linejoin:miter;stroke-miterlimit:4;stroke-dasharray:none;stroke-dashoffset:0;stroke-opacity:0.0106383"
           d="m 329.19606,258.88728 -20.88992,119.46877 64.99374,-73.77666 z"
           id="path5054"
           inkscape:connector-curvature="0" />
        <path
           style="opacity:0.149;fill:#000000;fill-opacity:0.43617;fill-rule:evenodd;stroke:#000000;stroke-width:4.63586;stroke-linecap:butt;stroke-linejoin:miter;stroke-miterlimit:4;stroke-dasharray:none;stroke-dashoffset:0;stroke-opacity:0.0106383"
           d="M 280.88991,409.47717 329.19606,258.88728 308.30614,378.35605 Z"
           id="path5056"
           inkscape:connector-curvature="0" />
        <path
           style="opacity:0.149;fill:#000000;fill-opacity:0.335106;fill-rule:evenodd;stroke:#000000;stroke-width:4.63586;stroke-linecap:butt;stroke-linejoin:miter;stroke-miterlimit:4;stroke-dasharray:none;stroke-dashoffset:0;stroke-opacity:0.0106383"
           d="M 76.089498,199.68161 297.90609,356.43094 329.19606,258.88728 Z"
           id="path5062"
           inkscape:connector-curvature="0" />
        <path
           style="opacity:0.149;fill:#000000;fill-opacity:0.192118;fill-rule:evenodd;stroke:#000000;stroke-width:4.63586;stroke-linecap:butt;stroke-linejoin:miter;stroke-miterlimit:4;stroke-dasharray:none;stroke-dashoffset:0;stroke-opacity:0.0106383"
           d="M 280.88991,409.47717 181.95277,274.49112 297.90609,356.43094 Z"
           id="path5070"
           inkscape:connector-curvature="0" />
        <path
           style="opacity:0.149;fill:#000000;fill-opacity:0.574468;fill-rule:evenodd;stroke:#000000;stroke-width:4.63586;stroke-linecap:butt;stroke-linejoin:miter;stroke-miterlimit:4;stroke-dasharray:none;stroke-dashoffset:0;stroke-opacity:0.0106383"
           d="M 181.95277,274.49112 62.35286,284.59886 76.089498,199.68161 Z"
           id="path5074"
           inkscape:connector-curvature="0" />
        <path
           style="opacity:0.149;fill:#000000;fill-opacity:0.590426;fill-rule:evenodd;stroke:#000000;stroke-width:4.63586;stroke-linecap:butt;stroke-linejoin:miter;stroke-miterlimit:4;stroke-dasharray:none;stroke-dashoffset:0;stroke-opacity:0.0106383"
           d="M -57.081817,242.23899 8.655209,362.02342 62.35286,284.59886 Z"
           id="path5104"
           inkscape:connector-curvature="0" />
        <path
           style="opacity:0.149;fill:#000000;fill-opacity:0.43617;fill-rule:evenodd;stroke:#000000;stroke-width:4.63586;stroke-linecap:butt;stroke-linejoin:miter;stroke-miterlimit:4;stroke-dasharray:none;stroke-dashoffset:0;stroke-opacity:0.0106383"
           d="M 280.88991,409.47717 62.35286,284.59886 181.95277,274.49112 Z"
           id="path5076"
           inkscape:connector-curvature="0" />
        <path
           style="opacity:0.149;fill:#000000;fill-opacity:0.329787;fill-rule:evenodd;stroke:#000000;stroke-width:4.63586;stroke-linecap:butt;stroke-linejoin:miter;stroke-miterlimit:4;stroke-dasharray:none;stroke-dashoffset:0;stroke-opacity:0.0106383"
           d="m 62.35286,284.59886 47.45377,153.60032 86.08916,-77.29008 z"
           id="path5084"
           inkscape:connector-curvature="0" />
        <path
           style="opacity:0.149;fill:#000000;fill-opacity:0.335106;fill-rule:evenodd;stroke:#000000;stroke-width:4.63586;stroke-linecap:butt;stroke-linejoin:miter;stroke-miterlimit:4;stroke-dasharray:none;stroke-dashoffset:0;stroke-opacity:0.0106383"
           d="M 62.35286,284.59886 38.778282,384.7087 109.80663,438.19918 Z"
           id="path5088"
           inkscape:connector-curvature="0" />
        <path
           style="opacity:0.149;fill:#000000;fill-opacity:0.43617;fill-rule:evenodd;stroke:#000000;stroke-width:4.63586;stroke-linecap:butt;stroke-linejoin:miter;stroke-miterlimit:4;stroke-dasharray:none;stroke-dashoffset:0;stroke-opacity:0.0106383"
           d="M 38.778282,384.7087 8.655209,362.02342 62.35286,284.59886 Z"
           id="path5090"
           inkscape:connector-curvature="0" />
        <path
           style="opacity:0.149;fill:#000000;fill-opacity:0.37234;fill-rule:evenodd;stroke:#000000;stroke-width:4.63586;stroke-linecap:butt;stroke-linejoin:miter;stroke-miterlimit:4;stroke-dasharray:none;stroke-dashoffset:0;stroke-opacity:0.0106383"
           d="M 67.534849,252.56475 -47.540012,111.55159 76.089498,199.68161 Z"
           id="path5092"
           inkscape:connector-curvature="0" />
        <path
           style="opacity:0.149;fill:#000000;fill-opacity:0.43617;fill-rule:evenodd;stroke:#000000;stroke-width:4.63586;stroke-linecap:butt;stroke-linejoin:miter;stroke-miterlimit:4;stroke-dasharray:none;stroke-dashoffset:0;stroke-opacity:0.0106383"
           d="M 76.089498,199.68161 -47.540012,111.55159 H 89.826089 Z"
           id="path5094"
           inkscape:connector-curvature="0" />
        <path
           style="opacity:0.149;fill:#000000;fill-opacity:0.43617;fill-rule:evenodd;stroke:#000000;stroke-width:4.63586;stroke-linecap:butt;stroke-linejoin:miter;stroke-miterlimit:4;stroke-dasharray:none;stroke-dashoffset:0;stroke-opacity:0.0106383"
           d="M 62.35286,284.59886 -47.540012,111.55159 67.534849,252.56475 Z"
           id="path5100"
           inkscape:connector-curvature="0" />
        <path
           style="opacity:0.149;fill:#000000;fill-opacity:0.329787;fill-rule:evenodd;stroke:#000000;stroke-width:4.63586;stroke-linecap:butt;stroke-linejoin:miter;stroke-miterlimit:4;stroke-dasharray:none;stroke-dashoffset:0;stroke-opacity:0.0106383"
           d="m 62.35286,284.59886 -119.434677,-42.35987 9.541805,-130.6874 z"
           id="path5102"
           inkscape:connector-curvature="0" />
      </g>
    </g>
    <g
       id="g971"
       transform="matrix(0.37483569,0,0,0.37438171,-1.6034926,-76.99062)"
       style="stroke-width:2.66945">
      <circle
         r="152"
         cy="1170"
         cx="352"
         id="circle4581"
         style="fill:#263238;fill-opacity:0.2;stroke-width:2.66945;filter:url(#filter4530-5)"
         transform="matrix(0.18322946,0,0,0.18322946,30.131786,36.49905)" />
      <circle
         style="fill:#42a5f5;fill-opacity:1;stroke-width:0.489124"
         id="circle4585"
         cx="94.628555"
         cy="249.41171"
         r="27.850876" />
      <path
         id="path4655"
         d="m 85.559458,238.02732 c -6.502135,0 -11.748159,5.0771 -11.748159,11.38455 0,3.08813 1.257431,5.88111 3.304214,7.92789 l 19.813113,19.81313 A 27.850876,27.850876 0 0 0 122.36461,251.7069 l -10.22328,-10.22329 c -2.13373,-2.13372 -5.1249,-3.45629 -8.44359,-3.45629 h -4.728176 v 1.80508 l -1.805085,-1.80508 H 85.559826 Z"
         style="fill:url(#linearGradient4665);fill-opacity:1;stroke-width:0.489124"
         inkscape:connector-curvature="0" />
      <path
         style="display:inline;fill:#263238;fill-opacity:0.2;stroke-width:2.66945;filter:url(#filter4508-5)"
         d="m 302.50456,1107.8688 c -35.48633,0 -64.11728,27.7082 -64.11728,62.1319 0,34.4238 28.63095,62.132 64.11728,62.132 h 63.33537 v -41.6795 h -38.62677 l -8.91384,8.8317 c 0.71782,1.431 1.25105,2.9461 1.25105,4.6483 0,6.0076 -5.03971,10.8459 -11.10323,10.8459 -6.06354,0 -10.94687,-4.8383 -10.94687,-10.8459 0,-6.0077 4.88333,-10.846 10.94687,-10.846 1.70015,0 3.24088,0.4047 4.6915,1.0846 l 11.10327,-10.846 h 41.59802 v -14.0998 h -77.40989 c -1.50963,4.2205 -5.38788,7.2823 -10.16494,7.2823 -6.06354,0 -11.10326,-4.8383 -11.10326,-10.8459 0,-6.0077 5.03972,-10.8461 11.10326,-10.8461 4.77706,0 8.65531,3.0619 10.16494,7.2824 h 77.40989 v -1.2396 l -4.5351,-4.4933 h -49.26085 l -8.75752,-8.6768 -5.4734,-5.423 -6.41173,-6.5076 h -0.15622 c -0.67227,0.2649 -1.42797,0.4649 -2.18939,0.4649 -3.25422,0 -5.94258,-2.6636 -5.94258,-5.8879 0,-3.2242 2.68836,-5.7328 5.94258,-5.7328 3.25423,0 5.94259,2.5086 5.94259,5.7328 0,0.7544 -0.20202,1.5032 -0.4689,2.1692 -0.0213,0.046 0.0213,0.1097 0,0.1548 l 6.56813,6.5076 5.4734,5.423 7.35003,7.2823 h 42.84915 l -7.81919,-7.7471 H 321.4274 l -12.04153,-11.9306 h -0.15622 c -0.66808,0.2606 -1.42797,0.4648 -2.18939,0.4648 -3.25422,0 -5.78619,-2.6635 -5.78619,-5.8878 0,-3.2243 2.53197,-5.8878 5.78619,-5.8878 3.25423,0 5.94259,2.6635 5.94259,5.8878 0,0.7544 -0.20628,1.5073 -0.4689,2.1692 -0.0213,0.045 0.0213,0.1101 0,0.1548 l 10.79047,10.5361 h 27.52354 l 15.01282,14.8745 v -46.6377 h -63.3354 z m 73.18755,0 v 54.2299 7.1273 62.9067 h 25.80329 c 35.48634,0 64.11731,-27.7082 64.11731,-62.132 0,-34.4237 -28.63097,-62.1319 -64.11731,-62.1319 z"
         id="path4657"
         inkscape:connector-curvature="0"
         transform="matrix(0.18322946,0,0,0.18322946,30.131786,36.49905)" />
      <path
         inkscape:connector-curvature="0"
         id="path4659"
         d="m 85.55953,238.02732 c -6.50214,0 -11.748173,5.07696 -11.748173,11.38439 0,6.30745 5.246033,11.38441 11.748173,11.38441 h 11.604906 v -7.63691 h -7.077563 l -1.633278,1.61823 c 0.131526,0.2622 0.22923,0.53981 0.22923,0.85169 0,1.10079 -0.923423,1.9873 -2.034439,1.9873 -1.111019,0 -2.005789,-0.88651 -2.005789,-1.9873 0,-1.10078 0.89477,-1.98729 2.005789,-1.98729 0.311518,0 0.593824,0.0742 0.859621,0.19873 l 2.034447,-1.98731 h 7.621982 v -2.58351 H 82.980664 c -0.276608,0.77333 -0.987218,1.33434 -1.862516,1.33434 -1.11102,0 -2.034445,-0.88651 -2.034445,-1.98728 0,-1.1008 0.923425,-1.98733 2.034445,-1.98733 0.875298,0 1.585908,0.56103 1.862516,1.33435 h 14.183772 v -0.22714 l -0.830964,-0.82329 h -9.026039 l -1.604635,-1.58986 -1.002889,-0.99365 -1.174817,-1.19237 h -0.02863 c -0.12318,0.0485 -0.261646,0.0852 -0.40116,0.0852 -0.59627,0 -1.088856,-0.48805 -1.088856,-1.07885 0,-0.59076 0.492586,-1.05042 1.088856,-1.05042 0.596271,0 1.088857,0.45966 1.088857,1.05042 0,0.13823 -0.03701,0.27543 -0.08592,0.39746 -0.0039,0.008 0.0039,0.0201 0,0.0284 l 1.203476,1.19238 1.002887,0.99364 1.346742,1.33434 h 7.851226 l -1.432704,-1.4195 h -5.043123 l -2.206363,-2.18603 h -0.02862 c -0.122412,0.0477 -0.261647,0.0852 -0.401161,0.0852 -0.596269,0 -1.060201,-0.48804 -1.060201,-1.07883 0,-0.59078 0.463932,-1.07882 1.060201,-1.07882 0.596271,0 1.088857,0.48804 1.088857,1.07882 0,0.13823 -0.0378,0.27618 -0.08592,0.39747 -0.0039,0.008 0.0039,0.0202 0,0.0284 l 1.977133,1.93053 H 94.4138 l 2.750792,2.72544 v -8.54541 H 85.559681 Z m 13.410115,0 v 9.93651 1.30592 11.52637 h 4.727925 c 6.50214,0 11.74818,-5.07696 11.74818,-11.38441 0,-6.30743 -5.24604,-11.38439 -11.74818,-11.38439 z"
         style="display:inline;fill:#ffffff;fill-opacity:1;stroke-width:0.489124" />
      <path
         inkscape:connector-curvature="0"
         id="path4661"
         d="m 86.390743,240.41196 c -0.596269,0 -1.060369,0.48819 -1.060369,1.07898 0,0.0625 0.0061,0.12346 0.01611,0.18322 0.08439,-0.50506 0.511017,-0.89575 1.044266,-0.89575 0.529357,0 0.975872,0.38495 1.069673,0.88465 0.01125,-0.0566 0.01897,-0.11421 0.01897,-0.17212 0,-0.59079 -0.492369,-1.07898 -1.08864,-1.07898 z m -3.295268,0.68139 c -0.596269,0 -1.088998,0.45957 -1.088998,1.05035 0,0.0627 0.0065,0.12402 0.01716,0.18394 0.0894,-0.50005 0.538715,-0.86784 1.07182,-0.86784 0.529186,0 0.975674,0.36231 1.069673,0.85674 0.01123,-0.0567 0.01897,-0.1147 0.01897,-0.17284 0,-0.59078 -0.492369,-1.05035 -1.08864,-1.05035 z m 4.372456,0.89609 c -0.01455,0.0927 -0.04173,0.18276 -0.07444,0.26519 -0.0039,0.008 0.0039,0.0204 0,0.0286 l 1.977234,1.93037 h 5.043102 l 2.750589,2.72554 v -0.36647 l -2.750589,-2.72552 h -5.043102 z m -3.295625,0.65348 c -0.0144,0.0922 -0.04094,0.18212 -0.07408,0.26483 -0.0039,0.008 0.0039,0.02 0,0.0283 l 1.203517,1.19242 1.00275,0.99381 1.347025,1.33414 h 7.850952 l -0.370038,-0.36645 H 87.65152 l -1.347025,-1.33415 -1.00275,-0.9938 z m -3.054064,3.98666 c -1.111016,0 -2.034489,0.88648 -2.034489,1.98727 0,0.0619 0.004,0.1228 0.0097,0.18321 0.09583,-1.0141 0.976293,-1.80401 2.024829,-1.80401 0.875299,0 1.585747,0.56082 1.862356,1.33415 h 14.18382 v -0.2269 l -0.141001,-0.13957 H 82.980592 c -0.276609,-0.77331 -0.987057,-1.33415 -1.862356,-1.33415 z m -7.302336,2.96532 c -8.59e-4,0.0612 -0.0047,0.12177 -0.0047,0.18323 0,6.30745 5.246016,11.38456 11.748157,11.38456 H 97.16437 v -0.36645 H 85.559408 c -6.438785,0 -11.642641,-4.97946 -11.743506,-11.20134 z m 41.625294,0 c -0.10087,6.22188 -5.30472,11.20134 -11.74351,11.20134 h -4.728174 v 0.36645 h 4.728174 c 6.50215,0 11.74816,-5.07711 11.74816,-11.38456 0,-0.0615 -0.004,-0.12201 -0.005,-0.18323 z m -25.898695,2.25815 -2.034493,1.98762 c -0.265796,-0.12457 -0.548085,-0.19899 -0.859602,-0.19899 -1.111018,0 -2.005863,0.88648 -2.005863,1.98726 0,0.0618 0.0038,0.12291 0.0093,0.18322 0.09296,-1.0141 0.94802,-1.80401 1.996558,-1.80401 0.311518,0 0.593806,0.0744 0.859602,0.19899 l 2.034493,-1.98762 h 7.621914 v -0.36647 H 89.54251 Z m -0.977701,3.18075 -0.111299,0.11023 c 0.109141,0.21758 0.191524,0.44683 0.217586,0.69641 0.0076,-0.0694 0.0118,-0.14007 0.0118,-0.2115 0,-0.2126 -0.04753,-0.4084 -0.118097,-0.59514 z"
         style="display:inline;fill:#1a237e;fill-opacity:0.2;stroke-width:0.489124" />
      <path
         id="path4663"
         d="m 122.47191,249.19694 a 27.850876,27.850876 0 0 1 -27.84336,27.69916 27.850876,27.850876 0 0 1 -27.843361,-27.63615 27.850876,27.850876 0 0 0 -0.0075,0.15173 27.850876,27.850876 0 0 0 27.850871,27.85087 27.850876,27.850876 0 0 0 27.85088,-27.85087 27.850876,27.850876 0 0 0 -0.008,-0.21474 z"
         style="fill:#1a237e;fill-opacity:0.2;stroke-width:0.489124"
         inkscape:connector-curvature="0" />
    </g>
  </g>
</svg>
